AwardType	AwardValue1	AwardValue2	AwardValue3	RandRate	WorldNotify	Name
item	2207	1		5600		Nạp Lan Chân
item	212	1		70000		Thủy Tinh Trắng
item	1727	1		25000		Đá Hồn Nạp Lan Chân-Sơ
item	1234	1		40000		Hoa Hồng
item	1235	1		40000		Cỏ May Mắn
item	926	1		30000		Lăng Tuyệt Phong Lệnh Bài Lv5
