AwardType	AwardValue1	AwardValue2	AwardValue3	RandRate	WorldNotify	Name	IntoAuction
item	2216	1		2400		Dương Hi Liệt	1
item	212	1		90000		Thủy Tinh Trắng	
item	1764	1		10000		Đá Hồn Dương Hi Liệt-Sơ	
item	1234	1		50000		Hoa Hồng	
item	1235	1		50000		Cỏ May Mắn	
item	926	1		30000		Lăng Tuyệt Phong Lệnh Bài Lv5	
