nLevel	szName	OpenTimeFrame	nItemXY	nItemCC	nItemPT	szMoneyType	nPrice	SkillMaxLevel
1	Chân Nguyên Bậc 1	OpenLevel69	4282	4289	4275	Energy	10000	2
2	Chân Nguyên Bậc 2	OpenLevel79	4283	4290	4276	Energy	16000	3
3	Chân Nguyên Bậc 3	OpenLevel89	4284	4291	4277	Energy	24000	4
4	Chân Nguyên Bậc 4	OpenLevel99	4285	4292	4278	Energy	36000	5
5	Chân Nguyên Bậc 5	OpenLevel109	4286	4293	4279	Energy	48000	6
6	Chân Nguyên Bậc 6	OpenLevel119	4287	4294	4280	Energy	60000	7
7	Chân Nguyên Bậc 7	OpenLevel129	4288	4295	4281	Energy	72000	8
8	Chân Nguyên Bậc 8	OpenLevel139	7108	7109	7107	Energy	84000	9
9	Chân Nguyên Bậc 9	OpenLevel149	7573	7580	7566	Energy	90000	10
