TemplateId	Name	Kind	ShowType	ItemType	DetailType	Level	RequireLevel	RealLevel	Icon	BigIcon	ObjID	Intro	Price	Quality	ItemValue	Sellable	ClassName	ResEffect	FightPower	Attrib1Type	Attrib1Value1	Attrib1Value2	Attrib1Value3	Attrib2Type	Attrib2Value1	Attrib2Value2	Attrib2Value3	Attrib3Type	Attrib3Value1	Attrib3Value2	Attrib3Value3	Attrib4Type	Attrib4Value1	Attrib4Value2	Attrib4Value3	Attrib5Type	Attrib5Value1	Attrib5Value2	Attrib5Value3	Attrib6Type	Attrib6Value1	Attrib6Value2	Attrib6Value3	Attrib7Type	Attrib7Value1	Attrib7Value2	Attrib7Value3	Attrib8Type	Attrib8Value1	Attrib8Value2	Attrib8Value3	Attrib9Type	Attrib9Value1	Attrib9Value2	Attrib9Value3	Attrib10Type	Attrib10Value1	Attrib10Value2	Attrib10Value3	HoleCount	InsetLevel
91	Giày T1	T1_Boots_Q1	9101	6	1	1	1	1					5000	1	5000	1	equip		0	runspeed_v	6																																								
92	Giày T2	T2_Boots_Q1	9102	6	1	2	38	3					10000	2	10000	1	equip		0	runspeed_v	7.6																																							1	2
93	Giày T3	T3_Boots_Q1	9103	6	1	3	49	6					20000	3	20000	1	equip		0	runspeed_v	9																																							2	3
94	Giày T4	T4_Boots_Q1	9104	6	1	4	59	9					40000	4	40000	1	equip		0	runspeed_v	10																																							3	4
95	Giày T5	T5_Boots_Q1	9105	6	1	5	69	12					80000	5	80000	1	equip		0	runspeed_v	12																																							4	4
96	Giày T6	T6_Boots_Q1	9106	6	1	6	79	15					160000	6	160000	1	equip		0	runspeed_v	14																																							4	5
97	Giày T7	T7_Boots_Q1	9107	6	1	7	89	18					320000	7	320000	1	equip		0	runspeed_v	16																																							4	5
98	Giày T8	T8_Boots_Q1	9108	6	1	8	99	21					450000	8	450000	1	equip		0	runspeed_v	20																																							5	5
99	Giày T9	T9_Boots_Q1	9109	6	1	9	109	24					600000	8	600000	1	equip		0	runspeed_v	24																																							6	6
100	Giày T10	T10_Boots_Q1	9110	6	1	10	119	27					800000	8	800000	1	equip		0	runspeed_v	28																																							7	6
4991	Giày T11	T11_Boots_Q1	9111	6	1	11	129	30					1000000	8	1000000	1	equip		0	runspeed_v	29																																							7	7
4992	Giày T12	T12_Boots_Q1	9112	6	1	12	139	33					1200000	8	1200000	1	equip		0	runspeed_v	30																																							7	7
4993	Giày T13	T13_Boots_Q1	9113	6	1	13	149	36					1350000	8	1350000	1	equip		0	runspeed_v	31																																							7	7
4994	Giày T14	T14_Boots_Q1	9114	6	1	14	159	39					1480000	8	1480000	1	equip		0	runspeed_v	32																																							7	7
4995	Giày T15	T15_Boots_Q1	9115	6	1	15	169	42					800000	8	800000	1	equip		0	runspeed_v	33																																							7	7
4996	Giày T16	T16_Boots_Q1	9116	6	1	16	179	42					800000	8	800000	1	equip		0	runspeed_v	34																																							7	7
4997	Giày T17	T17_Boots_Q1	9117	6	1	17	189	42					800000	8	800000	1	equip		0	runspeed_v	35																																							7	7
4998	Giày T18	T18_Boots_Q1	9118	6	1	18	199	42					800000	8	800000	1	equip		0	runspeed_v	36																																							7	7
4999	Giày T19	T19_Boots_Q1	9119	6	1	19	209	42					800000	8	800000	1	equip		0	runspeed_v	37																																							7	7
5000	Giày T20	T20_Boots_Q1	9120	6	1	20	219	42					800000	8	800000	1	equip		0	runspeed_v	38																																							7	7
1594	【Kế Thừa】Giày Bậc 1	T1_Boots_Q3	9501	6	3	1	1	2					20000	1	20000	1	equip		0	runspeed_v	6																																								
1595	【Kế Thừa】Giày Bậc 2	T2_Boots_Q3	9502	6	3	2	38	5					40000	2	40000	1	equip		0	runspeed_v	8																																							2	2
1596	【Kế Thừa】Giày Bậc 3	T3_Boots_Q3	9503	6	3	3	49	8					80000	3	80000	1	equip		0	runspeed_v	9																																							3	3
1597	【Kế Thừa】Giày Bậc 4	T4_Boots_Q3	9504	6	3	4	59	11					200000	4	200000	1	equip		0	runspeed_v	11																																							3	4
1598	【Kế Thừa】Giày Bậc 5	T5_Boots_Q3	9505	6	3	5	69	14					450000	5	450000	1	equip		0	runspeed_v	13																																							4	4
1599	【Kế Thừa】Giày Bậc 6	T6_Boots_Q3	9506	6	3	6	79	17					600000	6	600000	1	equip		0	runspeed_v	15																																							4	5
1600	【Kế Thừa】Giày Bậc 7	T7_Boots_Q3	9507	6	3	7	89	20					800000	7	800000	1	equip		0	runspeed_v	18																																							5	5
1601	【Kế Thừa】Giày Bậc 8	T8_Boots_Q3	9508	6	3	8	99	23					1200000	8	1200000	1	equip		0	runspeed_v	23																																							5	6
3617	【Kế Thừa】Giày Bậc 9	T9_Boots_Q3	9509	6	3	9	109	26					1800000	8	1800000	1	equip		0	runspeed_v	28																																							6	6
3618	【Kế Thừa】Giày Bậc 10	T10_Boots_Q3	9510	6	3	10	119	29					2400000	8	2400000	1	equip		0	runspeed_v	29																																							7	6
5191	【Kế Thừa】Giày Bậc 11	T11_Boots_Q3	9511	6	3	11	129	32					3200000	8	3200000	1	equip		0	runspeed_v	30																																							7	7
5192	【Kế Thừa】Giày Bậc 12	T12_Boots_Q3	9512	6	3	12	139	35					3840000	8	3840000	1	equip		0	runspeed_v	31																																							7	7
5193	【Kế Thừa】Giày Bậc 13	T13_Boots_Q3	9513	6	3	13	149	38					4224000	8	4224000	1	equip		0	runspeed_v	32																																							7	7
5194	【Kế Thừa】Giày Bậc 14	T14_Boots_Q3	9514	6	3	14	159	41					4350000	8	4350000	1	equip		0	runspeed_v	33																																							7	7
5195	【Kế Thừa】Giày Bậc 15	T15_Boots_Q3	9515	6	3	15	169	44					2400000	8	2400000	1	equip		0	runspeed_v	34																																							7	7
5196	【Kế Thừa】Giày Bậc 16	T16_Boots_Q3	9516	6	3	16	179	41					2400000	8	2400000	1	equip		0	runspeed_v	35																																							7	7
5197	【Kế Thừa】Giày Bậc 17	T17_Boots_Q3	9517	6	3	17	189	41					2400000	8	2400000	1	equip		0	runspeed_v	36																																							7	7
5198	【Kế Thừa】Giày Bậc 18	T18_Boots_Q3	9518	6	3	18	199	41					2400000	8	2400000	1	equip		0	runspeed_v	37																																							7	7
5199	【Kế Thừa】Giày Bậc 19	T19_Boots_Q3	9519	6	3	19	209	41					2400000	8	2400000	1	equip		0	runspeed_v	38																																							7	7
5200	【Kế Thừa】Giày Bậc 20	T20_Boots_Q3	9520	6	3	20	219	41					2400000	8	2400000	1	equip		0	runspeed_v	39																																							7	7
191	【Hiếm】Giày Bậc 1	T1_Boots_Q2	9201	6	2	1	1	4					50000	1	50000	1	equip		0	runspeed_v	8																																								
192	【Hiếm】Giày Bậc 2	T2_Boots_Q2	9202	6	2	2	38	7					100000	2	100000	1	equip		0	runspeed_v	9																																							3	3
193	【Hiếm】Giày Bậc 3	T3_Boots_Q2	9203	6	2	3	49	10					250000	3	250000	1	equip		0	runspeed_v	10																																							3	4
194	【Hiếm】Giày Bậc 4	T4_Boots_Q2	9204	6	2	4	59	13					600000	4	600000	1	equip		0	runspeed_v	12																																							4	4
195	【Hiếm】Giày Bậc 5	T5_Boots_Q2	9205	6	2	5	69	16					1250000	5	1250000	1	equip		0	runspeed_v	14																																							4	5
196	【Hiếm】Giày Bậc 6	T6_Boots_Q2	9206	6	2	6	79	19					1500000	6	1500000	1	equip		0	runspeed_v	17																																							5	5
197	【Hiếm】Giày Bậc 7	T7_Boots_Q2	9207	6	2	7	89	22					2000000	7	2000000	1	equip		0	runspeed_v	22																																							5	6
198	【Hiếm】Giày Bậc 8	T8_Boots_Q2	9208	6	2	8	99	25					2700000	8	2700000	1	equip		0	runspeed_v	24																																							6	6
199	【Hiếm】Giày Bậc 9	T9_Boots_Q2	9209	6	2	9	109	28					4000000	8	4000000	1	equip		0	runspeed_v	28																																							7	6
200	【Hiếm】Giày Bậc 10	T10_Boots_Q2	9210	6	2	10	119	31					5000000	8	5000000	1	equip		0	runspeed_v	31																																							7	7
5091	【Hiếm】Giày Bậc 11	T11_Boots_Q2	9211	6	2	11	129	34					6250000	8	6250000	1	equip		0	runspeed_v	32																																							7	7
5092	【Hiếm】Giày Bậc 12	T12_Boots_Q2	9212	6	2	12	139	37					7500000	8	7500000	1	equip		0	runspeed_v	33																																							7	7
5093	【Hiếm】Giày Bậc 13	T13_Boots_Q2	9213	6	2	13	149	40					8250000	8	8250000	1	equip		0	runspeed_v	34																																							7	7
5094	【Hiếm】Giày Bậc 14	T14_Boots_Q2	9214	6	2	14	159	43					7830000	8	7830000	1	equip		0	runspeed_v	35																																							7	7
5095	【Hiếm】Giày Bậc 15	T15_Boots_Q2	9215	6	2	15	169	46					5000000	8	5000000	1	equip		0	runspeed_v	36																																							7	7
5096	【Hiếm】Giày Bậc 16	T16_Boots_Q2	9216	6	2	16	179	43					5000000	8	5000000	1	equip		0	runspeed_v	37																																							7	7
5097	【Hiếm】Giày Bậc 17	T17_Boots_Q2	9217	6	2	17	189	43					5000000	8	5000000	1	equip		0	runspeed_v	38																																							7	7
5098	【Hiếm】Giày Bậc 18	T18_Boots_Q2	9218	6	2	18	199	43					5000000	8	5000000	1	equip		0	runspeed_v	39																																							7	7
5099	【Hiếm】Giày Bậc 19	T19_Boots_Q2	9219	6	2	19	209	43					5000000	8	5000000	1	equip		0	runspeed_v	40																																							7	7
5100	【Hiếm】Giày Bậc 20	T20_Boots_Q2	9220	6	2	20	219	43					5000000	8	5000000	1	equip		0	runspeed_v	41																																							7	7
2791	【Hoàng Kim】Giày Bậc 6	T6_Boots_Q4	9306	6	4	6	79	101					19500000	7	19500000	1	equip		18000	runspeed_v	22																																							5	6
2792	【Hoàng Kim】Giày Bậc 7	T7_Boots_Q4	9307	6	4	7	89	102					30800000	7	30800000	1	equip		28800	runspeed_v	28																																							6	6
2793	【Hoàng Kim】Giày Bậc 8	T8_Boots_Q4	9308	6	4	8	99	103					45900000	7	45900000	1	equip		43200	runspeed_v	31																																							7	6
3637	【Hoàng Kim】Giày Bậc 9	T9_Boots_Q4	9309	6	4	9	109	104					61600000	7	61600000	1	equip		57600	runspeed_v	33																																							7	7
3638	【Hoàng Kim】Giày Bậc 10	T10_Boots_Q4	9310	6	4	10	119	105					77000000	7	77000000	1	equip		72000	runspeed_v	35																																							7	7
5405	【Hoàng Kim】Giày Bậc 11	T11_Boots_Q4	9311	6	4	11	129	106					92650000	7	92650000	1	equip		86400	runspeed_v	36																																							7	7
5406	【Hoàng Kim】Giày Bậc 12	T12_Boots_Q4	9312	6	4	12	139	107					108300000	7	108300000	1	equip		108300	runspeed_v	37																																							7	7
5407	【Hoàng Kim】Giày Bậc 13	T13_Boots_Q4	9313	6	4	13	149	108					122700000	7	122700000	1	equip		122700	runspeed_v	38																																							7	7
5408	【Hoàng Kim】Giày Bậc 14	T14_Boots_Q4	9314	6	4	14	159	109					137100000	7	137100000	1	equip		137100	runspeed_v	39																																							7	7
5409	【Hoàng Kim】Giày Bậc 15	T15_Boots_Q4	9315	6	4	15	169	110					151500000	7	151500000	1	equip		151500	runspeed_v	40																																							7	7
411	Giày T1 (Thấp)	T1_Boots_Test_Q1	9101	6	1	1	1	1					20000	1	3000	1	equip		0	runspeed_v	6																																								
412	Giày T2 (Thấp)	T2_Boots_Test_Q1	9102	6	1	2	1	3					40000	2	3000	1	equip		0	runspeed_v	8																																							3	1
413	Giày T3 (Thấp)	T3_Boots_Test_Q1	9103	6	1	3	1	6					80000	3	3000	1	equip		0	runspeed_v	9																																							3	2
414	Giày T4 (Thấp)	T4_Boots_Test_Q1	9104	6	1	4	1	9					200000	4	3000	1	equip		0	runspeed_v	10																																							3	3
415	Giày T5 (Thấp)	T5_Boots_Test_Q1	9105	6	1	5	1	12					500000	5	3000	1	equip		0	runspeed_v	12																																							3	3
416	Giày T6 (Thấp)	T6_Boots_Test_Q1	9106	6	1	6	79	15					1200000	6	3000	1	equip		0	runspeed_v	14																																							4	5
417	Giày T7 (Thấp)	T7_Boots_Test_Q1	9107	6	1	7	89	18					3200000	7	3000	1	equip		0	runspeed_v	16																																							4	5
418	Giày T8 (Thấp)	T8_Boots_Test_Q1	9108	6	1	8	99	21					7000000	8	3000	1	equip		0	runspeed_v	20																																							5	5
3848	Giày T9 (Thấp)	T9_Boots_Test_Q1	9109	6	1	9	109	24					7000000	8	3000	1	equip		0	runspeed_v	24																																							6	6
3849	Giày T10 (Thấp)	T10_Boots_Test_Q1	9110	6	1	10	119	27					7000000	8	3000	1	equip		0	runspeed_v	28																																							7	6
419	Giày T1 (Trung)	T1_Boots_Test_Q2	9101	6	2	1	1	1					20000	1	3000	1	equip		0	runspeed_v	6																																								
420	Giày T2 (Trung)	T2_Boots_Test_Q2	9102	6	2	2	20	3					40000	2	3000	1	equip		0	runspeed_v	8																																							3	1
421	Giày T3 (Trung)	T3_Boots_Test_Q2	9103	6	2	3	40	6					80000	3	3000	1	equip		0	runspeed_v	9																																							3	2
422	Giày T4 (Trung)	T4_Boots_Test_Q2	9104	6	2	4	50	9					200000	4	3000	1	equip		0	runspeed_v	10																																							3	3
423	Giày T5 (Trung)	T5_Boots_Test_Q2	9105	6	2	5	60	12					500000	5	3000	1	equip		0	runspeed_v	12																																							3	3
424	【Kế Thừa】Giày Bậc 6	T6_Boots_Test_Q2	9506	6	2	6	79	15					600000	6	600000	1	equip		0	runspeed_v	15																																							4	5
425	Giày T7 (Trung)	T7_Boots_Test_Q2	9107	6	2	7	89	18					3200000	7	3000	1	equip		0	runspeed_v	18																																							5	5
426	Giày T8 (Trung)	T8_Boots_Test_Q2	9108	6	2	8	99	21					7000000	8	3000	1	equip		0	runspeed_v	23																																							5	6
3850	Giày T9 (Trung)	T9_Boots_Test_Q2	9109	6	2	9	109	24					7000000	8	3000	1	equip		0	runspeed_v	28																																							6	6
3851	Giày T10 (Trung)	T10_Boots_Test_Q2	9110	6	2	10	119	27					7000000	8	3000	1	equip		0	runspeed_v	28																																							7	6
427	Giày T1 (Cao)	T1_Boots_Test_Q3	9201	6	3	1	1	1					20000	1	3000	1	equip		0	runspeed_v	6																																								
428	Giày T2 (Cao)	T2_Boots_Test_Q3	9202	6	3	2	38	3					40000	2	3000	1	equip		0	runspeed_v	8																																							3	3
429	Giày T3 (Cao)	T3_Boots_Test_Q3	9203	6	3	3	49	6					80000	3	3000	1	equip		0	runspeed_v	9																																							3	4
430	Giày T4 (Cao)	T4_Boots_Test_Q3	9204	6	3	4	59	9					200000	4	3000	1	equip		0	runspeed_v	10																																							4	4
431	Giày T5 (Cao)	T5_Boots_Test_Q3	9205	6	3	5	69	12					500000	5	3000	1	equip		0	runspeed_v	12																																							4	5
432	Giày T6 (Cao)	T6_Boots_Test_Q3	9206	6	3	6	79	15					1200000	6	3000	1	equip		0	runspeed_v	17																																							5	5
433	Giày T7 (Cao)	T7_Boots_Test_Q3	9207	6	3	7	89	18					3200000	7	3000	1	equip		0	runspeed_v	16																																							5	6
434	Giày T8 (Cao)	T8_Boots_Test_Q3	9208	6	3	8	99	21					7000000	8	3000	1	equip		0	runspeed_v	20																																							6	6
3852	Giày T9 (Cao)	T9_Boots_Test_Q3	9209	6	3	9	109	24					7000000	8	3000	1	equip		0	runspeed_v	28																																							7	6
3853	Giày T10 (Cao)	T10_Boots_Test_Q3	9210	6	3	10	119	27					7000000	8	3000	1	equip		0	runspeed_v	31																																							7	7
1255	Giày T1 (Đặc chế)	Cus_T1_Boots_Q1	9101	6	1	1	1	1					5000	1	5000	1	equip		0	runspeed_v	6																																								
