Index	NpcName	TitleID	NpcTemplateId	WalkNearLength	CanAutoPath	NpcLevel	XPos	YPos	StandDir	Quantity	NpcType	NpcCamp	NpcDroprate	NpcSeriesAuto	NpcSeriesMetal	NpcSeriesWood	NpcSeriesWater	NpcSeriesFire	NpcSeriesEarth	Removewhendeath	ChangeColorScheme
Out_ty	Đình Viện		73	50		1	1205	6519	0	-1	0	0		0	0	0	0	0	0	0	0
Out_sn	Trong phòng		73	50		1	6171	18080	0	-1	0	0		0	0	0	0	0	0	0	0
Go_Out	Lối ra		73	50		1	1967	18145	0	-1	0	0		0	0	0	0	0	0	0	0
GoTo_sn	Vào trong phòng			50	1	1	1520	6495	0	-1	0	0		0	0	0	0	0	0	0	0
GoTo_sn	Đến lối ra			50	1	1	1967	18145	0	-1	0	0		0	0	0	0	0	0	0	0
