Index	XPos	YPos	Text	Color	FontSize	NotShow
SafeArea	5070	6260	Khu an toàn	Green	16	
BossRoom1	1500	3270	Tầng 3-Huyền Thiên Võ Cơ	Green	16	1
BossRoom2	6090	1570	Tầng 3-Bạch Khởi	Green	16	1
BossRoom3	6340	4950	Tầng 3-Lý Tư	Green	16	1
EmperorRoom1	8600	6640	Tần Thủy Hoàng-Cổng 1	Green	16	1
EmperorRoom2	9000	2300	Tần Thủy Hoàng-Cổng 2	Green	16	1
EmperorRoom3	2150	8450	Tần Thủy Hoàng-Cổng 3	Green	16	1
EmperorMark1				White	16	1
EmperorMark2				White	16	1
EmperorMark3				White	16	1
