nTemplateId	szInfo	szType	szSubType	szResPath	nDepth	nWidth	nLength	nHeight	bCanOperation	bHasObstacle	nBarrierType	szLimitRotation	szScale	bShowDir	nAllowRelation
1	Giường Gỗ Tùng	NormalAddRes	Chuang	Scenes/Meshes/sn_jiayuan/Prefabs/sn_jiayuan_chuang01s.prefab	1	13	8	80	1	1		90|180			
2	Giường Bạch Dương	NormalAddRes	Chuang	Scenes/Meshes/sn_jiayuan/Prefabs/sn_jiayuan_chuang02s.prefab	1	16	14	80	1	1		90|180			
3	Giang Phong Ngư Hỏa	NormalAddRes	Chuang	Scenes/Meshes/sn_jiayuan/Prefabs/sn_jiayuan_chuang03s.prefab	1	16	14	80	1	1		90|180			
4	Hồng Loan Thê Chi	NormalAddRes	Chuang	Scenes/Meshes/sn_jiayuan/Prefabs/sn_jiayuan_chuang04s.prefab	1	16	16	65	1	1		90|180			
5	Kim Long Hí Châu	NormalAddRes	Chuang	Scenes/Meshes/sn_jiayuan/Prefabs/sn_jiayuan_chuang05s.prefab	1	19	19	75	1	1		90|180			
501	Tủ Gỗ Tùng	DoCmd	GuiZi	Scenes/Meshes/sn_jiayuan/Prefabs/sn_jiayuan_guizi01_01s.prefab	1	3	6	250	1	1		90|180			
502	Tủ Bạch Dương	DoCmd	GuiZi	Scenes/Meshes/sn_jiayuan/Prefabs/sn_jiayuan_guizi02_01s.prefab	1	3	7	250	1	1		90|180			
503	Tủ Mặc Hương	DoCmd	GuiZi	Scenes/Meshes/sn_jiayuan/Prefabs/sn_jiayuan_guizi03_01s.prefab	1	3	7	250	1	1		90|180			
504	Tủ Sắc Màu	DoCmd	GuiZi	Scenes/Meshes/sn_jiayuan/Prefabs/sn_jiayuan_guizi04_01s.prefab	1	3	7	250	1	1		90|180			
505	Tủ Tử Đàn	DoCmd	GuiZi	Scenes/Meshes/sn_jiayuan/Prefabs/sn_jiayuan_guizi05_01s.prefab	1	3	7	250	1	1		90|180			
506	Kệ Sách Gỗ Tùng			Scenes/Meshes/sn_jiayuan/Prefabs/sn_jiayuan_guizi01_02s.prefab	1	3	6	250		1		90|180			
507	Kệ Sách Bạch Dương			Scenes/Meshes/sn_jiayuan/Prefabs/sn_jiayuan_guizi02_02s.prefab	1	3	7	250		1		90|180			
508	Kệ Sách Mặc Hương			Scenes/Meshes/sn_jiayuan/Prefabs/sn_jiayuan_guizi03_02s.prefab	1	3	7	250		1		90|180			
509	Kệ Sách Sắc Màu			Scenes/Meshes/sn_jiayuan/Prefabs/sn_jiayuan_guizi04_02s.prefab	1	3	7	250		1		90|180			
510	Kệ Sách Tử Đàn			Scenes/Meshes/sn_jiayuan/Prefabs/sn_jiayuan_guizi05_02s.prefab	1	3	7	250		1		90|180			
511	Kệ Gỗ Tùng			Scenes/Meshes/sn_jiayuan/Prefabs/sn_jiayuan_guizi01_03s.prefab	1	3	6	250		1		90|180			
512	Kệ Bạch Dương			Scenes/Meshes/sn_jiayuan/Prefabs/sn_jiayuan_guizi02_03s.prefab	1	3	7	250		1		90|180			
513	Kệ Mặc Hương			Scenes/Meshes/sn_jiayuan/Prefabs/sn_jiayuan_guizi03_03s.prefab	1	3	7	250		1		90|180			
514	Kệ Sắc Màu			Scenes/Meshes/sn_jiayuan/Prefabs/sn_jiayuan_guizi04_03s.prefab	1	3	7	250		1		90|180			
515	Kệ Tử Đàn			Scenes/Meshes/sn_jiayuan/Prefabs/sn_jiayuan_guizi05_03s.prefab	1	3	7	250		1		90|180			
516	Kệ Đồ Gỗ Tùng			Scenes/Meshes/sn_jiayuan/Prefabs/sn_jiayuan_guizi01_04s.prefab	1	7	3	160		1		90|180			
517	Kệ Đồ Bạch Dương			Scenes/Meshes/sn_jiayuan/Prefabs/sn_jiayuan_guizi02_04s.prefab	1	8	3	180		1		90|180			
518	Kệ Đồ Mặc Hương			Scenes/Meshes/sn_jiayuan/Prefabs/sn_jiayuan_guizi03_04s.prefab	1	7	3	160		1		90|180			
519	Kệ Đồ Sắc Màu			Scenes/Meshes/sn_jiayuan/Prefabs/sn_jiayuan_guizi04_04s.prefab	1	8	3	180		1		90|180			
520	Kệ Đồ Tử Đàn			Scenes/Meshes/sn_jiayuan/Prefabs/sn_jiayuan_guizi05_04s.prefab	1	8	4	250		1		90|180			
521	Kệ Ngăn Gỗ Tùng			Scenes/Meshes/sn_jiayuan/Prefabs/sn_jiayuan_guizi01_05s.prefab	1	4	3	170		1		90|180			
522	Kệ Ngăn Bạch Dương			Scenes/Meshes/sn_jiayuan/Prefabs/sn_jiayuan_guizi02_05s.prefab	1	4	3	200		1		90|180			
523	Kệ Ngăn Mặc Hương			Scenes/Meshes/sn_jiayuan/Prefabs/sn_jiayuan_guizi03_05s.prefab	1	5	3	170		1		90|180			
524	Kệ Ngăn Sắc Màu			Scenes/Meshes/sn_jiayuan/Prefabs/sn_jiayuan_guizi04_05s.prefab	1	4	3	175		1		90|180			
525	Kệ Ngăn Tử Đàn			Scenes/Meshes/sn_jiayuan/Prefabs/sn_jiayuan_guizi05_05s.prefab	1	5	3	135		1		90|180			
526	Tủ Vuông Gỗ Tùng			Scenes/Meshes/sn_jiayuan/Prefabs/sn_jiayuan_guizi01_06s.prefab	1	4	4	100		1		90|180			
527	Tủ Vuông Bạch Dương			Scenes/Meshes/sn_jiayuan/Prefabs/sn_jiayuan_guizi02_06s.prefab	1	4	4	120		1		90|180			
528	Tủ Vuông Mặc Hương			Scenes/Meshes/sn_jiayuan/Prefabs/sn_jiayuan_guizi03_06s.prefab	1	4	4	100		1		90|180			
529	Tủ Vuông Sắc Màu			Scenes/Meshes/sn_jiayuan/Prefabs/sn_jiayuan_guizi04_06s.prefab	1	4	4	170		1		90|180			
530	Tủ Vuông Tử Đàn			Scenes/Meshes/sn_jiayuan/Prefabs/sn_jiayuan_guizi05_06s.prefab	1	4	4	150		1		90|180			
1001	Bàn Vuông Gỗ Tùng			Scenes/Meshes/sn_jiayuan/Prefabs/sn_jiayuan_zhuozi01_01s.prefab	1	6	6	90		1		90|180			
1002	Bàn Vuông Bạch Dương			Scenes/Meshes/sn_jiayuan/Prefabs/sn_jiayuan_zhuozi02_01s.prefab	1	6	6	90		1		90|180			
1003	Bàn Tròn Mặc Hương			Scenes/Meshes/sn_jiayuan/Prefabs/sn_jiayuan_zhuozi03_01s.prefab	1	8	8	90		1		90|180			
1004	Bàn Tròn Sắc Màu			Scenes/Meshes/sn_jiayuan/Prefabs/sn_jiayuan_zhuozi04_01s.prefab	1	8	8	90		1		90|180			
1005	Bàn Tròn Tử Đàn			Scenes/Meshes/sn_jiayuan/Prefabs/sn_jiayuan_zhuozi05_01s.prefab	1	8	8	90		1		90|180			
1006	Bàn Gỗ Tùng			Scenes/Meshes/sn_jiayuan/Prefabs/sn_jiayuan_zhuozi01_02s.prefab	1	3	8	30		1		90|180			
1007	Bàn Bạch Dương			Scenes/Meshes/sn_jiayuan/Prefabs/sn_jiayuan_zhuozi02_02s.prefab	1	3	8	30		1		90|180			
1008	Bàn Mặc Hương			Scenes/Meshes/sn_jiayuan/Prefabs/sn_jiayuan_zhuozi03_02s.prefab	1	3	8	30		1		90|180			
1009	Bàn Sắc Màu			Scenes/Meshes/sn_jiayuan/Prefabs/sn_jiayuan_zhuozi04_02s.prefab	1	3	8	35		1		90|180			
1010	Bàn Tử Đàn			Scenes/Meshes/sn_jiayuan/Prefabs/sn_jiayuan_zhuozi05_02s.prefab	1	3	8	30		1		90|180			
1011	Bàn Dài Gỗ Tùng			Scenes/Meshes/sn_jiayuan/Prefabs/sn_jiayuan_zhuozi01_03s.prefab	1	3	6	20		1		90|180			
1012	Bàn Dài Bạch Dương			Scenes/Meshes/sn_jiayuan/Prefabs/sn_jiayuan_zhuozi02_03s.prefab	1	3	6	20		1		90|180			
1013	Bàn Dài Mặc Hương			Scenes/Meshes/sn_jiayuan/Prefabs/sn_jiayuan_zhuozi03_03s.prefab	1	3	6	20		1		90|180			
1014	Bàn Dài Sắc Màu			Scenes/Meshes/sn_jiayuan/Prefabs/sn_jiayuan_zhuozi04_03s.prefab	1	3	6	20		1		90|180			
1015	Bàn Dài Tử Đàn			Scenes/Meshes/sn_jiayuan/Prefabs/sn_jiayuan_zhuozi05_03s.prefab	1	3	6	20		1		90|180			
1016	Bàn Gỗ Tùng			Scenes/Meshes/sn_jiayuan/Prefabs/sn_jiayuan_zhuozi01_04s.prefab	1	3	10	90		1		90|180			
1017	Bàn Gỗ Bạch Dương			Scenes/Meshes/sn_jiayuan/Prefabs/sn_jiayuan_zhuozi02_04s.prefab	1	3	11	100		1		90|180			
1018	Bàn Gỗ Mặc Hương			Scenes/Meshes/sn_jiayuan/Prefabs/sn_jiayuan_zhuozi03_04s.prefab	1	3	11	125		1		90|180			
1019	Bàn Gỗ Sắc Màu			Scenes/Meshes/sn_jiayuan/Prefabs/sn_jiayuan_zhuozi04_04s.prefab	1	3	11	120		1		90|180			
1020	Bàn Gỗ Tử Đàn			Scenes/Meshes/sn_jiayuan/Prefabs/sn_jiayuan_zhuozi05_04s.prefab	1	3	12	125		1		90|180			
1021	Kệ Bồn Gỗ Tùng			Scenes/Meshes/sn_jiayuan/Prefabs/sn_jiayuan_zhuozi01_05s.prefab	1	2	2	95		1		90|180			
1022	Kệ Bồn Bạch Dương			Scenes/Meshes/sn_jiayuan/Prefabs/sn_jiayuan_zhuozi02_05s.prefab	1	2	2	125		1		90|180			
1023	Kệ Bồn Mặc Hương			Scenes/Meshes/sn_jiayuan/Prefabs/sn_jiayuan_zhuozi03_05s.prefab	1	2	2	170		1		90|180			
1024	Kệ Bồn Sắc Màu			Scenes/Meshes/sn_jiayuan/Prefabs/sn_jiayuan_zhuozi04_05s.prefab	1	2	2	175		1		90|180			
1025	Kệ Bồn Tử Đàn			Scenes/Meshes/sn_jiayuan/Prefabs/sn_jiayuan_zhuozi05_05s.prefab	1	4	4	130		1		90|180			
1026	Bàn Cờ Gỗ Tùng			Scenes/Meshes/sn_jiayuan/Prefabs/sn_jiayuan_weiqi01_01s.prefab	1	5	5	30		1		90|180			
1027	Bàn Cờ Bạch Dương			Scenes/Meshes/sn_jiayuan/Prefabs/sn_jiayuan_weiqi02_01s.prefab	1	5	5	45		1		90|180			
1028	Bàn Cờ Mặc Hương			Scenes/Meshes/sn_jiayuan/Prefabs/sn_jiayuan_weiqi03_01s.prefab	1	5	5	65		1		90|180			
1029	Bàn Cờ Sắc Màu			Scenes/Meshes/sn_jiayuan/Prefabs/sn_jiayuan_weiqi04_01s.prefab	1	7	7	60		1		90|180			
1030	Bàn Cờ Tử Đàn			Scenes/Meshes/sn_jiayuan/Prefabs/sn_jiayuan_weiqi05_01s.prefab	1	7	7	70		1		90|180			
1501	Đệm Cỏ			Scenes/Meshes/sn_jiayuan/Prefabs/sn_jiayuan_zuodian01_01s.prefab	1	3	3	10		0		90|180			
1502	Đệm Trúc			Scenes/Meshes/sn_jiayuan/Prefabs/sn_jiayuan_zuodian02_01s.prefab	1	3	3	10		0		90|180			
1503	Tử La Lan			Scenes/Meshes/sn_jiayuan/Prefabs/sn_jiayuan_zuodian03_01s.prefab	1	3	3	10		0		90|180			
1504	Lãnh Ngọc Lang Hoàn			Scenes/Meshes/sn_jiayuan/Prefabs/sn_jiayuan_zuodian04_01s.prefab	1	3	3	15		0		90|180			
1505	Tử Ngọc Thành Yên			Scenes/Meshes/sn_jiayuan/Prefabs/sn_jiayuan_zuodian05_01s.prefab	1	3	3	10		0		90|180			
1506	Đệm Gai Thô			Scenes/Meshes/sn_jiayuan/Prefabs/sn_jiayuan_zuodian01_02s.prefab	1	3	3	10		0		90|180			
1507	Đệm Bông			Scenes/Meshes/sn_jiayuan/Prefabs/sn_jiayuan_zuodian02_02s.prefab	1	3	3	10		0		90|180			
1508	Thanh Khiết			Scenes/Meshes/sn_jiayuan/Prefabs/sn_jiayuan_zuodian03_02s.prefab	1	3	3	10		0		90|180			
1509	Hồng Trần Khách Mộng			Scenes/Meshes/sn_jiayuan/Prefabs/sn_jiayuan_zuodian04_02s.prefab	1	3	3	10		0		90|180			
1510	Kim Lan			Scenes/Meshes/sn_jiayuan/Prefabs/sn_jiayuan_zuodian05_02s.prefab	1	3	3	10		0		90|180			
1511	Ghế Dài Gỗ Tùng		DengZi	Scenes/Meshes/sn_jiayuan/Prefabs/sn_jiayuan_dengzi01_01s.prefab	1	2	5	55	1	1				1	
1512	Ghế Dài Bạch Dương		DengZi	Scenes/Meshes/sn_jiayuan/Prefabs/sn_jiayuan_dengzi02_01s.prefab	1	2	5	45	1	1				1	
1513	Ghế Tròn Mặc Hương		DengZi	Scenes/Meshes/sn_jiayuan/Prefabs/sn_jiayuan_dengzi03_01s.prefab	1	2	2	55	1	1				1	
1514	Ghế Tròn Sắc Màu		DengZi	Scenes/Meshes/sn_jiayuan/Prefabs/sn_jiayuan_dengzi04_01s.prefab	1	2	2	55	1	1				1	
1515	Ghế Tròn Tử Đàn		DengZi	Scenes/Meshes/sn_jiayuan/Prefabs/sn_jiayuan_dengzi05_01s.prefab	1	2	2	55	1	1				1	
1516	Ghế Gỗ Tùng		DengZi	Scenes/Meshes/sn_jiayuan/Prefabs/sn_jiayuan_yizi01s.prefab	1	3	3	100	1	1				1	
1517	Ghế Hạch Đào		DengZi	Scenes/Meshes/sn_jiayuan/Prefabs/sn_jiayuan_yizi02s.prefab	1	3	3	100	1	1				1	
1518	Ghế Mạ Vàng		DengZi	Scenes/Meshes/sn_jiayuan/Prefabs/sn_jiayuan_yizi03s.prefab	1	3	4	100	1	1				1	
2001	Bồn Gỗ Tùng	NormalAddRes	YuGang	Scenes/Meshes/sn_jiayuan/Prefabs/sn_jiayuan_yupen01s.prefab	1	9	10	80	1	1		90|180			
2002	Bồn Bạch Dương	NormalAddRes	YuGang	Scenes/Meshes/sn_jiayuan/Prefabs/sn_jiayuan_yupen02s.prefab	1	12	12	100	1	1		90|180			
2003	Bồn Mặc Hương	NormalAddRes	YuGang	Scenes/Meshes/sn_jiayuan/Prefabs/sn_jiayuan_yupen03s.prefab	1	10	12	100	1	1		90|180			
2004	Kính Hoa Thủy Nguyệt	NormalAddRes	YuGang	Scenes/Meshes/sn_jiayuan/Prefabs/sn_jiayuan_yupen04s.prefab	1	12	12	130	1	1		90|180			
2005	Quỳnh Dao Bích Lạc	NormalAddRes	YuGang	Scenes/Meshes/sn_jiayuan/Prefabs/sn_jiayuan_yupen05s.prefab	1	15	15	70	1	1		90|180			
2501	Hổ Tiếu Sơn Lâm			Scenes/Meshes/sn_jiayuan/Prefabs/sn_jiayuan_ditan02_01s.prefab	0	16	10	5		0		90|180			
2502	Phi Hùng Nhập Mộng			Scenes/Meshes/sn_jiayuan/Prefabs/sn_jiayuan_ditan02_02s.prefab	0	21	12	5		0		90|180			
2503	Tinh Huyền Trường Không (Trung)			Scenes/Meshes/sn_jiayuan/Prefabs/sn_jiayuan_ditan01_04s.prefab	0	12	14	5		0		90|180	100|117;100|115		
2504	Sông Cạn Đá Mòn (Trung)			Scenes/Meshes/sn_jiayuan/Prefabs/sn_jiayuan_ditan01_02s.prefab	0	12	14	5		0		90|180	100|117;100|115		
2505	Hỏa Phụng Kim Loan (Trung)			Scenes/Meshes/sn_jiayuan/Prefabs/sn_jiayuan_ditan01_01s.prefab	0	15	15	5		0		90|180	100|114;100|114		
2506	Kim Bảng Đề Danh (Trung)			Scenes/Meshes/sn_jiayuan/Prefabs/sn_jiayuan_ditan01_03s.prefab	0	14	19	5		0		90|180	100|115;100|111		
2507	Tinh Huyền Trường Không (Lớn)			Scenes/Meshes/sn_jiayuan/Prefabs/sn_jiayuan_ditan03_04s.prefab	0	20	24	5		0		90|180	100|110;100|108		
2508	Sông Cạn Đá Mòn (Lớn)			Scenes/Meshes/sn_jiayuan/Prefabs/sn_jiayuan_ditan03_02s.prefab	0	20	26	5		0		90|180	100|110;100|108		
2509	Hỏa Phụng Kim Loan (Lớn)			Scenes/Meshes/sn_jiayuan/Prefabs/sn_jiayuan_ditan03_01s.prefab	0	22	26	5		0		90|180	100|109;100|108		
2510	Kim Bảng Đề Danh (Lớn)			Scenes/Meshes/sn_jiayuan/Prefabs/sn_jiayuan_ditan03_03s.prefab	0	22	28	5		0		90|180	100|109;100|107		
2511	Thảm Sắc Màu (Trung)			Scenes/Meshes/sn_jiayuan/Prefabs/sn_jiayuan_ditan01_05s.prefab	0	12	14	5		0		90|180	100|117;100|115		
2512	Thảm Sắc Màu (Lớn)			Scenes/Meshes/sn_jiayuan/Prefabs/sn_jiayuan_ditan03_05s.prefab	0	16	26	5		0		90|180	100|110;100|108		
3001	Hộp Gấm Gỗ Tùng			Scenes/Meshes/sn_jiayuan/Prefabs/sn_jiayuan_baoxiang01s.prefab	1	7	10	75		1		90|180			
3002	Bách Bảo Rương			Scenes/Meshes/sn_jiayuan/Prefabs/sn_jiayuan_baoxiang02s.prefab	1	7	11	75		1		90|180			
3003	Song Long Hàm Châu			Scenes/Meshes/sn_jiayuan/Prefabs/sn_jiayuan_baoxiang03s.prefab	1	7	11	75		1		90|180			
3004	Lá Ngọc Cành Vàng (Hợp) 			Scenes/Meshes/sn_jiayuan/Prefabs/sn_jiayuan_pingfeng01_02s.prefab	1	2	8	380		1		90|180			
3005	Hàn Mai Ngạo Tuyết			Scenes/Meshes/sn_jiayuan/Prefabs/sn_jiayuan_penjing02s.prefab	1	4	7	145		1		90|180			
3006	Thanh Tùng Nghênh Khách			Scenes/Meshes/sn_jiayuan/Prefabs/sn_jiayuan_penjing01s.prefab	1	4	10	165		1		90|180			
3007	Bình Phong Gai Thô			Scenes/Meshes/sn_jiayuan/Prefabs/sn_jiayuan_pingfeng04s.prefab	1	2	14	335		1		90|180			
3008	Lá Ngọc Cành Vàng (Trương) 			Scenes/Meshes/sn_jiayuan/Prefabs/sn_jiayuan_pingfeng01_01s.prefab	1	2	8	380		1		90|180			
3009	Thái Nhạc Nhập Vân			Scenes/Meshes/sn_jiayuan/Prefabs/sn_jiayuan_pingfeng03s.prefab	1	2	14	380		1		90|180			
3010	Duyên Nợ Ba Sinh			Scenes/Meshes/sn_jiayuan/Prefabs/sn_jiayuan_pingfeng02s.prefab	1	2	14	335		1		90|180			
3011	Tinh Huyền Trường Không (Nhỏ)			Scenes/Meshes/sn_jiayuan/Prefabs/sn_jiayuan_ditan04_04s.prefab	0	6	12	5		0		90|180	100|134;100|117		
3012	Sông Cạn Đá Mòn (Nhỏ)			Scenes/Meshes/sn_jiayuan/Prefabs/sn_jiayuan_ditan04_02s.prefab	0	6	12	5		0		90|180	100|134;100|117		
3013	Hỏa Phụng Kim Loan (Nhỏ)			Scenes/Meshes/sn_jiayuan/Prefabs/sn_jiayuan_ditan04_01s.prefab	0	6	12	5		0		90|180	100|134;100|117		
3014	Kim Bảng Đề Danh (Nhỏ)			Scenes/Meshes/sn_jiayuan/Prefabs/sn_jiayuan_ditan04_03s.prefab	0	6	12	5		0		90|180	100|134;100|117		
3015	Đồng Tước Hương Lư	DoCmd	XiangLu	Scenes/Meshes/sn_jiayuan/Prefabs/sn_jiayuan_xianglu04s.prefab	1	4	2	135	1	1		90|180			
3016	Ngọc Liên Hương Lư	DoCmd	XiangLu	Scenes/Meshes/sn_jiayuan/Prefabs/sn_jiayuan_xianglu02s.prefab	1	4	4	100	1	1		90|180			
3017	Thục Đồng Hương Lư	DoCmd	XiangLu	Scenes/Meshes/sn_jiayuan/Prefabs/sn_jiayuan_xianglu01s.prefab	1	4	6	120	1	1		90|180			
3018	Thất Tú Vân Hương	DoCmd	XiangLu	Scenes/Meshes/sn_jiayuan/Prefabs/sn_jiayuan_xianglu03s.prefab	1	4	5	135	1	1		90|180			
3019	Tử Kim Hồ Lô	DoCmd	XiangLu	Scenes/Meshes/sn_jiayuan/Prefabs/sn_jiayuan_xianglu05s.prefab	1	4	2	170	1	1		90|180			
3020	Thảm Sắc Màu (Nhỏ)			Scenes/Meshes/sn_jiayuan/Prefabs/sn_jiayuan_ditan04_05s.prefab	0	6	12	5		0		90|180	100|134;100|117		
3501	Đèn Gỗ Tùng	DoCmd	Deng	Scenes/Meshes/sn_jiayuan/Prefabs/sn_jiayuan_deng01_01s.prefab	1	2	2	200	1	1		90|180|270			
3502	Đèn Bạch Dương	DoCmd	Deng	Scenes/Meshes/sn_jiayuan/Prefabs/sn_jiayuan_deng02_01s.prefab	1	3	3	220	1	1		90|180|270			
3503	Đèn Mặc Hương	DoCmd	Deng	Scenes/Meshes/sn_jiayuan/Prefabs/sn_jiayuan_deng03_01s.prefab	1	2	2	240	1	1		90|180|270			
3504	Đèn Sắc Màu	DoCmd	Deng	Scenes/Meshes/sn_jiayuan/Prefabs/sn_jiayuan_deng04_01s.prefab	1	3	3	280	1	1		90|180|270			
3505	Đèn Tử Đàn	DoCmd	Deng	Scenes/Meshes/sn_jiayuan/Prefabs/sn_jiayuan_deng05_01s.prefab	1	2	2	260	1	1		90|180|270			
3506	Giáng Đào Xuân			Scenes/Meshes/sn_jiayuan/Prefabs/sn_jiayuan_huaping02s.prefab	1	3	3	110		1		90|180			
3507	Uất Kim Hương			Scenes/Meshes/sn_jiayuan/Prefabs/sn_jiayuan_huaping01s.prefab	1	2	2	125		1		90|180			
3508	Bình Thanh Ngọc			Scenes/Meshes/sn_jiayuan/Prefabs/sn_jiayuan_huaping04s.prefab	1	3	3	300		1		90|180			
3509	Nhất Tiễn Mai			Scenes/Meshes/sn_jiayuan/Prefabs/sn_jiayuan_huaping03s.prefab	1	3	3	300		1		90|180			
3510	Thất Lăng Băng Huyền Hoa			Scenes/Meshes/sn_jiayuan/Prefabs/sn_jiayuan_huaping05s.prefab	1	2	2	150		1		90|180			
3511	Hộp Gỗ Đàn Hương			Scenes/Meshes/sn_jiayuan/Prefabs/sn_jiayuan_zawu01s.prefab	1	2	3	40		1		90|180			
3512	Ống Tranh			Scenes/Meshes/sn_jiayuan/Prefabs/sn_jiayuan_shujuan01s.prefab	1	2	2	130		1		90|180			
3513	Bình Kim Sư			Scenes/Meshes/sn_jiayuan/Prefabs/sn_jiayuan_huaping07s.prefab	1	3	3	120		1		90|180			
3514	Thụy Hạc Tiên			Scenes/Meshes/sn_jiayuan/Prefabs/sn_jiayuan_diaoxiang01s.prefab	1	3	3	185		1		90|180			
3515	Bình Khổng Tước			Scenes/Meshes/sn_jiayuan/Prefabs/sn_jiayuan_huaping06s.prefab	1	4	4	140		1		90|180			
4001	Khinh Trúc Liêm			Scenes/Meshes/sn_jiayuan/Prefabs/sn_jiayuan_chuanglian01_01s.prefab	1	2	12	380		1	200	90|180			
4002	Tô Mạc Già			Scenes/Meshes/sn_jiayuan/Prefabs/sn_jiayuan_chuanglian02_01s.prefab	1	2	12	380		1	200	90|180			
4003	Nhất Liêm U Mộng			Scenes/Meshes/sn_jiayuan/Prefabs/sn_jiayuan_chuanglian02_02s.prefab	1	2	12	380		1	200	90|180			
4004	Nhĩ Kim Tử			Scenes/Meshes/sn_jiayuan/Prefabs/sn_jiayuan_chuanglian02_03s.prefab	1	2	12	380		1	200	90|180			
4005	Kim Ngọc Mãn Đường	Trường Ca Đại Sư Tỷ		Scenes/Meshes/sn_jiayuan/Prefabs/sn_jiayuan_chuanglian01_02s.prefab	1	2	8	380		1	200	90|180			
4006	Thấu Sa Liêm			Scenes/Meshes/sn_jiayuan/Prefabs/sn_jiayuan_chuanglian01_03s.prefab	1	2	8	380		1	200	90|180			
4007	Lạc Ánh Sơn Hà Đồ			Scenes/Meshes/sn_jiayuan/Prefabs/sn_jiayuan_guahua01s.prefab	1	2	8	350		1	200	90|180			
4008	Thúy Địch			Scenes/Meshes/sn_jiayuan/Prefabs/sn_jiayuan_hulu01s.prefab	1	2	3	290		1	200	90|180			
4009	Mãn Nguyệt Nguyễn			Scenes/Meshes/sn_jiayuan/Prefabs/sn_jiayuan_qin02s.prefab	1	2	4	290		1	200	90|180			
4010	Cán Hoa Tì Bà			Scenes/Meshes/sn_jiayuan/Prefabs/sn_jiayuan_qin03s.prefab	1	2	4	290		1	200	90|180			
4011	Độc U			Scenes/Meshes/sn_jiayuan/Prefabs/sn_jiayuan_qin01s.prefab	1	2	3	320		1	200	90|180			
4012	Đại Thánh Di Âm			Scenes/Meshes/sn_jiayuan/Prefabs/sn_jiayuan_qin04s.prefab	1	2	4	320		1	200	90|180			
4013	Hồng Loan Tinh Động			Scenes/Meshes/sn_jiayuan/Prefabs/sn_jiayuan_xiangbao01s.prefab	1	2	3	290		1	200	90|180			
4014	Tường Vân Diên			Scenes/Meshes/sn_jiayuan/Prefabs/sn_jiayuan_fengzheng01s.prefab	1	2	7	320		1	200	90|180			
4015	Tử Châu Hiệu Giác			Scenes/Meshes/sn_jiayuan/Prefabs/sn_jiayuan_haojiao01s.prefab	1	2	4	290		1	200	90|180			
4016	Tranh Sơn Thủy			Scenes/Meshes/sn_jiayuan/Prefabs/sn_jiayuan_guahua02s.prefab	1	2	4	350		1	200	90|180			
4017	Ngân Linh Cung			Scenes/Meshes/sn_jiayuan/Prefabs/sn_jiayuan_gong01s.prefab	1	2	4	320		1	200	90|180			
4501	Xích Đu	DoCmd	QiuQian	Scenes/Meshes/sn_jiayuan/Prefabs/sy_qiuqian01.prefab	1	8	14	270	1	1		90|180			
4502	Kệ Binh Khí			Scenes/Meshes/sn_jiayuan/Prefabs/sy_wuqijia01.prefab	1	5	10	230		1		90|180			
4503	Bách Hoa Liễu Loạn			Scenes/Meshes/sn_jiayuan/Prefabs/sy_huatan03.prefab	1	6	8	90		1		90|180			
4504	Vạn Tử Thiên Hồng			Scenes/Meshes/sn_jiayuan/Prefabs/sy_huatan01.prefab	1	3	3	190		1		90|180			
4505	Nguyệt Minh Hoa Ảnh	DoCmd	QiuQian	Scenes/Meshes/sn_jiayuan/Prefabs/sy_qiuqian02.prefab	1	8	14	320	1	1		90|180			
4506	Bàn Đá Tròn			Scenes/Meshes/sn_jiayuan/Prefabs/sy_shizhuo02.prefab	1	5	5	100		1		90|180			
4507	Tam Nhân Hành			Scenes/Meshes/sn_jiayuan/Prefabs/sy_shizhuo01.prefab	1	12	7	63		1		90|180			
4508	Hải Giác Kỳ Thạch			Scenes/Meshes/sn_jiayuan/Prefabs/sy_jiashan02.prefab	1	11	15	340		1		90|180			
4509	Quần Phong Tủng Thúy			Scenes/Meshes/sn_jiayuan/Prefabs/sy_jiashan01.prefab	1	11	15	340		1		90|180			
4510	Tam Sinh Tam Thế			Scenes/Meshes/sn_jiayuan/Prefabs/sy_pengzhai01.prefab	1	7	10	270		1		90|180			
4511	Giếng Đá Cổ			Scenes/Meshes/sn_jiayuan/Prefabs/sy_shuijing01.prefab	1	7	7	150		1		90|180			
4512	Hoa Mộc Cổ Giá	DoCmd		Scenes/Meshes/sn_jiayuan/Prefabs/sy_yueqi04.prefab	1	3	7	240	1	1		90|180			
4513	Yến Ngữ	DoCmd		Scenes/Meshes/sn_jiayuan/Prefabs/sy_yueqi01.prefab	1	3	7	240	1	1		90|180			
4514	Biên Chung	DoCmd		Scenes/Meshes/sn_jiayuan/Prefabs/sy_yueqi02.prefab	1	3	7	240	1	1		90|180			
4515	Át Vân	DoCmd		Scenes/Meshes/sn_jiayuan/Prefabs/sy_yueqi03.prefab	1	3	7	240	1	1		90|180			
4516	Chậu Triều Nhan Hoa			Scenes/Meshes/sn_jiayuan/Prefabs/sy_mumen02.prefab	1	5	8	100		1		90|180			
4517	Tiểu Lục Âm			Scenes/Meshes/sn_jiayuan/Prefabs/sy_lvshu01.prefab	1	13	13	530		0		90|180			
4518	Thập Lý Đào Hoa			Scenes/Meshes/sn_jiayuan/Prefabs/sy_yinghuashu01.prefab	1	13	13	530		0		90|180			
4519	Giàn Triều Nhan Hoa			Scenes/Meshes/sn_jiayuan/Prefabs/sy_mumen01.prefab	1	6	16	390		0		90|180			
4520	Ngân Thạch Song Nhân		DengZi	Scenes/Meshes/sn_jiayuan/Prefabs/sy_shuangrenyi01.prefab	1	5	9	140	1	1				1	
4521	Lưu Kim Song Nhân		DengZi	Scenes/Meshes/sn_jiayuan/Prefabs/sy_shuangrenyi02.prefab	1	3	11	140	1	1				1	
4522	Phù Điêu Chiếu Bích			Scenes/Meshes/sn_jiayuan/Prefabs/sy_zhaobi01.prefab	1	4	22	480		1		90|180			
4523	Hà Hoa Tiểu Trì			Scenes/Meshes/sn_jiayuan/Prefabs/sy_jiashan03.prefab	1	13	13	220		1		90|180|270			
5001	Ghế Đá Tròn		DengZi	Scenes/Meshes/sn_jiayuan/Prefabs/sy_shideng01.prefab	1	2	2	60	1	1				1	
5002	Rượu Lâu Năm			Scenes/Meshes/sn_jiayuan/Prefabs/sy_tanzi01.prefab	1	2	2	75		1		90|180			
5003	Bình Xích Đồng			Scenes/Meshes/sn_jiayuan/Prefabs/sy_tanzi02.prefab	1	2	2	75		1		90|180			
5004	Bình Kim Tượng			Scenes/Meshes/sn_jiayuan/Prefabs/sy_tanzi03.prefab	1	3	3	90		1		90|180			
5005	Nạp Bách Xuyên			Scenes/Meshes/sn_jiayuan/Prefabs/sy_tanzi04.prefab	1	4	4	100		1		90|180			
5006	Hàng Rào Đá			Scenes/Meshes/sn_jiayuan/Prefabs/sy_langan01.prefab	1	1	9	110		1		90|180			
5007	Người Rơm			Scenes/Meshes/sn_jiayuan/Prefabs/sy_caoren01.prefab	1	2	2	230		1		90|180			
5008	Bách Hoa Trản			Scenes/Meshes/sn_jiayuan/Prefabs/sy_huatan04.prefab	1	3	3	60		1		90|180			
5009	Xá Tử Yên Hồng			Scenes/Meshes/sn_jiayuan/Prefabs/sy_huatan02.prefab	1	3	3	190		1		90|180			
5010	Trăng Trên Cành Liễu	DoCmd	Deng	Scenes/Meshes/sn_jiayuan/Prefabs/sy_ludeng01.prefab	1	5	1	360	1	1					
5011	Thạch Sư Tử			Scenes/Meshes/sn_jiayuan/Prefabs/sy_shizi01.prefab	1	6	4	230		1		90|180			
5012	Hoa Cương Đăng	DoCmd	Deng	Scenes/Meshes/sn_jiayuan/Prefabs/sy_ludeng03.prefab	1	3	3	140	1	1		90|180|270			
5013	Vân Kim Đăng	DoCmd	Deng	Scenes/Meshes/sn_jiayuan/Prefabs/sy_ludeng02.prefab	1	3	3	140	1	1		90|180|270			
5014	Kim Bích Tì Hưu			Scenes/Meshes/sn_jiayuan/Prefabs/sn_jiayuan_yulong01s.prefab	1	4	2	55		1		90|180			
5015	Thúy Ngọc Điêu Long			Scenes/Meshes/sn_jiayuan/Prefabs/sn_jiayuan_yulong02s.prefab	1	6	3	90		1		90|180			
5016	Lam Triều Nhan			Scenes/Meshes/sn_jiayuan/Prefabs/sy_guanmu02.prefab	1	7	7	160		0					
5017	Hoa Mười Giờ			Scenes/Meshes/sn_jiayuan/Prefabs/sy_huaduo01.prefab	1	3	3	60		0					
5018	Tử Hồ Điệp			Scenes/Meshes/sn_jiayuan/Prefabs/sy_guanmu01.prefab	1	7	7	190		0					
5019	Đế Nữ Hoa			Scenes/Meshes/sn_jiayuan/Prefabs/sy_huaduo02.prefab	1	3	3	80		0					
10000	Đại Đệ Tử	BlackBoardMsg		Scenes/Meshes/sn_jiayuan/Prefabs/sn_jiayuan_chengjiu_mpjj01s.prefab	1	3	3	250	1	1		90|180			
10001	Độc Cô Cầu Bại	BlackBoardMsg		Scenes/Meshes/sn_jiayuan/Prefabs/sn_jiayuan_chengjiu_hslj01s.prefab	1	3	3	250	1	1		90|180			
10002	Võ Cực Thiên Hạ	BlackBoardMsg		Scenes/Meshes/sn_jiayuan/Prefabs/sn_jiayuan_chengjiu_wsd01s.prefab	1	3	3	250	1	1		90|180			
10003	Thần Binh Lợi Khí	BlackBoardMsg		Scenes/Meshes/sn_jiayuan/Prefabs/sn_jiayuan_chengjiu_qh01s.prefab	1	3	3	250	1	1		90|180			
10004	Kỹ Áp Quần Hùng	BlackBoardMsg		Scenes/Meshes/sn_jiayuan/Prefabs/sn_jiayuan_chengjiu_wlmz01s.prefab	1	3	3	250	1	1		90|180			
10005	Như Hổ Thêm Cánh	BlackBoardMsg		Scenes/Meshes/sn_jiayuan/Prefabs/sn_jiayuan_chengjiu_xq01s.prefab	1	3	3	250	1	1		90|180			
10006	Giàu Sang	BlackBoardMsg		Scenes/Meshes/sn_jiayuan/Prefabs/sn_jiayuan_chengjiu_jzjx01s.prefab	1	3	3	250	1	1		90|180			
10007	Đạt Đến Đỉnh Cao	BlackBoardMsg		Scenes/Meshes/sn_jiayuan/Prefabs/sn_jiayuan_chengjiu_ttt01s.prefab	1	3	3	250	1	1		90|180			
10008	Cát Quang Phượng Vũ	BlackBoardMsg		Scenes/Meshes/sn_jiayuan/Prefabs/sn_jiayuan_fenghuang01.prefab	1	6	13	260	1	1					
10009	Thảm Phượng Loan (Hình Tim) 	BlackBoardMsg		Scenes/Meshes/sn_jiayuan/Prefabs/sn_jiayuan_jiehunditan01.prefab	0	23	26	5	1	0					
10010	Võ Lâm Chí Tôn	BlackBoardMsg		Scenes/Meshes/sn_jiayuan/Prefabs/sy_hslj01.prefab	1	4	7	400	1	1		90|180			
10011	Kim Đồng	BlackBoardMsg		Scenes/Meshes/sn_jiayuan/Prefabs/sn_jiayuan_chengjiu_jiehunnan.prefab	1	4	4	180	1	1					
10012	Ngọc Nữ	BlackBoardMsg		Scenes/Meshes/sn_jiayuan/Prefabs/sn_jiayuan_chengjiu_jiehunnv.prefab	1	4	4	180	1	1					
10013	Giường Hỉ-Tình Nồng	NormalAddRes	Chuang	Scenes/Meshes/sn_jiayuan/Prefabs/sn_jiayuan_jiehunchuang01.prefab	1	13	13	120	1	1		90|180			1
10014	Giường Hỉ-Lãm Nguyệt	NormalAddRes	Chuang	Scenes/Meshes/sn_jiayuan/Prefabs/sn_jiayuan_jiehunchuang02.prefab	1	15	14	150	1	1		90|180			1
10015	Giường Hỉ-Long Phụng	NormalAddRes	Chuang	Scenes/Meshes/sn_jiayuan/Prefabs/sn_jiayuan_jiehunchuang03.prefab	1	15	15	160	1	1		90|180			1
10016	Bồn Tắm-Tình Nồng	NormalAddRes	YuGang	Scenes/Meshes/sn_jiayuan/Prefabs/sn_jiayuan_jiehunyugang01.prefab	1	10	12	170	1	1		90|180			1
10017	Bồn Tắm-Lãm Nguyệt	NormalAddRes	YuGang	Scenes/Meshes/sn_jiayuan/Prefabs/sn_jiayuan_jiehunyugang02.prefab	1	10	15	220	1	1		90|180			1
10018	Bồn Tắm-Long Phụng	NormalAddRes	YuGang	Scenes/Meshes/sn_jiayuan/Prefabs/sn_jiayuan_jiehunyugang03.prefab	1	11	16	220	1	1		90|180			1
10019	Vĩnh Kết Đồng Tâm			Scenes/Meshes/sn_jiayuan/Prefabs/sn_jiayuan_xizi01.prefab	1	2	4	350		1	200	90|180			
10020	Bình Phong Tranh Hoa Đồng	BlackBoardMsg		Scenes/Meshes/sn_jiayuan/Prefabs/sn_jiayuan_jiehunpinfeng01.prefab	1	4	19	300	1	1		90|180			
10021	Kết Hôn-Ghế Thường		DengZi	Scenes/Meshes/fb_jiehun/prefab/sn_jiehun_dengzi01.prefab	1	2	5	50	1	1					
10022	Kết Hôn-Bàn Trống Thường			Scenes/Meshes/fb_jiehun/prefab/sn_jiehun_zhuozi01_01.prefab	1	7	7	85	1	1					
10023	Kết Hôn-Bàn Đầy Thường			Scenes/Meshes/fb_jiehun/prefab/sn_jiehun_zhuozi01_02.prefab	1	7	7	85	1	1					
10024	Kết Hôn-Ghế Long Trọng		DengZi	Scenes/Meshes/fb_jiehun/prefab/sn_jiehun_dengzi02.prefab	1	2	2	40	1	1					
10025	Kết Hôn-Bàn Trống Long Trọng			Scenes/Meshes/fb_jiehun/prefab/sn_jiehun_zhuozi02_01.prefab	1	8	8	85	1	1					
10026	Kết Hôn-Bàn Đầy Long Trọng			Scenes/Meshes/fb_jiehun/prefab/sn_jiehun_zhuozi02_02.prefab	1	8	8	85	1	1					
10027	Kết Hôn-Ghế Hào Hoa		DengZi	Scenes/Meshes/fb_jiehun/prefab/sn_jiehun_dengzi03.prefab	1	3	3	95	1	1					
10028	Kết Hôn-Bàn Trống Hào Hoa			Scenes/Meshes/fb_jiehun/prefab/sn_jiehun_zhuozi03_01.prefab	1	8	8	85	1	1					
10029	Kết Hôn-Bàn Đầy Hào Hoa			Scenes/Meshes/fb_jiehun/prefab/sn_jiehun_zhuozi03_02.prefab	1	8	8	85	1	1					
20000	Vườn Ươm	Land		Scenes/Meshes/sn_jiayuan/Prefabs/sy_huatan05.prefab	1	21	16	13	1	0		90|180			
30000	Chủ Tọa		DengZi	Scenes/Meshes/sn_jiayuan/Prefabs/sn_jiayuan_zhuzuoweizhi01.prefab	1	3	9	140	1	0	255			1	
