AwardType	AwardValue1	AwardValue2	AwardValue3	RandRate	WorldNotify	Name
item	2198	1		4400		Lục Văn Long
item	212	1		60000		Thủy Tinh Trắng
item	1716	1		60000		Đá Hồn Lục Văn Long-Sơ
item	1234	1		50000		Hoa Hồng
item	1235	1		50000		Cỏ May Mắn
item	924	1		125000		Lăng Tuyệt Phong Lệnh Bài Lv3
