AwardType	AwardValue1	AwardValue2	AwardValue3	RandRate	WorldNotify	Name
item	2195	1		4400		Tử Hiên
item	212	1		60000		Thủy Tinh Trắng
item	1708	1		60000		Đá Hồn Tử Hiên-Sơ
item	1234	1		50000		Hoa Hồng
item	1235	1		50000		Cỏ May Mắn
item	924	1		125000		Lăng Tuyệt Phong Lệnh Bài Lv3
