nFubenLevel	szType	SubType	nItemId	nCount	nAwardLevel	nRate	bFirst	nSpecialRate	bStarAward
1			990	1	2			0.55	
1			223	5	1	600			
1			222	5	1	3200			
1			786	5	1	11600			
1			785	5	1	5800			
1	Coin			300	1	352700			
1			601	5	1	600000			
1			262	1		-1			1
2			897	1	2	-1			
2			897	1	2			0.98	
2			223	5	1	500			
2			222	5	1	3200			
2			786	5	1	11600			
2			785	5	1	5800			
2	Coin			325	1	366300			
2			601	5	1	600000			
2	Coin			20000		-1			1
