TemplateId	Name	Kind	ItemType	Icon	BigIcon	CDType	ClassName	DetailType	Intro	ItemValue	Level	ObjID	Price	Quality	RequireLevel	Sellable	Stack	ExtParam1	ExtParam2	ExtParam3	ExtParam4	ExtParam5	ExtParam6	ExtParam7	ExtParam8	ExtParam9	ExtParam10
1391	Phụ Ma Thạch-Tấn Công Lv1	Enchant_1_Lv1	34	1017	1017		OpenLightStone	2	Phụ Ma Thạch-Tấn Công Lv1, dùng tăng thuộc tính và sử dụng vũ khí phát quang	500000	1	3	1000	31	1	1	99999										
1392	Phụ Ma Thạch-Tấn Công Lv2	Enchant_1_Lv2	34	1018	1018		OpenLightStone	2	Phụ Ma Thạch-Tấn Công Lv2, dùng tăng thuộc tính và sử dụng vũ khí phát quang	2000000	2	3	1000	41	1	1	99999										
1526	Phụ Ma Thạch-Tấn Công Lv3	Enchant_1_Lv3	34	1019	1019		OpenLightStone	2	Phụ Ma Thạch-Tấn Công Lv3, dùng tăng thuộc tính và sử dụng vũ khí phát quang	5000000	3	3	1000	51	1	1	99999										
3313	Phụ Ma Thạch-Tấn Công Lv4	Enchant_1_Lv4	34	1019	1019		OpenLightStone	2	Phụ Ma Thạch-Tấn Công Lv4, dùng tăng thuộc tính và sử dụng vũ khí phát quang	7000000	4	3	1000	61	1	1	99999										
3314	Phụ Ma Thạch-Tấn Công Lv5	Enchant_1_Lv5	34	1019	1019		OpenLightStone	2	Phụ Ma Thạch-Tấn Công Lv5, dùng tăng thuộc tính và sử dụng vũ khí phát quang	10000000	5	3	1000	71	1	1	99999										
