TemplateId	Name	Kind	ShowType	ItemType	BigIcon	CDType	ClassName	DetailType	Icon	Intro	ItemValue	Level	ObjID	Price	Quality	RequireLevel	Sellable	Stack	ExtParam1	ExtParam2	ExtParam3	ExtParam4	ExtParam5	ExtParam6	ExtParam7	ExtParam8	ExtParam9	ExtParam10
2088	Mảnh Vũ Khí Hiếm Bậc 4	T4_Weapon_Q2_piece	1704	34	10111		EquipMeterial	99	10111	Mảnh vũ khí Hiếm chưa hoàn chỉnh, cần [FFFE0D]10 mảnh[-] mới chế tạo được 1 vũ khí [FFFE0D]【Hiếm】bậc 4[-] 	300000	1	1	300000	6	1		999										
2089	Mảnh Vũ Khí Hiếm Bậc 5	T5_Weapon_Q2_piece	1705	34	10112		EquipMeterial	99	10112	Mảnh vũ khí Hiếm chưa hoàn chỉnh, cần [FFFE0D]10 mảnh[-] mới chế tạo được 1 vũ khí [FFFE0D]【Hiếm】bậc 5[-] 	625000	2	1	625000	6	1		999										
2090	Mảnh Vũ Khí Hiếm Bậc 6	T6_Weapon_Q2_piece	1706	34	10113		EquipMeterial	99	10113	Mảnh vũ khí Hiếm chưa hoàn chỉnh, cần [FFFE0D]10 mảnh[-] mới chế tạo được 1 vũ khí [FFFE0D]【Hiếm】bậc 6[-] 	750000	3	1	750000	6	1		999										
2943	Mảnh Vũ Khí Hiếm Bậc 7	T7_Weapon_Q2_piece	1707	34	10114		EquipMeterial	99	10114	Mảnh vũ khí Hiếm chưa hoàn chỉnh, cần [FFFE0D]10 mảnh[-] để chế tạo 1 Vũ Khí[FFFE0D]【Hiếm】Bậc 7[-]	1000000	4	1	1000000	6	1		999										
2944	Mảnh Vũ Khí Hiếm Bậc 8	T8_Weapon_Q2_piece	1708	34	10115		EquipMeterial	99	10115	Mảnh vũ khí Hiếm chưa hoàn chỉnh, cần [FFFE0D]10 mảnh[-] để chế tạo 1 Vũ Khí[FFFE0D]【Hiếm】Bậc 8[-]	1350000	5	1	1350000	6	1		999										
2945	Mảnh Vũ Khí Hiếm Bậc 9	T9_Weapon_Q2_piece	1709	34	10116		EquipMeterial	99	10116	Mảnh vũ khí Hiếm chưa hoàn chỉnh, cần [FFFE0D]10 mảnh[-] để chế tạo 1 Vũ Khí[FFFE0D]【Hiếm】Bậc 9[-]	1800000	6	1	1800000	6	1		999										
3667	Mảnh Vũ Khí Hiếm Bậc 10	T10_Weapon_Q2_piece	1710	34	10117		EquipMeterial	99	10117	Mảnh Vũ Khí Hiếm chưa hoàn chỉnh, cần [FFFE0D]10 mảnh[-] mới ghép được 1 [FFFE0D]【Hiếm】Vũ Khí Bậc 10[-]	2250000	7	1	2250000	6	1		999										
5761	Mảnh Vũ Khí Hiếm T11	T11_Weapon_Q2_piece	1711	34			EquipMeterial	99		Mảnh vũ khí Hiếm chưa hoàn chỉnh, cần [FFFE0D]10 mảnh[-] mới có thể ghép 1 vũ khí [FFFE0D]【Hiếm】Bậc 11][-]	2850000	8	1	2850000	6	1		999										
5762	Mảnh Vũ Khí Hiếm Bậc 12	T12_Weapon_Q2_piece	1712	34			EquipMeterial	99		Mảnh vũ khí Hiếm chưa hoàn chỉnh, cần [FFFE0D]10 mảnh[-] mới có thể ghép 1 vũ khí [FFFE0D]【Hiếm】Bậc 12][-]	1000000	9	1	1000000	6	1		999										
5763	Mảnh Vũ Khí Hiếm Bậc 13	T13_Weapon_Q2_piece	1713	34			EquipMeterial	99		Mảnh vũ khí Hiếm chưa hoàn chỉnh, cần [FFFE0D]10 mảnh[-] mới có thể ghép 1 vũ khí [FFFE0D]【Hiếm】Bậc 13][-]	1350000	10	1	1350000	6	1		999										
5764	Mảnh Vũ Khí Hiếm Bậc 14	T14_Weapon_Q2_piece	1714	34			EquipMeterial	99		Mảnh vũ khí Hiếm chưa hoàn chỉnh, cần [FFFE0D]10 mảnh[-] mới có thể ghép 1 vũ khí [FFFE0D]【Hiếm】Bậc 14][-]	1800000	11	1	1800000	6	1		999										
5765	Mảnh Vũ Khí Hiếm Bậc 15	T15_Weapon_Q2_piece	1715	34			EquipMeterial	99		Mảnh vũ khí Hiếm chưa hoàn chỉnh, cần [FFFE0D]10 mảnh[-] mới có thể ghép 1 vũ khí [FFFE0D]【Hiếm】Bậc 15][-]	2250000	12	1	2250000	6	1		999										
2091	Mảnh Vũ Khí Kế Thừa Bậc 4	T4_Weapon_Q3_piece	1804	34	10111		EquipMeterial	99	10111	Mảnh vũ khí Kế Thừa chưa hoàn chỉnh, cần [FFFE0D]5 mảnh[-] mới chế tạo được 1 vũ khí [FFFE0D]【Kế Thừa】bậc 4[-] 	200000	1	1	200000	4	1		999										
2092	Mảnh Vũ Khí Kế Thừa Bậc 5	T5_Weapon_Q3_piece	1805	34	10112		EquipMeterial	99	10112	Mảnh vũ khí Kế Thừa chưa hoàn chỉnh, cần [FFFE0D]5 mảnh[-] mới chế tạo được 1 vũ khí [FFFE0D]【Kế Thừa】bậc 5[-] 	450000	2	1	450000	4	1		999										
2093	Mảnh Vũ Khí Kế Thừa Bậc 6	T6_Weapon_Q3_piece	1806	34	10113		EquipMeterial	99	10113	Mảnh vũ khí Kế Thừa chưa hoàn chỉnh, cần [FFFE0D]5 mảnh[-] mới chế tạo được 1 vũ khí [FFFE0D]【Kế Thừa】bậc 6[-] 	600000	3	1	600000	4	1		999										
2946	Mảnh Vũ Khí Kế Thừa Bậc 7	T7_Weapon_Q3_piece	1807	34	10114		EquipMeterial	99	10114	Mảnh vũ khí Kế Thừa chưa hoàn chỉnh, cần [FFFE0D]5 mảnh[-] để chế tạo 1 Vũ Khí[FFFE0D]【Kế Thừa】Bậc 7[-]	800000	4	1	800000	4	1		999										
2947	Mảnh Vũ Khí Kế Thừa Bậc 8	T8_Weapon_Q3_piece	1808	34	10115		EquipMeterial	99	10115	Mảnh vũ khí Kế Thừa chưa hoàn chỉnh, cần [FFFE0D]5 mảnh[-] để chế tạo 1 Vũ Khí[FFFE0D]【Kế Thừa】Bậc 8[-]	1200000	5	1	1200000	4	1		999										
2948	Mảnh Vũ Khí Kế Thừa Bậc 9	T9_Weapon_Q3_piece	1809	34	10116		EquipMeterial	99	10116	Mảnh vũ khí Kế Thừa chưa hoàn chỉnh, cần [FFFE0D]5 mảnh[-] để chế tạo 1 Vũ Khí[FFFE0D]【Kế Thừa】Bậc 9[-]	1800000	6	1	1800000	4	1		999										
3668	Mảnh Vũ Khí Kế Thừa Bậc 10	T10_Weapon_Q3_piece	1810	34	10117		EquipMeterial	99	10117	Mảnh Vũ Khí Kế Thừa chưa hoàn chỉnh, cần [FFFE0D]5 mảnh[-] mới ghép được 1 [FFFE0D]【Kế Thừa】Vũ Khí Bậc 10[-]	2400000	7	1	2400000	4	1		999										
5766	Mảnh Vũ Khí Kế Thừa Bậc 11	T11_Weapon_Q3_piece	1811	34			EquipMeterial	99		Mảnh vũ khí Kế Thừa chưa hoàn chỉnh, cần [FFFE0D]10 mảnh[-] mới có thể ghép 1 vũ khí [FFFE0D]【Kế Thừa】Bậc 11][-]	3200000	8	1	3200000	4	1		999										
5767	Mảnh Vũ Khí Kế Thừa Bậc 12	T12_Weapon_Q3_piece	1812	34			EquipMeterial	99		Mảnh vũ khí Kế Thừa chưa hoàn chỉnh, cần [FFFE0D]10 mảnh[-] mới có thể ghép 1 vũ khí [FFFE0D]【Kế Thừa】Bậc 12][-]	800000	9	1	800000	4	1		999										
5768	Mảnh Vũ Khí Kế Thừa Bậc 13	T13_Weapon_Q3_piece	1813	34			EquipMeterial	99		Mảnh vũ khí Kế Thừa chưa hoàn chỉnh, cần [FFFE0D]10 mảnh[-] mới có thể ghép 1 vũ khí [FFFE0D]【Kế Thừa】Bậc 13][-]	1200000	10	1	1200000	4	1		999										
5769	Mảnh Vũ Khí Kế Thừa Bậc 14	T14_Weapon_Q3_piece	1814	34			EquipMeterial	99		Mảnh vũ khí Kế Thừa chưa hoàn chỉnh, cần [FFFE0D]10 mảnh[-] mới có thể ghép 1 vũ khí [FFFE0D]【Kế Thừa】Bậc 14][-]	1800000	11	1	1800000	4	1		999										
5770	Mảnh Vũ Khí Kế Thừa Bậc 15	T15_Weapon_Q3_piece	1815	34			EquipMeterial	99		Mảnh vũ khí Kế Thừa chưa hoàn chỉnh, cần [FFFE0D]10 mảnh[-] mới có thể ghép 1 vũ khí [FFFE0D]【Kế Thừa】Bậc 15][-]	2400000	12	1	2400000	4	1		999										
2094	Mảnh Dây Chuyền Hiếm bậc 4	T4_Necklace_Q2_piece		34	14		EquipMeterial	99	14	Mảnh hạng liên Hiếm chưa hoàn chỉnh, cần [FFFE0D]10 mảnh[-] mới chế tạo được 1 hạng liên [FFFE0D]【Hiếm】bậc 4[-] 	120000	1	1	120000	6	1		999										
2095	Mảnh Dây Chuyền Hiếm bậc 5	T5_Necklace_Q2_piece		34	15		EquipMeterial	99	15	Mảnh hạng liên Hiếm chưa hoàn chỉnh, cần [FFFE0D]10 mảnh[-] mới chế tạo được 1 hạng liên [FFFE0D]【Hiếm】bậc 5[-] 	250000	2	1	250000	6	1		999										
2096	Mảnh Dây Chuyền Hiếm Bậc 6	T6_Necklace_Q2_piece		34	16		EquipMeterial	99	16	Mảnh hạng liên Hiếm chưa hoàn chỉnh, cần [FFFE0D]10 mảnh[-] mới chế tạo được 1 hạng liên [FFFE0D]【Hiếm】bậc 6[-] 	300000	3	1	300000	6	1		999										
2949	Mảnh Dây Chuyền Hiếm Bậc 7	T7_Necklace_Q2_piece		34	17		EquipMeterial	99	17	Mảnh dây chuyền Hiếm chưa hoàn chỉnh, cần [FFFE0D]10 mảnh[-] để chế tạo thành 1 Dây Chuyền[FFFE0D]【Hiếm】Bậc 7[-]	400000	4	1	400000	6	1		999										
2950	Mảnh Dây Chuyền Hiếm Bậc 8	T8_Necklace_Q2_piece		34	18		EquipMeterial	99	18	Mảnh dây chuyền Hiếm chưa hoàn chỉnh, cần [FFFE0D]10 mảnh[-] để chế tạo thành 1 Dây Chuyền[FFFE0D]【Hiếm】Bậc 8-]	540000	5	1	600000	6	1		999										
2951	Mảnh Dây Chuyền Hiếm Bậc 9	T9_Necklace_Q2_piece		34	19		EquipMeterial	99	19	Mảnh dây chuyền Hiếm chưa hoàn chỉnh, cần [FFFE0D]10 mảnh[-] để chế tạo thành 1 Dây Chuyền[FFFE0D]【Hiếm】Bậc 9[-]	800000	6	1	800000	6	1		999										
3669	Mảnh Dây Chuyền Hiếm Bậc 10	T10_Necklace_Q2_piece		34	20		EquipMeterial	99	20	Mảnh Dây Chuyền Hiếm chưa hoàn chỉnh, cần [FFFE0D]10 mảnh[-] mới ghép được 1 [FFFE0D]【Hiếm】Dây Chuyền Bậc 10[-]	1000000	7	1	1000000	6	1		999										
5771	Mảnh Dây Chuyền Hiếm Bậc 11	T11_Necklace_Q2_piece		34	4911		EquipMeterial	99	4911	Mảnh dây chuyền Hiếm chưa hoàn chỉnh, cần [FFFE0D]10 mảnh[-] mới có thể ghép 1 dây chuyền [FFFE0D]【Hiếm】Bậc 11][-]	1250000	8	1	1250000	6	1		999										
5772	Mảnh Dây Chuyền Hiếm Bậc 12	T12_Necklace_Q2_piece		34	4912		EquipMeterial	99	4912	Mảnh dây chuyền Hiếm chưa hoàn chỉnh, cần [FFFE0D]10 mảnh[-] mới có thể ghép 1 dây chuyền [FFFE0D]【Hiếm】Bậc 12][-]	400000	9	1	400000	6	1		999										
5773	Mảnh Dây Chuyền Hiếm Bậc 13	T13_Necklace_Q2_piece		34	4913		EquipMeterial	99	4913	Mảnh dây chuyền Hiếm chưa hoàn chỉnh, cần [FFFE0D]10 mảnh[-] mới có thể ghép 1 dây chuyền [FFFE0D]【Hiếm】Bậc 13][-]	540000	10	1	600000	6	1		999										
5774	Mảnh Dây Chuyền Hiếm Bậc 14	T14_Necklace_Q2_piece		34	4914		EquipMeterial	99	4914	Mảnh dây chuyền Hiếm chưa hoàn chỉnh, cần [FFFE0D]10 mảnh[-] mới có thể ghép 1 dây chuyền [FFFE0D]【Hiếm】Bậc 14][-]	800000	11	1	800000	6	1		999										
5775	Mảnh Dây Chuyền Hiếm Bậc 15	T15_Necklace_Q2_piece		34	4915		EquipMeterial	99	4915	Mảnh dây chuyền Hiếm chưa hoàn chỉnh, cần [FFFE0D]10 mảnh[-] mới có thể ghép 1 dây chuyền [FFFE0D]【Hiếm】Bậc 15][-]	1000000	12	1	1000000	6	1		999										
2097	Mảnh Dây Chuyền Kế Thừa bậc 4	T4_Necklace_Q3_piece		34	14		EquipMeterial	99	14	Mảnh hạng liên Kế Thừa chưa hoàn chỉnh, cần [FFFE0D]5 mảnh[-] mới chế tạo được 1 hạng liên [FFFE0D]【Kế Thừa】bậc 4[-] 	80000	1	1	80000	4	1		999										
2098	Mảnh Dây Chuyền Kế Thừa bậc 5	T5_Necklace_Q3_piece		34	15		EquipMeterial	99	15	Mảnh hạng liên Kế Thừa chưa hoàn chỉnh, cần [FFFE0D]5 mảnh[-] mới chế tạo được 1 hạng liên [FFFE0D]【Kế Thừa】bậc 5[-] 	180000	2	1	180000	4	1		999										
2099	Mảnh Dây Chuyền Kế Thừa Bậc 6	T6_Necklace_Q3_piece		34	16		EquipMeterial	99	16	Mảnh hạng liên Kế Thừa chưa hoàn chỉnh, cần [FFFE0D]5 mảnh[-] mới chế tạo được 1 hạng liên [FFFE0D]【Kế Thừa】bậc 6[-] 	240000	3	1	240000	4	1		999										
2952	Mảnh Dây Chuyền Kế Thừa Bậc 7	T7_Necklace_Q3_piece		34	17		EquipMeterial	99	17	Mảnh dây chuyền Kế Thừa chưa hoàn chỉnh, cần [FFFE0D]5 mảnh[-] để chế tạo thành 1 Dây Chuyền[FFFE0D]【Kế Thừa】Bậc 7[-]	320000	4	1	320000	4	1		999										
2953	Mảnh Dây Chuyền Kế Thừa Bậc 8	T8_Necklace_Q3_piece		34	18		EquipMeterial	99	18	Mảnh dây chuyền Kế Thừa chưa hoàn chỉnh, cần [FFFE0D]5 mảnh[-] để chế tạo thành 1 Dây Chuyền[FFFE0D]【Kế Thừa】Bậc 8[-]	480000	5	1	480000	4	1		999										
2954	Mảnh Dây Chuyền Kế Thừa Bậc 9	T9_Necklace_Q3_piece		34	19		EquipMeterial	99	19	Mảnh dây chuyền Kế Thừa chưa hoàn chỉnh, cần [FFFE0D]5 mảnh[-] để chế tạo thành 1 Dây Chuyền[FFFE0D]【Kế Thừa】Bậc 9[-]	720000	6	1	720000	4	1		999										
3670	Mảnh Dây Chuyền Kế Thừa Bậc 10	T10_Necklace_Q3_piece		34	20		EquipMeterial	99	20	Mảnh Dây Chuyền Kế Thừa chưa hoàn chỉnh, cần [FFFE0D]5 mảnh[-] mới ghép được 1 [FFFE0D]【Kế Thừa】Dây Chuyền Bậc 10[-]	960000	7	1	960000	4	1		999										
5776	Mảnh Dây Chuyền Kế Thừa Bậc 11	T11_Necklace_Q3_piece		34	4911		EquipMeterial	99	4911	Mảnh dây chuyền Kế Thừa chưa hoàn chỉnh, cần [FFFE0D]5 mảnh[-] mới có thể ghép 1 dây chuyền [FFFE0D]【Kế Thừa】Bậc 11][-]	1280000	8	1	1280000	4	1		999										
5777	Mảnh Dây Chuyền Kế Thừa Bậc 12	T12_Necklace_Q3_piece		34	4912		EquipMeterial	99	4912	Mảnh dây chuyền Kế Thừa chưa hoàn chỉnh, cần [FFFE0D]5 mảnh[-] mới có thể ghép 1 dây chuyền [FFFE0D]【Kế Thừa】Bậc 12][-]	320000	9	1	320000	4	1		999										
5778	Mảnh Dây Chuyền Kế Thừa Bậc 13	T13_Necklace_Q3_piece		34	4913		EquipMeterial	99	4913	Mảnh dây chuyền Kế Thừa chưa hoàn chỉnh, cần [FFFE0D]5 mảnh[-] mới có thể ghép 1 dây chuyền [FFFE0D]【Kế Thừa】Bậc 13][-]	480000	10	1	480000	4	1		999										
5779	Mảnh Dây Chuyền Kế Thừa Bậc 14	T14_Necklace_Q3_piece		34	4914		EquipMeterial	99	4914	Mảnh dây chuyền Kế Thừa chưa hoàn chỉnh, cần [FFFE0D]5 mảnh[-] mới có thể ghép 1 dây chuyền [FFFE0D]【Kế Thừa】Bậc 14][-]	720000	11	1	720000	4	1		999										
5780	Mảnh Dây Chuyền Kế Thừa Bậc 15	T15_Necklace_Q3_piece		34	4915		EquipMeterial	99	4915	Mảnh dây chuyền Kế Thừa chưa hoàn chỉnh, cần [FFFE0D]5 mảnh[-] mới có thể ghép 1 dây chuyền [FFFE0D]【Kế Thừa】Bậc 15][-]	960000	12	1	960000	4	1		999										
2100	Mảnh Nhẫn Hiếm Bậc 4	T4_Ring_Q2_piece		34	24		EquipMeterial	99	24	Mảnh nhẫn Hiếm chưa hoàn chỉnh, cần [FFFE0D]10 mảnh[-] mới chế tạo được 1 nhẫn [FFFE0D]【Hiếm】bậc 4[-] 	120000	1	1	120000	6	1		999										
2101	Mảnh Nhẫn Hiếm Bậc 5	T5_Ring_Q2_piece		34	25		EquipMeterial	99	25	Mảnh nhẫn Hiếm chưa hoàn chỉnh, cần [FFFE0D]10 mảnh[-] mới chế tạo được 1 nhẫn [FFFE0D]【Hiếm】bậc 5[-] 	250000	2	1	250000	6	1		999										
2102	Mảnh Nhẫn Hiếm Bậc 6	T6_Ring_Q2_piece		34	26		EquipMeterial	99	26	Mảnh nhẫn Hiếm chưa hoàn chỉnh, cần [FFFE0D]10 mảnh[-] mới chế tạo được 1 nhẫn [FFFE0D]【Hiếm】bậc 6[-] 	300000	3	1	300000	6	1		999										
2955	Mảnh Nhẫn Hiếm Bậc 7	T7_Ring_Q2_piece		34	27		EquipMeterial	99	27	Mảnh nhẫn Hiếm chưa hoàn chỉnh, cần [FFFE0D]10 mảnh[-] để chế tạo thành 1 Nhẫn[FFFE0D]【Hiếm】Bậc 7[-]	400000	4	1	400000	6	1		999										
2956	Mảnh Nhẫn Hiếm Bậc 8	T8_Ring_Q2_piece		34	28		EquipMeterial	99	28	Mảnh nhẫn Hiếm chưa hoàn chỉnh, cần [FFFE0D]10 mảnh[-] để chế tạo thành 1 Nhẫn[FFFE0D]【Hiếm】Bậc 8[-]	540000	5	1	600000	6	1		999										
2957	Mảnh Nhẫn Hiếm Bậc 9	T9_Ring_Q2_piece		34	29		EquipMeterial	99	29	Mảnh nhẫn Hiếm chưa hoàn chỉnh, cần [FFFE0D]10 mảnh[-] để chế tạo thành 1 Nhẫn[FFFE0D]【Hiếm】Bậc 9[-]	800000	6	1	800000	6	1		999										
3671	Mảnh Nhẫn Hiếm Bậc 10	T10_Ring_Q2_piece		34	30		EquipMeterial	99	30	Mảnh Nhẫn Hiếm chưa hoàn chỉnh, cần [FFFE0D]10 mảnh[-] mới ghép được 1 [FFFE0D]【Hiếm】Nhẫn Bậc 10[-]	1000000	7	1	1000000	6	1		999										
5781	Mảnh Nhẫn Hiếm Bậc 11	T11_Ring_Q2_piece		34	4921		EquipMeterial	99	4921	Mảnh Nhẫn Hiếm chưa hoàn chỉnh, cần [FFFE0D]10 mảnh[-] mới có thể ghép 1 Nhẫn [FFFE0D]【Hiếm】Bậc 11][-]	1250000	8	1	1250000	6	1		999										
5782	Mảnh Nhẫn Hiếm Bậc 12	T12_Ring_Q2_piece		34	4922		EquipMeterial	99	4922	Mảnh Nhẫn Hiếm chưa hoàn chỉnh, cần [FFFE0D]10 mảnh[-] mới có thể ghép 1 Nhẫn [FFFE0D]【Hiếm】Bậc 12][-]	400000	9	1	400000	6	1		999										
5783	Mảnh Nhẫn Hiếm Bậc 13	T13_Ring_Q2_piece		34	4923		EquipMeterial	99	4923	Mảnh Nhẫn Hiếm chưa hoàn chỉnh, cần [FFFE0D]10 mảnh[-] mới có thể ghép 1 Nhẫn [FFFE0D]【Hiếm】Bậc 13][-]	540000	10	1	600000	6	1		999										
5784	Mảnh Nhẫn Hiếm Bậc 14	T14_Ring_Q2_piece		34	4924		EquipMeterial	99	4924	Mảnh Nhẫn Hiếm chưa hoàn chỉnh, cần [FFFE0D]10 mảnh[-] mới có thể ghép 1 Nhẫn [FFFE0D]【Hiếm】Bậc 14][-]	800000	11	1	800000	6	1		999										
5785	Mảnh Nhẫn Hiếm Bậc 15	T15_Ring_Q2_piece		34	4925		EquipMeterial	99	4925	Mảnh Nhẫn Hiếm chưa hoàn chỉnh, cần [FFFE0D]10 mảnh[-] mới có thể ghép 1 Nhẫn [FFFE0D]【Hiếm】Bậc 15][-]	1000000	12	1	1000000	6	1		999										
2103	Mảnh Nhẫn Kế Thừa Bậc 4	T4_Ring_Q3_piece		34	24		EquipMeterial	99	24	Mảnh nhẫn Kế Thừa chưa hoàn chỉnh, cần [FFFE0D]5 mảnh[-] mới chế tạo được 1 nhẫn [FFFE0D]【Kế Thừa】bậc 4[-] 	80000	1	1	80000	4	1		999										
2104	Mảnh Nhẫn Kế Thừa Bậc 5	T5_Ring_Q3_piece		34	25		EquipMeterial	99	25	Mảnh nhẫn Kế Thừa chưa hoàn chỉnh, cần [FFFE0D]5 mảnh[-] mới chế tạo được 1 nhẫn [FFFE0D]【Kế Thừa】bậc 5[-] 	180000	2	1	180000	4	1		999										
2105	Mảnh Nhẫn Kế Thừa Bậc 6	T6_Ring_Q3_piece		34	26		EquipMeterial	99	26	Mảnh nhẫn Kế Thừa chưa hoàn chỉnh, cần [FFFE0D]5 mảnh[-] mới chế tạo được 1 nhẫn [FFFE0D]【Kế Thừa】bậc 6[-] 	240000	3	1	240000	4	1		999										
2958	Mảnh Nhẫn Kế Thừa Bậc 7	T7_Ring_Q3_piece		34	27		EquipMeterial	99	27	Mảnh nhẫn Kế Thừa chưa hoàn chỉnh, cần [FFFE0D]5 mảnh[-] để chế tạo thành 1 Nhẫn[FFFE0D]【Kế Thừa】Bậc 7[-]	320000	4	1	320000	4	1		999										
2959	Mảnh Nhẫn Kế Thừa Bậc 8	T8_Ring_Q3_piece		34	28		EquipMeterial	99	28	Mảnh nhẫn Kế Thừa chưa hoàn chỉnh, cần [FFFE0D]5 mảnh[-] để chế tạo thành 1 Nhẫn[FFFE0D]【Kế Thừa】Bậc 8[-]	480000	5	1	480000	4	1		999										
2960	Mảnh Nhẫn Kế Thừa Bậc 9	T9_Ring_Q3_piece		34	29		EquipMeterial	99	29	Mảnh nhẫn Kế Thừa chưa hoàn chỉnh, cần [FFFE0D]5 mảnh[-] để chế tạo thành 1 Nhẫn [FFFE0D]【Kế Thừa】Bậc 9[-]	720000	6	1	720000	4	1		999										
3672	Mảnh Nhẫn Kế Thừa Bậc 10	T10_Ring_Q3_piece		34	30		EquipMeterial	99	30	Mảnh Nhẫn Kế Thừa chưa hoàn chỉnh, cần [FFFE0D]5 mảnh[-] mới ghép được 1 [FFFE0D]【Kế Thừa】Nhẫn Bậc 10[-]	960000	7	1	960000	4	1		999										
5786	Mảnh Nhẫn Kế Thừa Bậc 11	T11_Ring_Q3_piece		34	4921		EquipMeterial	99	4921	Mảnh Nhẫn Kế Thừa chưa hoàn chỉnh, cần [FFFE0D]5 mảnh[-] mới có thể ghép 1 Nhẫn [FFFE0D]【Kế Thừa】Bậc 11][-]	1280000	8	1	1280000	4	1		999										
5787	Mảnh Nhẫn Kế Thừa Bậc 12	T12_Ring_Q3_piece		34	4922		EquipMeterial	99	4922	Mảnh Nhẫn Kế Thừa chưa hoàn chỉnh, cần [FFFE0D]5 mảnh[-] mới có thể ghép 1 Nhẫn [FFFE0D]【Kế Thừa】Bậc 12[-]	320000	9	1	320000	4	1		999										
5788	Mảnh Nhẫn Kế Thừa Bậc 13	T13_Ring_Q3_piece		34	4923		EquipMeterial	99	4923	Mảnh Nhẫn Kế Thừa chưa hoàn chỉnh, cần [FFFE0D]5 mảnh[-] mới có thể ghép 1 Nhẫn [FFFE0D]【Kế Thừa】Bậc 13[-]	480000	10	1	480000	4	1		999										
5789	Mảnh Nhẫn Kế Thừa Bậc 14	T14_Ring_Q3_piece		34	4924		EquipMeterial	99	4924	Mảnh Nhẫn Kế Thừa chưa hoàn chỉnh, cần [FFFE0D]5 mảnh[-] mới có thể ghép 1 Nhẫn [FFFE0D]【Kế Thừa】Bậc 14[-]	720000	11	1	720000	4	1		999										
5790	Mảnh Nhẫn Kế Thừa Bậc 15	T15_Ring_Q3_piece		34	4925		EquipMeterial	99	4925	Mảnh Nhẫn Kế Thừa chưa hoàn chỉnh, cần [FFFE0D]5 mảnh[-] mới có thể ghép 1 Nhẫn [FFFE0D]【Kế Thừa】Bậc 15[-]	960000	12	1	960000	4	1		999										
2106	Mảnh Ngọc Bội Hiếm Bậc 4	T4_Pendant_Q2_piece		34	34		EquipMeterial	99	34	Mảnh ngọc bội Hiếm chưa hoàn chỉnh, cần [FFFE0D]10 mảnh[-] mới chế tạo được 1 ngọc bội [FFFE0D]【Hiếm】bậc 4[-] 	120000	1	1	120000	6	1		999										
2107	Mảnh Ngọc Bội Hiếm Bậc 5	T5_Pendant_Q2_piece		34	35		EquipMeterial	99	35	Mảnh ngọc bội Hiếm chưa hoàn chỉnh, cần [FFFE0D]10 mảnh[-] mới chế tạo được 1 ngọc bội [FFFE0D]【Hiếm】bậc 5[-] 	250000	2	1	250000	6	1		999										
2108	Mảnh Ngọc Bội Hiếm Bậc 6	T6_Pendant_Q2_piece		34	36		EquipMeterial	99	36	Mảnh ngọc bội Hiếm chưa hoàn chỉnh, cần [FFFE0D]10 mảnh[-] mới chế tạo được 1 ngọc bội [FFFE0D]【Hiếm】bậc 6[-] 	300000	3	1	300000	6	1		999										
2961	Mảnh Ngọc Bội Hiếm Bậc 7	T7_Pendant_Q2_piece		34	37		EquipMeterial	99	37	Mảnh ngọc bội Hiếm chưa hoàn chỉnh, cần [FFFE0D]10 mảnh[-] để chế tạo thành 1 Ngọc Bội[FFFE0D]【Hiếm】Bậc 7[-]	400000	4	1	400000	6	1		999										
2962	Mảnh Ngọc Bội Hiếm Bậc 8	T8_Pendant_Q2_piece		34	38		EquipMeterial	99	38	Mảnh ngọc bội Hiếm chưa hoàn chỉnh, cần [FFFE0D]10 mảnh[-] để chế tạo thành 1 Ngọc Bội[FFFE0D]【Hiếm】Bậc 8[-]	540000	5	1	600000	6	1		999										
2963	Mảnh Ngọc Bội Hiếm Bậc 9	T9_Pendant_Q2_piece		34	39		EquipMeterial	99	39	Mảnh ngọc bội Hiếm chưa hoàn chỉnh, cần [FFFE0D]10 mảnh[-] để chế tạo thành 1 Ngọc Bội[FFFE0D]【Hiếm】Bậc 9[-]	800000	6	1	800000	6	1		999										
3673	Mảnh Ngọc Bội Hiếm Bậc 10	T10_Pendant_Q2_piece		34	40		EquipMeterial	99	40	Mảnh Ngọc Bội Hiếm chưa hoàn chỉnh, cần [FFFE0D]10 mảnh[-] mới ghép được 1 [FFFE0D]【Hiếm】Ngọc Bội Bậc 10[-]	1000000	7	1	1000000	6	1		999										
5791	Mảnh Ngọc Bội Hiếm Bậc 11	T11_Pendant_Q2_piece		34	4931		EquipMeterial	99	4931	Mảnh Ngọc Bội Hiếm chưa hoàn chỉnh, cần [FFFE0D]10 mảnh[-] mới có thể ghép 1 Ngọc Bội [FFFE0D]【Hiếm】Bậc 11][-]	1250000	8	1	1250000	6	1		999										
5792	Mảnh Ngọc Bội Hiếm Bậc 12	T12_Pendant_Q2_piece		34	4932		EquipMeterial	99	4932	Mảnh Ngọc Bội Hiếm chưa hoàn chỉnh, cần [FFFE0D]10 mảnh[-] mới có thể ghép 1 Ngọc Bội [FFFE0D]【Hiếm】Bậc 12][-]	400000	9	1	400000	6	1		999										
5793	Mảnh Ngọc Bội Hiếm Bậc 13	T13_Pendant_Q2_piece		34	4933		EquipMeterial	99	4933	Mảnh Ngọc Bội Hiếm chưa hoàn chỉnh, cần [FFFE0D]10 mảnh[-] mới có thể ghép 1 Ngọc Bội [FFFE0D]【Hiếm】Bậc 13][-]	540000	10	1	600000	6	1		999										
5794	Mảnh Ngọc Bội Hiếm Bậc 14	T14_Pendant_Q2_piece		34	4934		EquipMeterial	99	4934	Mảnh Ngọc Bội Hiếm chưa hoàn chỉnh, cần [FFFE0D]10 mảnh[-] mới có thể ghép 1 Ngọc Bội [FFFE0D]【Hiếm】Bậc 14][-]	800000	11	1	800000	6	1		999										
5795	Mảnh Ngọc Bội Hiếm Bậc 15	T15_Pendant_Q2_piece		34	4935		EquipMeterial	99	4935	Mảnh Ngọc Bội Hiếm chưa hoàn chỉnh, cần [FFFE0D]10 mảnh[-] mới có thể ghép 1 Ngọc Bội [FFFE0D]【Hiếm】Bậc 15][-]	1000000	12	1	1000000	6	1		999										
2109	Mảnh Ngọc Bội Kế Thừa Bậc 4	T4_Pendant_Q3_piece		34	34		EquipMeterial	99	34	Mảnh ngọc bội Kế Thừa chưa hoàn chỉnh, cần [FFFE0D]5 mảnh[-] mới chế tạo được 1 ngọc bội [FFFE0D]【Kế Thừa】bậc 4[-] 	80000	1	1	80000	4	1		999										
2110	Mảnh Ngọc Bội Kế Thừa Bậc 5	T5_Pendant_Q3_piece		34	35		EquipMeterial	99	35	Mảnh ngọc bội Kế Thừa chưa hoàn chỉnh, cần [FFFE0D]5 mảnh[-] mới chế tạo được 1 ngọc bội [FFFE0D]【Kế Thừa】bậc 5[-] 	180000	2	1	180000	4	1		999										
2111	Mảnh Ngọc Bội Kế Thừa Bậc 6	T6_Pendant_Q3_piece		34	36		EquipMeterial	99	36	Mảnh ngọc bội Kế Thừa chưa hoàn chỉnh, cần [FFFE0D]5 mảnh[-] mới chế tạo được 1 ngọc bội [FFFE0D]【Kế Thừa】bậc 6[-] 	240000	3	1	240000	4	1		999										
2964	Mảnh Ngọc Bội Kế Thừa Bậc 7	T7_Pendant_Q3_piece		34	37		EquipMeterial	99	37	Mảnh ngọc bội Kế Thừa chưa hoàn chỉnh, cần [FFFE0D]5 mảnh[-] để chế tạo thành 1 Ngọc Bội[FFFE0D]【Kế Thừa】Bậc 7[-]	320000	4	1	320000	4	1		999										
2965	Mảnh Ngọc Bội Kế Thừa Bậc 8	T8_Pendant_Q3_piece		34	38		EquipMeterial	99	38	Mảnh ngọc bội Kế Thừa chưa hoàn chỉnh, cần [FFFE0D]5 mảnh[-] để chế tạo thành 1 Ngọc Bội[FFFE0D]【Kế Thừa】Bậc 8[-]	480000	5	1	480000	4	1		999										
2966	Mảnh Ngọc Bội Kế Thừa Bậc 9	T9_Pendant_Q3_piece		34	39		EquipMeterial	99	39	Mảnh ngọc bội Kế Thừa chưa hoàn chỉnh, cần [FFFE0D]5 mảnh[-] để chế tạo thành 1 Ngọc Bội[FFFE0D]【Kế Thừa】Bậc 9[-]	720000	6	1	720000	4	1		999										
3674	Mảnh Ngọc Bội Kế Thừa Bậc 10	T10_Pendant_Q3_piece		34	40		EquipMeterial	99	40	Mảnh Ngọc Bội Kế Thừa chưa hoàn chỉnh, cần [FFFE0D]5 mảnh[-] mới ghép được 1 [FFFE0D]【Kế Thừa】Ngọc Bội Bậc 10[-]	960000	7	1	960000	4	1		999										
5796	Mảnh Ngọc Bội Kế Thừa Bậc 11	T11_Pendant_Q3_piece		34	4931		EquipMeterial	99	4931	Mảnh Ngọc Bội Kế Thừa chưa hoàn chỉnh, cần [FFFE0D]5 mảnh[-] mới có thể ghép 1 Ngọc Bội [FFFE0D]【Kế Thừa】Bậc 11][-]	1280000	8	1	1280000	4	1		999										
5797	Mảnh Ngọc Bội Kế Thừa Bậc 12	T12_Pendant_Q3_piece		34	4932		EquipMeterial	99	4932	Mảnh Ngọc Bội Kế Thừa chưa hoàn chỉnh, cần [FFFE0D]5 mảnh[-] mới có thể ghép 1 Ngọc Bội [FFFE0D]【Kế Thừa】Bậc 12][-]	320000	9	1	320000	4	1		999										
5798	Mảnh Ngọc Bội Kế Thừa Bậc 13	T13_Pendant_Q3_piece		34	4933		EquipMeterial	99	4933	Mảnh Ngọc Bội Kế Thừa chưa hoàn chỉnh, cần [FFFE0D]5 mảnh[-] mới có thể ghép 1 Ngọc Bội [FFFE0D]【Kế Thừa】Bậc 13][-]	480000	10	1	480000	4	1		999										
5799	Mảnh Ngọc Bội Kế Thừa Bậc 14	T14_Pendant_Q3_piece		34	4934		EquipMeterial	99	4934	Mảnh Ngọc Bội Kế Thừa chưa hoàn chỉnh, cần [FFFE0D]5 mảnh[-] mới có thể ghép 1 Ngọc Bội [FFFE0D]【Kế Thừa】Bậc 14][-]	720000	11	1	720000	4	1		999										
5800	Mảnh Ngọc Bội Kế Thừa Bậc 15	T15_Pendant_Q3_piece		34	4935		EquipMeterial	99	4935	Mảnh Ngọc Bội Kế Thừa chưa hoàn chỉnh, cần [FFFE0D]5 mảnh[-] mới có thể ghép 1 Ngọc Bội [FFFE0D]【Kế Thừa】Bậc 15][-]	960000	12	1	960000	4	1		999										
2112	Mảnh Hộ Thân Phù Hiếm Bậc 4	T4_Amulet_Q2_piece		34	44		EquipMeterial	99	44	Mảnh hộ thân phù Hiếm chưa hoàn chỉnh, cần [FFFE0D]10 mảnh[-] mới chế tạo được 1 hộ thân phù [FFFE0D]【Hiếm】bậc 4[-] 	120000	1	1	120000	6	1		999										
2113	Mảnh Hộ Thân Phù Hiếm Bậc 5	T5_Amulet_Q2_piece		34	45		EquipMeterial	99	45	Mảnh hộ thân phù Hiếm chưa hoàn chỉnh, cần [FFFE0D]10 mảnh[-] mới chế tạo được 1 hộ thân phù [FFFE0D]【Hiếm】bậc 5[-] 	250000	2	1	250000	6	1		999										
2114	Mảnh Hộ Thân Phù Hiếm Bậc 6	T6_Amulet_Q2_piece		34	46		EquipMeterial	99	46	Mảnh hộ thân phù Hiếm chưa hoàn chỉnh, cần [FFFE0D]10 mảnh[-] mới chế tạo được 1 hộ thân phù [FFFE0D]【Hiếm】bậc 6[-] 	300000	3	1	300000	6	1		999										
2967	Mảnh Hộ Thân Phù Hiếm Bậc 7	T7_Amulet_Q2_piece		34	47		EquipMeterial	99	47	Mảnh hộ thân phù Hiếm chưa hoàn chỉnh, cần [FFFE0D]10 mảnh[-] để chế tạo thành 1 Hộ Thân Phù[FFFE0D]【Hiếm】Bậc 7[-]	400000	4	1	400000	6	1		999										
2968	Mảnh Hộ Thân Phù Hiếm Bậc 8	T8_Amulet_Q2_piece		34	48		EquipMeterial	99	48	Mảnh hộ thân phù Hiếm chưa hoàn chỉnh, cần [FFFE0D]10 mảnh[-] để chế tạo thành 1 Hộ Thân Phù[FFFE0D]【Hiếm】Bậc 8[-]	540000	5	1	600000	6	1		999										
2969	Mảnh Hộ Thân Phù Hiếm Bậc 9	T9_Amulet_Q2_piece		34	49		EquipMeterial	99	49	Mảnh hộ thân phù Hiếm chưa hoàn chỉnh, cần [FFFE0D]10 mảnh[-] để chế tạo thành 1 Hộ Thân Phù[FFFE0D]【Hiếm】Bậc 9[-]	800000	6	1	800000	6	1		999										
3675	Mảnh Hộ Thân Phù Hiếm Bậc 10	T10_Amulet_Q2_piece		34	50		EquipMeterial	99	50	Mảnh Hộ Thân Phù Hiếm chưa hoàn chỉnh, cần [FFFE0D]10 mảnh[-] mới ghép được 1 [FFFE0D]【Hiếm】Hộ Thân Phù Bậc 10[-]	1000000	7	1	1000000	6	1		999										
5801	Mảnh Hộ Thân Phù Hiếm Bậc 11	T11_Amulet_Q2_piece		34	4941		EquipMeterial	99	4941	Mảnh Hộ Thân Phù Hiếm chưa hoàn chỉnh, cần [FFFE0D]10 mảnh[-] mới có thể ghép 1 Hộ Thân Phù [FFFE0D]【Hiếm】Bậc 11][-]	1250000	8	1	1250000	6	1		999										
5802	Mảnh Hộ Thân Phù Hiếm Bậc 12	T12_Amulet_Q2_piece		34	4942		EquipMeterial	99	4942	Mảnh Hộ Thân Phù Hiếm chưa hoàn chỉnh, cần [FFFE0D]10 mảnh[-] mới có thể ghép 1 Hộ Thân Phù [FFFE0D]【Hiếm】Bậc 12][-]	400000	9	1	400000	6	1		999										
5803	Mảnh Hộ Thân Phù Hiếm Bậc 13	T13_Amulet_Q2_piece		34	4943		EquipMeterial	99	4943	Mảnh Hộ Thân Phù Hiếm chưa hoàn chỉnh, cần [FFFE0D]10 mảnh[-] mới có thể ghép 1 Hộ Thân Phù [FFFE0D]【Hiếm】Bậc 13][-]	540000	10	1	600000	6	1		999										
5804	Mảnh Hộ Thân Phù Hiếm Bậc 14	T14_Amulet_Q2_piece		34	4944		EquipMeterial	99	4944	Mảnh Hộ Thân Phù Hiếm chưa hoàn chỉnh, cần [FFFE0D]10 mảnh[-] mới có thể ghép 1 Hộ Thân Phù [FFFE0D]【Hiếm】Bậc 14][-]	800000	11	1	800000	6	1		999										
5805	Mảnh Hộ Thân Phù Hiếm Bậc 15	T15_Amulet_Q2_piece		34	4945		EquipMeterial	99	4945	Mảnh Hộ Thân Phù Hiếm chưa hoàn chỉnh, cần [FFFE0D]10 mảnh[-] mới có thể ghép 1 Hộ Thân Phù [FFFE0D]【Hiếm】Bậc 15][-]	1000000	12	1	1000000	6	1		999										
2115	Mảnh Hộ Thân Phù Kế Thừa Bậc 4	T4_Amulet_Q3_piece		34	44		EquipMeterial	99	44	Mảnh hộ thân phù Kế Thừa chưa hoàn chỉnh, cần [FFFE0D]5 mảnh[-] mới chế tạo được 1 hộ thân phù [FFFE0D]【Kế Thừa】bậc 4[-] 	80000	1	1	80000	4	1		999										
2116	Mảnh Hộ Thân Phù Kế Thừa Bậc 5	T5_Amulet_Q3_piece		34	45		EquipMeterial	99	45	Mảnh hộ thân phù Kế Thừa chưa hoàn chỉnh, cần [FFFE0D]5 mảnh[-] mới chế tạo được 1 hộ thân phù [FFFE0D]【Kế Thừa】bậc 5[-] 	180000	2	1	180000	4	1		999										
2117	Mảnh Hộ Thân Phù Kế Thừa Bậc 6	T6_Amulet_Q3_piece		34	46		EquipMeterial	99	46	Mảnh hộ thân phù Kế Thừa chưa hoàn chỉnh, cần [FFFE0D]5 mảnh[-] mới chế tạo được 1 hộ thân phù [FFFE0D]【Kế Thừa】bậc 6[-] 	240000	3	1	240000	4	1		999										
2970	Mảnh Hộ Thân Phù Kế Thừa Bậc 7	T7_Amulet_Q3_piece		34	47		EquipMeterial	99	47	Mảnh Hộ Thân Phù Kế Thừa chưa hoàn chỉnh, cần [FFFE0D]5 mảnh[-] để chế tạo thành 1 Hộ Thân Phù[FFFE0D]【Kế Thừa】Bậc 7[-]	320000	4	1	320000	4	1		999										
2971	Mảnh Hộ Thân Phù Kế Thừa Bậc 8	T8_Amulet_Q3_piece		34	48		EquipMeterial	99	48	Mảnh Hộ Thân Phù Kế Thừa chưa hoàn chỉnh, cần [FFFE0D]5 mảnh[-] để chế tạo thành 1 Hộ Thân Phù[FFFE0D]【Kế Thừa】Bậc 8[-]	480000	5	1	480000	4	1		999										
2972	Mảnh Hộ Thân Phù Kế Thừa Bậc 9	T9_Amulet_Q3_piece		34	49		EquipMeterial	99	49	Mảnh Hộ Thân Phù Kế Thừa chưa hoàn chỉnh, cần [FFFE0D]5 mảnh[-] để chế tạo thành 1 Hộ Thân Phù[FFFE0D]【Kế Thừa】Bậc 9[-]	720000	6	1	720000	4	1		999										
3676	Mảnh Hộ Thân Phù Kế Thừa Bậc 10	T10_Amulet_Q3_piece		34	50		EquipMeterial	99	50	Mảnh Hộ Thân Phù Kế Thừa chưa hoàn chỉnh, cần [FFFE0D]5 mảnh[-] để ghép thành 1 [FFFE0D]【Kế Thừa】Hộ Thân Phù Bậc 10[-]	960000	7	1	960000	4	1		999										
5806	Mảnh Hộ Thân Phù Kế Thừa Bậc 11	T11_Amulet_Q3_piece		34	4941		EquipMeterial	99	4941	Mảnh Hộ Thân Phù Kế Thừa chưa hoàn chỉnh, cần [FFFE0D]5 mảnh[-] mới có thể ghép 1 Hộ Thân Phù [FFFE0D]【Kế Thừa】Bậc 11][-]	1280000	8	1	1280000	4	1		999										
5807	Mảnh Hộ Thân Phù Kế Thừa Bậc 12	T12_Amulet_Q3_piece		34	4942		EquipMeterial	99	4942	Mảnh Hộ Thân Phù Kế Thừa chưa hoàn chỉnh, cần [FFFE0D]5 mảnh[-] mới có thể ghép 1 Hộ Thân Phù [FFFE0D]【Kế Thừa】Bậc 12[-]	320000	9	1	320000	4	1		999										
5808	Mảnh Hộ Thân Phù Kế Thừa Bậc 13	T13_Amulet_Q3_piece		34	4943		EquipMeterial	99	4943	Mảnh Hộ Thân Phù Kế Thừa chưa hoàn chỉnh, cần [FFFE0D]5 mảnh[-] mới có thể ghép 1 Hộ Thân Phù [FFFE0D]【Kế Thừa】Bậc 13[-]	480000	10	1	480000	4	1		999										
5809	Mảnh Hộ Thân Phù Kế Thừa Bậc 14	T14_Amulet_Q3_piece		34	4944		EquipMeterial	99	4944	Mảnh Hộ Thân Phù Kế Thừa chưa hoàn chỉnh, cần [FFFE0D]5 mảnh[-] mới có thể ghép 1 Hộ Thân Phù [FFFE0D]【Kế Thừa】Bậc 14[-]	720000	11	1	720000	4	1		999										
5810	Mảnh Hộ Thân Phù Kế Thừa Bậc 15	T15_Amulet_Q3_piece		34	4945		EquipMeterial	99	4945	Mảnh Hộ Thân Phù Kế Thừa chưa hoàn chỉnh, cần [FFFE0D]5 mảnh[-] mới có thể ghép 1 Hộ Thân Phù [FFFE0D]【Kế Thừa】Bậc 15[-]	960000	12	1	960000	4	1		999										
2118	Mảnh Nón Hiếm Bậc 4	T4_Helm_Q2_piece	5704	34	10204		EquipMeterial	99	10204	Mảnh nón Hiếm chưa hoàn chỉnh, cần [FFFE0D]10 mảnh[-] mới chế tạo được 1 nón [FFFE0D]【Hiếm】bậc 4[-] 	60000	1	1	60000	6	1		999										
2119	Mảnh Nón Hiếm Bậc 5	T5_Helm_Q2_piece	5705	34	10205		EquipMeterial	99	10205	Mảnh nón Hiếm chưa hoàn chỉnh, cần [FFFE0D]10 mảnh[-] mới chế tạo được 1 nón [FFFE0D]【Hiếm】bậc 5[-] 	125000	2	1	125000	6	1		999										
2120	Mảnh Nón Hiếm Bậc 6	T6_Helm_Q2_piece	5706	34	10206		EquipMeterial	99	10206	Mảnh nón Hiếm chưa hoàn chỉnh, cần [FFFE0D]10 mảnh[-] mới chế tạo được 1 nón [FFFE0D]【Hiếm】bậc 6[-] 	150000	3	1	150000	6	1		999										
2973	Mảnh Nón Hiếm Bậc 7	T7_Helm_Q2_piece	5707	34	10207		EquipMeterial	99	10207	Mảnh nón Hiếm chưa hoàn chỉnh, cần [FFFE0D]10 mảnh[-] để chế tạo thành 1 Nón[FFFE0D]【Hiếm】Bậc 7[-]	200000	4	1	200000	6	1		999										
2974	Mảnh Nón Hiếm Bậc 8	T8_Helm_Q2_piece	5708	34	10208		EquipMeterial	99	10208	Mảnh nón Hiếm chưa hoàn chỉnh, cần [FFFE0D]10 mảnh[-] để chế tạo thành 1 Nón[FFFE0D]【Hiếm】Bậc 8[-]	270000	5	1	270000	6	1		999										
2975	Mảnh Nón Hiếm Bậc 9	T9_Helm_Q2_piece	5709	34	10209		EquipMeterial	99	10209	Mảnh nón Hiếm chưa hoàn chỉnh, cần [FFFE0D]10 mảnh[-] để chế tạo thành 1 Nón[FFFE0D]【Hiếm】Bậc 9[-]	400000	6	1	400000	6	1		999										
3677	Mảnh Nón Hiếm Bậc 10	T10_Helm_Q2_piece	5710	34	10210		EquipMeterial	99	10210	Mảnh Nón Hiếm chưa hoàn chỉnh, cần [FFFE0D]10 mảnh[-] để ghép thành 1 [FFFE0D]【Hiếm】Nón Bậc 10[-]	500000	7	1	500000	6	1		999										
5811	Mảnh Nón Hiếm Bậc 11	T11_Helm_Q2_piece	5711	34			EquipMeterial	99		Mảnh Nón Hiếm, cần [FFFE0D]10 mảnh[-] có thể đúc 1 Nón [FFFE0D]【Hiếm】Bậc 11[-]	625000	8	1	625000	6	1		999										
5812	Mảnh Nón Hiếm Bậc 12	T12_Helm_Q2_piece	5712	34			EquipMeterial	99		Mảnh Nón Hiếm, cần [FFFE0D]10 mảnh[-] có thể đúc 1 Nón [FFFE0D]【Hiếm】Bậc 12[-]	200000	9	1	200000	6	1		999										
5813	Mảnh Nón Hiếm Bậc 13	T13_Helm_Q2_piece	5713	34			EquipMeterial	99		Mảnh Nón Hiếm, cần [FFFE0D]10 mảnh[-] có thể đúc 1 Nón [FFFE0D]【Hiếm】Bậc 13[-]	270000	10	1	270000	6	1		999										
5814	Mảnh Nón Hiếm Bậc 14	T14_Helm_Q2_piece	5714	34			EquipMeterial	99		Mảnh Nón Hiếm, cần [FFFE0D]10 mảnh[-] có thể đúc 1 Nón [FFFE0D]【Hiếm】Bậc 14[-]	400000	11	1	400000	6	1		999										
5815	Mảnh Nón Hiếm Bậc 15	T15_Helm_Q2_piece	5715	34			EquipMeterial	99		Mảnh Nón Hiếm, cần [FFFE0D]10 mảnh[-] có thể đúc 1 Nón [FFFE0D]【Hiếm】Bậc 15[-]	500000	12	1	500000	6	1		999										
2121	Mảnh Nón Kế Thừa Bậc 4	T4_Helm_Q3_piece	5804	34	10204		EquipMeterial	99	10204	Mảnh nón Kế Thừa chưa hoàn chỉnh, cần [FFFE0D]5 mảnh[-] mới chế tạo được 1 nón [FFFE0D]【Kế Thừa】bậc 4[-] 	40000	1	1	40000	4	1		999										
2122	Mảnh Nón Kế Thừa Bậc 5	T5_Helm_Q3_piece	5805	34	10205		EquipMeterial	99	10205	Mảnh nón Kế Thừa chưa hoàn chỉnh, cần [FFFE0D]5 mảnh[-] mới chế tạo được 1 nón [FFFE0D]【Kế Thừa】bậc 5 [-] 	90000	2	1	90000	4	1		999										
2123	Mảnh Nón Kế Thừa Bậc 6	T6_Helm_Q3_piece	5806	34	10206		EquipMeterial	99	10206	Mảnh nón Kế Thừa chưa hoàn chỉnh, cần [FFFE0D]5 mảnh[-] mới chế tạo được 1 nón [FFFE0D]【Kế Thừa】bậc 6 [-] 	120000	3	1	120000	4	1		999										
2976	Mảnh Nón Kế Thừa Bậc 7	T7_Helm_Q3_piece	5807	34	10207		EquipMeterial	99	10207	Mảnh nón Kế Thừa chưa hoàn chỉnh, cần [FFFE0D]5 mảnh[-] để chế tạo thành 1 Nón[FFFE0D]【Kế Thừa】Bậc 7[-]	160000	4	1	160000	4	1		999										
2977	Mảnh Nón Kế Thừa Bậc 8	T8_Helm_Q3_piece	5808	34	10208		EquipMeterial	99	10208	Mảnh nón Kế Thừa chưa hoàn chỉnh, cần [FFFE0D]5 mảnh[-] để chế tạo thành 1 Nón[FFFE0D]【Kế Thừa】Bậc 8[-]	240000	5	1	240000	4	1		999										
2978	Mảnh Nón Kế Thừa Bậc 9	T9_Helm_Q3_piece	5809	34	10209		EquipMeterial	99	10209	Mảnh nón Kế Thừa chưa hoàn chỉnh, cần [FFFE0D]5 mảnh[-] để chế tạo thành 1 Nón[FFFE0D]【Kế Thừa】Bậc 9[-]	360000	6	1	360000	4	1		999										
3678	Mảnh Nón Kế Thừa Bậc 10	T10_Helm_Q3_piece	5810	34	10210		EquipMeterial	99	10210	Mảnh Nón Kế Thừa chưa hoàn chỉnh, cần [FFFE0D]5 mảnh[-] để ghép thành 1 [FFFE0D]【Kế Thừa】Nón Bậc 10[-]	480000	7	1	480000	4	1		999										
5816	Mảnh Nón Kế Thừa Bậc 11	T11_Helm_Q3_piece	5811	34			EquipMeterial	99		Mảnh Nón Kế Thừa, cần [FFFE0D]5 mảnh[-] có thể đúc 1 Nón [FFFE0D]【Kế Thừa】Bậc 11[-]	640000	8	1	640000	4	1		999										
5817	Mảnh Nón Kế Thừa Bậc 12	T12_Helm_Q3_piece	5812	34			EquipMeterial	99		Mảnh Nón Kế Thừa, cần [FFFE0D]5 mảnh[-] có thể đúc 1 Nón [FFFE0D]【Kế Thừa】Bậc 12[-]	160000	9	1	160000	4	1		999										
5818	Mảnh Nón Kế Thừa Bậc 13	T13_Helm_Q3_piece	5813	34			EquipMeterial	99		Mảnh Nón Kế Thừa, cần [FFFE0D]5 mảnh[-] có thể đúc 1 Nón [FFFE0D]【Kế Thừa】Bậc 13[-]	240000	10	1	240000	4	1		999										
5819	Mảnh Nón Kế Thừa Bậc 14	T14_Helm_Q3_piece	5814	34			EquipMeterial	99		Mảnh Nón Kế Thừa, cần [FFFE0D]5 mảnh[-] có thể đúc 1 Nón [FFFE0D]【Kế Thừa】Bậc 14[-]	360000	11	1	360000	4	1		999										
5820	Mảnh Nón Kế Thừa Bậc 15	T15_Helm_Q3_piece	5815	34			EquipMeterial	99		Mảnh Nón Kế Thừa, cần [FFFE0D]5 mảnh[-] có thể đúc 1 Nón [FFFE0D]【Kế Thừa】Bậc 15[-]	480000	12	1	480000	4	1		999										
2124	Mảnh Áo Hiếm Bậc 4	T4_Armor_Q2_piece	6704	34	10404		EquipMeterial	99	10404	Mảnh y phục Hiếm chưa hoàn chỉnh, cần [FFFE0D]10 mảnh[-] mới chế tạo được 1 y phục [FFFE0D]【Hiếm】bậc 4[-] 	180000	1	1	180000	6	1		999										
2125	Mảnh Áo Hiếm Bậc 5	T5_Armor_Q2_piece	6705	34	10405		EquipMeterial	99	10405	Mảnh y phục Hiếm chưa hoàn chỉnh, cần [FFFE0D]10 mảnh[-] mới chế tạo được 1 y phục [FFFE0D]【Hiếm】bậc 5[-] 	375000	2	1	375000	6	1		999										
2126	Mảnh Áo Hiếm Bậc 6	T6_Armor_Q2_piece	6706	34	10406		EquipMeterial	99	10406	Mảnh y phục Hiếm chưa hoàn chỉnh, cần [FFFE0D]10 mảnh[-] mới chế tạo được 1 y phục [FFFE0D]【Hiếm】bậc 6[-] 	450000	3	1	450000	6	1		999										
2979	Mảnh Áo Hiếm Bậc 7	T7_Armor_Q2_piece	6707	34	10407		EquipMeterial	99	10407	Mảnh áo Hiếm chưa hoàn chỉnh, cần [FFFE0D]10 mảnh[-] để chế tạo thành 1 Áo[FFFE0D]【Hiếm】Bậc 7[-]	600000	4	1	600000	6	1		999										
2980	Mảnh Áo Hiếm Bậc 8	T8_Armor_Q2_piece	6708	34	10408		EquipMeterial	99	10408	Mảnh áo Hiếm chưa hoàn chỉnh, cần [FFFE0D]10 mảnh[-] để chế tạo thành 1 Áo[FFFE0D]【Hiếm】Bậc 8[-]	810000	5	1	810000	6	1		999										
2981	Mảnh Áo Hiếm Bậc 9	T9_Armor_Q2_piece	6709	34	10409		EquipMeterial	99	10409	Mảnh áo Hiếm chưa hoàn chỉnh, cần [FFFE0D]10 mảnh[-] để chế tạo thành 1 Áo[FFFE0D]【Hiếm】Bậc 9[-]	1200000	6	1	1200000	6	1		999										
3679	Mảnh Áo Hiếm Bậc 10	T10_Armor_Q2_piece	6710	34	10410		EquipMeterial	99	10410	Mảnh Áo Hiếm chưa hoàn chỉnh, cần [FFFE0D]10 mảnh[-] để ghép thành 1 [FFFE0D]【Hiếm】Áo Bậc 10[-]	1500000	7	1	1500000	6	1		999										
5821	Mảnh Áo Hiếm Hiếm T11	T11_Armor_Q2_piece	6711	34			EquipMeterial	99		Mảnh Áo Hiếm, cần [FFFE0D]10 mảnh[-] có thể đúc 1 Áo [FFFE0D]【Hiếm】Bậc 11[-]	1875000	8	1	1875000	6	1		999										
5822	Mảnh Áo Hiếm Bậc 12	T12_Armor_Q2_piece	6712	34			EquipMeterial	99		Mảnh Áo Hiếm, cần [FFFE0D]10 mảnh[-] có thể đúc 1 Áo [FFFE0D]【Hiếm】Bậc 12[-]	600000	9	1	600000	6	1		999										
5823	Mảnh Áo Hiếm Bậc 13	T13_Armor_Q2_piece	6713	34			EquipMeterial	99		Mảnh Áo Hiếm, cần [FFFE0D]10 mảnh[-] có thể đúc 1 Áo [FFFE0D]【Hiếm】Bậc 13[-]	810000	10	1	810000	6	1		999										
5824	Mảnh Áo Hiếm Bậc 14	T14_Armor_Q2_piece	6714	34			EquipMeterial	99		Mảnh Áo Hiếm, cần [FFFE0D]10 mảnh[-] có thể đúc 1 Áo [FFFE0D]【Hiếm】Bậc 14[-]	1200000	11	1	1200000	6	1		999										
5825	Mảnh Áo Hiếm Bậc 15	T15_Armor_Q2_piece	6715	34			EquipMeterial	99		Mảnh Áo Hiếm, cần [FFFE0D]10 mảnh[-] có thể đúc 1 Áo [FFFE0D]【Hiếm】Bậc 15[-]	1500000	12	1	1500000	6	1		999										
2127	Mảnh Áo Kế Thừa Bậc 4	T4_Armor_Q3_piece	6804	34	10404		EquipMeterial	99	10404	Mảnh y phục Kế Thừa chưa hoàn chỉnh, cần [FFFE0D]5 mảnh[-] mới chế tạo được 1 y phục [FFFE0D]【Kế Thừa】bậc 4[-] 	120000	1	1	120000	4	1		999										
2128	Mảnh Áo Kế Thừa Bậc 5	T5_Armor_Q3_piece	6805	34	10405		EquipMeterial	99	10405	Mảnh y phục Kế Thừa chưa hoàn chỉnh, cần [FFFE0D]5 mảnh[-] mới chế tạo được 1 y phục [FFFE0D]【Kế Thừa】bậc 5[-] 	270000	2	1	270000	4	1		999										
2129	Mảnh Áo Kế Thừa Bậc 6	T6_Armor_Q3_piece	6806	34	10406		EquipMeterial	99	10406	Mảnh y phục Kế Thừa chưa hoàn chỉnh, cần [FFFE0D]5 mảnh[-] mới chế tạo được 1 y phục [FFFE0D]【Kế Thừa】bậc 6[-] 	360000	3	1	360000	4	1		999										
2982	Mảnh Áo Kế Thừa Bậc 7	T7_Armor_Q3_piece	6807	34	10407		EquipMeterial	99	10407	Mảnh áo Kế Thừa chưa hoàn chỉnh, cần [FFFE0D]5 mảnh[-] để chế tạo thành 1 Áo[FFFE0D]【Kế Thừa】Bậc 7[-]	480000	4	1	480000	4	1		999										
2983	Mảnh Áo Kế Thừa Bậc 8	T8_Armor_Q3_piece	6808	34	10408		EquipMeterial	99	10408	Mảnh áo Kế Thừa chưa hoàn chỉnh, cần [FFFE0D]5 mảnh[-] để chế tạo thành 1 Áo[FFFE0D]【Kế Thừa】Bậc 8[-]	720000	5	1	720000	4	1		999										
2984	Mảnh Áo Kế Thừa Bậc 9	T9_Armor_Q3_piece	6809	34	10409		EquipMeterial	99	10409	Mảnh áo Kế Thừa chưa hoàn chỉnh, cần [FFFE0D]5 mảnh[-] để chế tạo thành 1 Áo[FFFE0D]【Kế Thừa】Bậc 9[-]	1080000	6	1	1080000	4	1		999										
3680	Mảnh Áo Kế Thừa Bậc 10	T10_Armor_Q3_piece	6810	34	10410		EquipMeterial	99	10410	Mảnh Áo Kế Thừa chưa hoàn chỉnh, cần [FFFE0D]5 mảnh[-] để ghép thành 1 [FFFE0D]【Kế Thừa】Áo Bậc 10[-]	1440000	7	1	1440000	4	1		999										
5826	Mảnh Áo Kế Thừa Bậc 11	T11_Armor_Q3_piece	6811	34			EquipMeterial	99		Mảnh Áo Kế Thừa, cần [FFFE0D]5 mảnh[-] có thể đúc 1 Áo [FFFE0D]【Kế Thừa】Bậc 11[-]	1920000	8	1	1920000	4	1		999										
5827	Mảnh Áo Kế Thừa Bậc 12	T12_Armor_Q3_piece	6812	34			EquipMeterial	99		Mảnh Áo Kế Thừa, cần [FFFE0D]5 mảnh[-] có thể đúc 1 Áo [FFFE0D]【Kế Thừa】Bậc 12[-]	480000	9	1	480000	4	1		999										
5828	Mảnh Áo Kế Thừa Bậc 13	T13_Armor_Q3_piece	6813	34			EquipMeterial	99		Mảnh Áo Kế Thừa, cần [FFFE0D]5 mảnh[-] có thể đúc 1 Áo [FFFE0D]【Kế Thừa】Bậc 13[-]	720000	10	1	720000	4	1		999										
5829	Mảnh Áo Kế Thừa Bậc 14	T14_Armor_Q3_piece	6814	34			EquipMeterial	99		Mảnh Áo Kế Thừa, cần [FFFE0D]5 mảnh[-] có thể đúc 1 Áo [FFFE0D]【Kế Thừa】Bậc 14[-]	1080000	11	1	1080000	4	1		999										
5830	Mảnh Áo Kế Thừa Bậc 15	T15_Armor_Q3_piece	6815	34			EquipMeterial	99		Mảnh Áo Kế Thừa, cần [FFFE0D]5 mảnh[-] có thể đúc 1 Áo [FFFE0D]【Kế Thừa】Bậc 15[-]	1440000	12	1	1440000	4	1		999										
2130	Mảnh Hộ Uyển Hiếm Bậc 4	T4_Cuff_Q2_piece	7704	34	10304		EquipMeterial	99	10304	Mảnh hộ uyển Hiếm chưa hoàn chỉnh, cần [FFFE0D]10 mảnh[-] mới chế tạo được 1 hộ uyển [FFFE0D]【Hiếm】bậc 4[-] 	60000	1	1	60000	6	1		999										
2131	Mảnh Hộ Uyển Hiếm Bậc 5	T5_Cuff_Q2_piece	7705	34	10305		EquipMeterial	99	10305	Mảnh hộ uyển Hiếm chưa hoàn chỉnh, cần [FFFE0D]10 mảnh[-] mới chế tạo được 1 hộ uyển [FFFE0D]【Hiếm】bậc 5[-] 	125000	2	1	125000	6	1		999										
2132	Mảnh Hộ Uyển Hiếm Bậc 6	T6_Cuff_Q2_piece	7706	34	10306		EquipMeterial	99	10306	Mảnh hộ uyển Hiếm chưa hoàn chỉnh, cần [FFFE0D]10 mảnh[-] mới chế tạo được 1 hộ uyển [FFFE0D]【Hiếm】bậc 6[-] 	150000	3	1	150000	6	1		999										
2985	Mảnh Hộ Uyển Hiếm Bậc 7	T7_Cuff_Q2_piece	7707	34	10307		EquipMeterial	99	10307	Mảnh hộ uyển Hiếm chưa hoàn chỉnh, cần [FFFE0D]10 mảnh[-] để chế tạo thành 1 Hộ Uyển[FFFE0D]【Hiếm】Bậc 7[-]	200000	4	1	200000	6	1		999										
2986	Mảnh Hộ Uyển Hiếm Bậc 8	T8_Cuff_Q2_piece	7708	34	10308		EquipMeterial	99	10308	Mảnh hộ uyển Hiếm chưa hoàn chỉnh, cần [FFFE0D]10 mảnh[-] để chế tạo thành 1 Hộ Uyển[FFFE0D]【Hiếm】Bậc 8[-]	270000	5	1	270000	6	1		999										
2987	Mảnh Hộ Uyển Hiếm Bậc 9	T9_Cuff_Q2_piece	7709	34	10309		EquipMeterial	99	10309	Mảnh hộ uyển Hiếm chưa hoàn chỉnh, cần [FFFE0D]10 mảnh[-] để chế tạo thành 1 Hộ Uyển[FFFE0D]【Hiếm】Bậc 9[-]	400000	6	1	400000	6	1		999										
3681	Mảnh Hộ Uyển Hiếm Bậc 10	T10_Cuff_Q2_piece	7710	34	10310		EquipMeterial	99	10310	Mảnh Hộ Uyển Hiếm chưa hoàn chỉnh, cần [FFFE0D]10 mảnh[-] để ghép thành 1 [FFFE0D]【Hiếm】Hộ Uyển Bậc 10[-]	500000	7	1	500000	6	1		999										
5831	Mảnh Hộ Uyển Hiếm Bậc 11	T11_Cuff_Q2_piece	7711	34			EquipMeterial	99		Mảnh Hộ Uyển Hiếm, cần [FFFE0D]10 mảnh[-] có thể đúc 1 Hộ Uyển [FFFE0D]【Hiếm】Bậc 11[-]	625000	8	1	625000	6	1		999										
5832	Mảnh Hộ Uyển Hiếm Bậc 12	T12_Cuff_Q2_piece	7712	34			EquipMeterial	99		Mảnh Hộ Uyển Hiếm, cần [FFFE0D]10 mảnh[-] có thể đúc 1 Hộ Uyển [FFFE0D]【Hiếm】Bậc 12[-]	200000	9	1	200000	6	1		999										
5833	Mảnh Hộ Uyển Hiếm Bậc 13	T13_Cuff_Q2_piece	7713	34			EquipMeterial	99		Mảnh Hộ Uyển Hiếm, cần [FFFE0D]10 mảnh[-] có thể đúc 1 Hộ Uyển [FFFE0D]【Hiếm】Bậc 13[-]	270000	10	1	270000	6	1		999										
5834	Mảnh Hộ Uyển Hiếm Bậc 14	T14_Cuff_Q2_piece	7714	34			EquipMeterial	99		Mảnh Hộ Uyển Hiếm, cần [FFFE0D]10 mảnh[-] có thể đúc 1 Hộ Uyển [FFFE0D]【Hiếm】Bậc 14[-]	400000	11	1	400000	6	1		999										
5835	Mảnh Hộ Uyển Hiếm Bậc 15	T15_Cuff_Q2_piece	7715	34			EquipMeterial	99		Mảnh Hộ Uyển Hiếm, cần [FFFE0D]10 mảnh[-] có thể đúc 1 Hộ Uyển [FFFE0D]【Hiếm】Bậc 15[-]	500000	12	1	500000	6	1		999										
2133	Mảnh Hộ Uyển Kế Thừa Bậc 4	T4_Cuff_Q3_piece	7804	34	10304		EquipMeterial	99	10304	Mảnh hộ uyển Kế Thừa chưa hoàn chỉnh, cần [FFFE0D]5 mảnh[-] mới chế tạo được 1 hộ uyển [FFFE0D]【Kế Thừa】bậc 4[-] 	40000	1	1	40000	4	1		999										
2134	Mảnh Hộ Uyển Kế Thừa Bậc 5	T5_Cuff_Q3_piece	7805	34	10305		EquipMeterial	99	10305	Mảnh hộ uyển Kế Thừa chưa hoàn chỉnh, cần [FFFE0D]5 mảnh[-] mới chế tạo được 1 hộ uyển [FFFE0D]【Kế Thừa】bậc 5[-] 	90000	2	1	90000	4	1		999										
2135	Mảnh Hộ Uyển Kế Thừa Bậc 6	T6_Cuff_Q3_piece	7806	34	10306		EquipMeterial	99	10306	Mảnh hộ uyển Kế Thừa chưa hoàn chỉnh, cần [FFFE0D]5 mảnh[-] mới chế tạo được 1 hộ uyển [FFFE0D]【Kế Thừa】bậc 6[-] 	120000	3	1	120000	4	1		999										
2988	Mảnh Hộ Uyển Kế Thừa Bậc 7	T7_Cuff_Q3_piece	7807	34	10307		EquipMeterial	99	10307	Mảnh hộ uyển Kế Thừa chưa hoàn chỉnh, cần [FFFE0D]5 mảnh[-] để chế tạo thành 1 Hộ Uyển[FFFE0D]【Kế Thừa】Bậc 7[-]	160000	4	1	160000	4	1		999										
2989	Mảnh Hộ Uyển Kế Thừa Bậc 8	T8_Cuff_Q3_piece	7808	34	10308		EquipMeterial	99	10308	Mảnh hộ uyển Kế Thừa chưa hoàn chỉnh, cần [FFFE0D]5 mảnh[-] để chế tạo thành 1 Hộ Uyển[FFFE0D]【Kế Thừa】Bậc 8[-]	240000	5	1	240000	4	1		999										
2990	Mảnh Hộ Uyển Kế Thừa Bậc 9	T9_Cuff_Q3_piece	7809	34	10309		EquipMeterial	99	10309	Mảnh hộ uyển Kế Thừa chưa hoàn chỉnh, cần [FFFE0D]5 mảnh[-] để chế tạo thành 1 Hộ Uyển[FFFE0D]【Kế Thừa】Bậc 9[-]	360000	6	1	360000	4	1		999										
3682	Mảnh Hộ Uyển Kế Thừa Bậc 10	T10_Cuff_Q3_piece	7810	34	10310		EquipMeterial	99	10310	Mảnh Hộ Uyển Kế Thừa chưa hoàn chỉnh, cần [FFFE0D]5 mảnh[-] để ghép thành 1 [FFFE0D]【Kế Thừa】Hộ Uyển Bậc 10[-]	480000	7	1	480000	4	1		999										
5836	Mảnh Hộ Uyển Kế Thừa Bậc 11	T11_Cuff_Q3_piece	7811	34			EquipMeterial	99		Mảnh Hộ Uyển Kế Thừa, cần [FFFE0D]5 mảnh[-] có thể đúc 1 Hộ Uyển [FFFE0D]【Kế Thừa】Bậc 11[-]	640000	8	1	640000	4	1		999										
5837	Mảnh Hộ Uyển Kế Thừa Bậc 12	T12_Cuff_Q3_piece	7812	34			EquipMeterial	99		Mảnh Hộ Uyển Kế Thừa, cần [FFFE0D]5 mảnh[-] có thể đúc 1 Hộ Uyển [FFFE0D]【Kế Thừa】Bậc 12[-]	160000	9	1	160000	4	1		999										
5838	Mảnh Hộ Uyển Kế Thừa Bậc 13	T13_Cuff_Q3_piece	7813	34			EquipMeterial	99		Mảnh Hộ Uyển Kế Thừa, cần [FFFE0D]5 mảnh[-] có thể đúc 1 Hộ Uyển [FFFE0D]【Kế Thừa】Bậc 13[-]	240000	10	1	240000	4	1		999										
5839	Mảnh Hộ Uyển Kế Thừa Bậc 14	T14_Cuff_Q3_piece	7814	34			EquipMeterial	99		Mảnh Hộ Uyển Kế Thừa, cần [FFFE0D]5 mảnh[-] có thể đúc 1 Hộ Uyển [FFFE0D]【Kế Thừa】Bậc 14[-]	360000	11	1	360000	4	1		999										
5840	Mảnh Hộ Uyển Kế Thừa Bậc 15	T15_Cuff_Q3_piece	7815	34			EquipMeterial	99		Mảnh Hộ Uyển Kế Thừa, cần [FFFE0D]5 mảnh[-] có thể đúc 1 Hộ Uyển [FFFE0D]【Kế Thừa】Bậc 15[-]	480000	12	1	480000	4	1		999										
2136	Mảnh Đai Hiếm Bậc 4	T4_Belt_Q2_piece	8704	34	10504		EquipMeterial	99	10504	Mảnh yêu đai Hiếm chưa hoàn chỉnh, cần [FFFE0D]10 mảnh[-] mới chế tạo được 1 yêu đai [FFFE0D]【Hiếm】bậc 4[-] 	60000	1	1	60000	6	1		999										
2137	Mảnh Đai Hiếm Bậc 5	T5_Belt_Q2_piece	8705	34	10505		EquipMeterial	99	10505	Mảnh yêu đai Hiếm chưa hoàn chỉnh, cần [FFFE0D]10 mảnh[-] mới chế tạo được 1 yêu đai [FFFE0D]【Hiếm】bậc 5[-] 	125000	2	1	125000	6	1		999										
2138	Mảnh Đai Hiếm Bậc 6	T6_Belt_Q2_piece	8706	34	10506		EquipMeterial	99	10506	Mảnh yêu đai Hiếm chưa hoàn chỉnh, cần [FFFE0D]10 mảnh[-] mới chế tạo được 1 yêu đai [FFFE0D]【Hiếm】bậc 6[-] 	150000	3	1	150000	6	1		999										
2991	Mảnh Đai Hiếm Bậc 7	T7_Belt_Q2_piece	8707	34	10507		EquipMeterial	99	10507	Mảnh đai Hiếm chưa hoàn chỉnh, cần [FFFE0D]10 mảnh[-] để chế tạo thành 1 Đai[FFFE0D]【Hiếm】Bậc 7[-]	200000	4	1	200000	6	1		999										
2992	Mảnh Đai Hiếm Bậc 8	T8_Belt_Q2_piece	8708	34	10508		EquipMeterial	99	10508	Mảnh đai Hiếm chưa hoàn chỉnh, cần [FFFE0D]10 mảnh[-] để chế tạo thành 1 Đai[FFFE0D]【Hiếm】Bậc 8[-]	270000	5	1	270000	6	1		999										
2993	Mảnh Đai Hiếm Bậc 9	T9_Belt_Q2_piece	8709	34	10509		EquipMeterial	99	10509	Mảnh đai Hiếm chưa hoàn chỉnh, cần [FFFE0D]10 mảnh[-] để chế tạo thành 1 Đai[FFFE0D]【Hiếm】Bậc 9[-]	400000	6	1	400000	6	1		999										
3683	Mảnh Đai Hiếm Bậc 10	T10_Belt_Q2_piece	8710	34	10510		EquipMeterial	99	10510	Mảnh Đai Hiếm chưa hoàn chỉnh, cần [FFFE0D]10 mảnh[-] để ghép thành 1 [FFFE0D]【Hiếm】Đai Bậc 10[-]	500000	7	1	500000	6	1		999										
5841	Mảnh Đai Hiếm Bậc 11	T11_Belt_Q2_piece	8711	34			EquipMeterial	99		Mảnh Đai Hiếm, cần [FFFE0D]10 mảnh[-] có thể đúc 1 Đai [FFFE0D]【Hiếm】Bậc 11[-]	625000	8	1	625000	6	1		999										
5842	Mảnh Đai Hiếm Bậc 12	T12_Belt_Q2_piece	8712	34			EquipMeterial	99		Mảnh Đai Hiếm, cần [FFFE0D]10 mảnh[-] có thể đúc 1 Đai [FFFE0D]【Hiếm】Bậc 12[-]	200000	9	1	200000	6	1		999										
5843	Mảnh Đai Hiếm Bậc 13	T13_Belt_Q2_piece	8713	34			EquipMeterial	99		Mảnh Đai Hiếm, cần [FFFE0D]10 mảnh[-] có thể đúc 1 Đai [FFFE0D]【Hiếm】Bậc 13[-]	270000	10	1	270000	6	1		999										
5844	Mảnh Đai Hiếm Bậc 14	T14_Belt_Q2_piece	8714	34			EquipMeterial	99		Mảnh Đai Hiếm, cần [FFFE0D]10 mảnh[-] có thể đúc 1 Đai [FFFE0D]【Hiếm】Bậc 14[-]	400000	11	1	400000	6	1		999										
5845	Mảnh Đai Hiếm Bậc 15	T15_Belt_Q2_piece	8715	34			EquipMeterial	99		Mảnh Đai Hiếm, cần [FFFE0D]10 mảnh[-] có thể đúc 1 Đai [FFFE0D]【Hiếm】Bậc 15[-]	500000	12	1	500000	6	1		999										
2139	Mảnh Đai Kế Thừa Bậc 4	T4_Belt_Q3_piece	8804	34	10504		EquipMeterial	99	10504	Mảnh yêu đai Kế Thừa chưa hoàn chỉnh, cần [FFFE0D]5 mảnh[-] mới chế tạo được 1 yêu đai [FFFE0D]【Kế Thừa】bậc 4[-] 	40000	1	1	40000	4	1		999										
2140	Mảnh Đai Kế Thừa Bậc 5	T5_Belt_Q3_piece	8805	34	10505		EquipMeterial	99	10505	Mảnh yêu đai Kế Thừa chưa hoàn chỉnh, cần [FFFE0D]5 mảnh[-] mới chế tạo được 1 yêu đai [FFFE0D]【Kế Thừa】bậc 5[-] 	90000	2	1	90000	4	1		999										
2141	Mảnh Đai Kế Thừa Bậc 6	T6_Belt_Q3_piece	8806	34	10506		EquipMeterial	99	10506	Mảnh yêu đai Kế Thừa chưa hoàn chỉnh, cần [FFFE0D]5 mảnh[-] mới chế tạo được 1 yêu đai [FFFE0D]【Kế Thừa】bậc 6[-] 	120000	3	1	120000	4	1		999										
2994	Mảnh Đai Kế Thừa Bậc 7	T7_Belt_Q3_piece	8807	34	10507		EquipMeterial	99	10507	Mảnh đai Kế Thừa chưa hoàn chỉnh, cần [FFFE0D]5 mảnh[-] để chế tạo thành 1 Đai[FFFE0D]【Kế Thừa】Bậc 7[-]	160000	4	1	160000	4	1		999										
2995	Mảnh Đai Kế Thừa Bậc 8	T8_Belt_Q3_piece	8808	34	10508		EquipMeterial	99	10508	Mảnh đai Kế Thừa chưa hoàn chỉnh, cần [FFFE0D]5 mảnh[-] để chế tạo thành 1 Đai[FFFE0D]【Kế Thừa】Bậc 8[-]	240000	5	1	240000	4	1		999										
2996	Mảnh Đai Kế Thừa Bậc 9	T9_Belt_Q3_piece	8809	34	10509		EquipMeterial	99	10509	Mảnh đai Kế Thừa chưa hoàn chỉnh, cần [FFFE0D]5 mảnh[-] để chế tạo thành 1 Đai[FFFE0D]【Kế Thừa】Bậc 9[-]	360000	6	1	360000	4	1		999										
3684	Mảnh Đai Kế Thừa Bậc 10	T10_Belt_Q3_piece	8810	34	10510		EquipMeterial	99	10510	Mảnh Đai Kế Thừa chưa hoàn chỉnh, cần [FFFE0D]5 mảnh[-] để ghép thành 1 [FFFE0D]【Kế Thừa】Đai Bậc 10[-]	480000	7	1	480000	4	1		999										
5846	Mảnh Đai Kế Thừa Bậc 11	T11_Belt_Q3_piece	8811	34			EquipMeterial	99		Mảnh Đai Kế Thừa, cần [FFFE0D]5 mảnh[-] có thể đúc 1 Đai [FFFE0D]【Kế Thừa】Bậc 11[-]	640000	8	1	640000	4	1		999										
5847	Mảnh Đai Kế Thừa Bậc 12	T12_Belt_Q3_piece	8812	34			EquipMeterial	99		Mảnh Đai Kế Thừa, cần [FFFE0D]5 mảnh[-] có thể đúc 1 Đai [FFFE0D]【Kế Thừa】Bậc 12[-]	160000	9	1	160000	4	1		999										
5848	Mảnh Đai Kế Thừa Bậc 13	T13_Belt_Q3_piece	8813	34			EquipMeterial	99		Mảnh Đai Kế Thừa, cần [FFFE0D]5 mảnh[-] có thể đúc 1 Đai [FFFE0D]【Kế Thừa】Bậc 13[-]	240000	10	1	240000	4	1		999										
5849	Mảnh Đai Kế Thừa Bậc 14	T14_Belt_Q3_piece	8814	34			EquipMeterial	99		Mảnh Đai Kế Thừa, cần [FFFE0D]5 mảnh[-] có thể đúc 1 Đai [FFFE0D]【Kế Thừa】Bậc 14[-]	360000	11	1	360000	4	1		999										
5850	Mảnh Đai Kế Thừa Bậc 15	T15_Belt_Q3_piece	8815	34			EquipMeterial	99		Mảnh Đai Kế Thừa, cần [FFFE0D]5 mảnh[-] có thể đúc 1 Đai [FFFE0D]【Kế Thừa】Bậc 15[-]	480000	12	1	480000	4	1		999										
2142	Mảnh Giày Hiếm Bậc 4	T4_Boots_Q2_piece	9704	34	10604		EquipMeterial	99	10604	Mảnh giày Hiếm chưa hoàn chỉnh, cần [FFFE0D]10 mảnh[-] mới chế tạo được 1 hài [FFFE0D]【Hiếm】bậc 4[-] 	60000	1	1	60000	6	1		999										
2143	Mảnh Giày Hiếm Bậc 5	T5_Boots_Q2_piece	9705	34	10605		EquipMeterial	99	10605	Mảnh giày Hiếm chưa hoàn chỉnh, cần [FFFE0D]10 mảnh[-] mới chế tạo được 1 hài [FFFE0D]【Hiếm】bậc 5[-] 	125000	2	1	125000	6	1		999										
2144	Mảnh Giày Hiếm Bậc 6	T6_Boots_Q2_piece	9706	34	10606		EquipMeterial	99	10606	Mảnh giày Hiếm chưa hoàn chỉnh, cần [FFFE0D]10 mảnh[-] mới chế tạo được 1 hài [FFFE0D]【Hiếm】bậc 6[-] 	150000	3	1	150000	6	1		999										
2997	Mảnh Giày Hiếm Bậc 7	T7_Boots_Q2_piece	9707	34	10607		EquipMeterial	99	10607	Mảnh giày Hiếm chưa hoàn chỉnh, cần [FFFE0D]10 mảnh[-] để chế tạo thành 1 Giày[FFFE0D]【Hiếm】Bậc 7[-]	200000	4	1	200000	6	1		999										
2998	Mảnh Giày Hiếm Bậc 8	T8_Boots_Q2_piece	9708	34	10608		EquipMeterial	99	10608	Mảnh giày Hiếm chưa hoàn chỉnh, cần [FFFE0D]10 mảnh[-] để chế tạo thành 1 Giày[FFFE0D]【Hiếm】Bậc 8[-]	270000	5	1	270000	6	1		999										
2999	Mảnh Giày Hiếm Bậc 9	T9_Boots_Q2_piece	9709	34	10609		EquipMeterial	99	10609	Mảnh giày Hiếm chưa hoàn chỉnh, cần [FFFE0D]10 mảnh[-] để chế tạo thành 1 Giày[FFFE0D]【Hiếm】Bậc 9[-]	400000	6	1	400000	6	1		999										
3685	Mảnh Giày Hiếm Bậc 10	T10_Boots_Q2_piece	9710	34	10610		EquipMeterial	99	10610	Mảnh Giày Hiếm chưa hoàn chỉnh, cần [FFFE0D]10 mảnh[-] để ghép thành 1 [FFFE0D]【Hiếm】Giày Bậc 10[-]	500000	7	1	500000	6	1		999										
5851	Mảnh Giày Hiếm Bậc 11	T11_Boots_Q2_piece	9711	34			EquipMeterial	99		Mảnh Giày Hiếm, cần [FFFE0D]10 mảnh[-] có thể đúc 1 Giày [FFFE0D]【Hiếm】Bậc 11[-]	625000	8	1	625000	6	1		999										
5852	Mảnh Giày Hiếm Bậc 12	T12_Boots_Q2_piece	9712	34			EquipMeterial	99		Mảnh Giày Hiếm, cần [FFFE0D]10 mảnh[-] có thể đúc 1 Giày [FFFE0D]【Hiếm】Bậc 12[-]	200000	9	1	200000	6	1		999										
5853	Mảnh Giày Hiếm Bậc 13	T13_Boots_Q2_piece	9713	34			EquipMeterial	99		Mảnh Giày Hiếm, cần [FFFE0D]10 mảnh[-] có thể đúc 1 Giày [FFFE0D]【Hiếm】Bậc 13[-]	270000	10	1	270000	6	1		999										
5854	Mảnh Giày Hiếm Bậc 14	T14_Boots_Q2_piece	9714	34			EquipMeterial	99		Mảnh Giày Hiếm, cần [FFFE0D]10 mảnh[-] có thể đúc 1 Giày [FFFE0D]【Hiếm】Bậc 14[-]	400000	11	1	400000	6	1		999										
5855	Mảnh Giày Hiếm Bậc 15	T15_Boots_Q2_piece	9715	34			EquipMeterial	99		Mảnh Giày Hiếm, cần [FFFE0D]10 mảnh[-] có thể đúc 1 Giày [FFFE0D]【Hiếm】Bậc 15[-]	500000	12	1	500000	6	1		999										
2145	Mảnh Giày Kế Thừa Bậc 4	T4_Boots_Q3_piece	9804	34	10604		EquipMeterial	99	10604	Mảnh giày Kế Thừa chưa hoàn chỉnh, cần [FFFE0D]5 mảnh[-] mới chế tạo được 1 hài [FFFE0D]【Kế Thừa】bậc 4[-] 	40000	1	1	40000	4	1		999										
2146	Mảnh Giày Kế Thừa Bậc 5	T5_Boots_Q3_piece	9805	34	10605		EquipMeterial	99	10605	Mảnh giày Kế Thừa chưa hoàn chỉnh, cần [FFFE0D]5 mảnh[-] mới chế tạo được 1 hài [FFFE0D]【Kế Thừa】bậc 5[-] 	90000	2	1	90000	4	1		999										
2147	Mảnh Giày Kế Thừa Bậc 6	T6_Boots_Q3_piece	9806	34	10606		EquipMeterial	99	10606	Mảnh giày Kế Thừa chưa hoàn chỉnh, cần [FFFE0D]5 mảnh[-] mới chế tạo được 1 hài [FFFE0D]【Kế Thừa】bậc 6[-] 	120000	3	1	120000	4	1		999										
3000	Mảnh Giày Kế Thừa Bậc 7	T7_Boots_Q3_piece	9807	34	10607		EquipMeterial	99	10607	Mảnh giày Kế Thừa chưa hoàn chỉnh, cần[FFFE0D]5 mảnh[-] để chế tạo thành 1 Giày[FFFE0D]【Kế Thừa】Bậc 7[-]	160000	4	1	160000	4	1		999										
3001	Mảnh Giày Kế Thừa Bậc 8	T8_Boots_Q3_piece	9808	34	10608		EquipMeterial	99	10608	Mảnh giày Kế Thừa chưa hoàn chỉnh, cần[FFFE0D]5 mảnh[-] để chế tạo thành 1 Giày[FFFE0D]【Kế Thừa】Bậc 8[-]	240000	5	1	240000	4	1		999										
3002	Mảnh Giày Kế Thừa Bậc 9	T9_Boots_Q3_piece	9809	34	10609		EquipMeterial	99	10609	Mảnh giày Kế Thừa chưa hoàn chỉnh, cần[FFFE0D]5 mảnh[-] để chế tạo thành 1 Giày[FFFE0D]【Kế Thừa】Bậc 9[-]	360000	6	1	360000	4	1		999										
3686	Mảnh Giày Kế Thừa Bậc 10	T10_Boots_Q3_piece	9810	34	10610		EquipMeterial	99	10610	Mảnh Giày Kế Thừa chưa hoàn chỉnh, cần [FFFE0D]5 mảnh[-] để ghép thành 1 [FFFE0D]【Kế Thừa】Giày Bậc 10[-]	480000	7	1	480000	4	1		999										
5856	Mảnh Giày Kế Thừa Bậc 11	T11_Boots_Q3_piece	9811	34			EquipMeterial	99		Mảnh Giày Kế Thừa, cần [FFFE0D]5 mảnh[-] có thể đúc 1 Giày [FFFE0D]【Kế Thừa】Bậc 11[-]	640000	8	1	640000	4	1		999										
5857	Mảnh Giày Kế Thừa Bậc 12	T12_Boots_Q3_piece	9812	34			EquipMeterial	99		Mảnh Giày Kế Thừa, cần [FFFE0D]5 mảnh[-] có thể đúc 1 Giày [FFFE0D]【Kế Thừa】Bậc 12[-]	160000	9	1	160000	4	1		999										
5858	Mảnh Giày Kế Thừa Bậc 13	T13_Boots_Q3_piece	9813	34			EquipMeterial	99		Mảnh Giày Kế Thừa, cần [FFFE0D]5 mảnh[-] có thể đúc 1 Giày [FFFE0D]【Kế Thừa】Bậc 13[-]	240000	10	1	240000	4	1		999										
5859	Mảnh Giày Kế Thừa Bậc 14	T14_Boots_Q3_piece	9814	34			EquipMeterial	99		Mảnh Giày Kế Thừa, cần [FFFE0D]5 mảnh[-] có thể đúc 1 Giày [FFFE0D]【Kế Thừa】Bậc 14[-]	360000	11	1	360000	4	1		999										
5860	Mảnh Giày Kế Thừa Bậc 15	T15_Boots_Q3_piece	9815	34			EquipMeterial	99		Mảnh Giày Kế Thừa, cần [FFFE0D]5 mảnh[-] có thể đúc 1 Giày [FFFE0D]【Kế Thừa】Bậc 15[-]	480000	12	1	480000	4	1		999										
3312	Mảnh Bát Gia Tướng Y	T4_Shizhuang_Q1_piece	331	34	10404		EquipMeterial	99	10404	Mảnh Bát Gia Tướng Y chưa hoàn chỉnh, cần [FFFE0D]10 mảnh[-] để chế tạo thành 1 [FFFE0D]Bát Gia Tướng Y[-]	180000	1	1	180000	5	1		999										
3395	【Mảnh Thú Cưỡi】Lý Phi Sa	T3_Horse_Q1_piece		34	1039		EquipMeterial	99	1039	Mảnh Thú Cưỡi chưa hoàn chỉnh, cần [FFFE0D]10 mảnh[-] có thể ghép 1 con [FFFE0D]Lý Phi Sa[-]	180000	1	1	180000	5	1		999										
3396	【Mảnh Thú Cưỡi】Hồng Li	T3_Horse_Q2_piece		34	1040		EquipMeterial	99	1040	Mảnh Thú Cưỡi chưa hoàn chỉnh, cần [FFFE0D]10 mảnh[-] có thể ghép 1 con [FFFE0D]Hồng Li[-]	180000	1	1	180000	5	1		999										
3397	【Mảnh Thú Cưỡi】Lục Tông	T3_Horse_Q3_piece		34	1041		EquipMeterial	99	1041	Mảnh Thú Cưỡi chưa hoàn chỉnh, cần [FFFE0D]10 mảnh[-] có thể ghép 1 con [FFFE0D]Lục Tông[-]	180000	1	1	180000	5	1		999										
3460	Mảnh Tử Điện Lăng Vân Cương	T1_jiangsheng_piece		34	28101		EquipMeterial	99	28101	Mảnh Dây Cương, cần có [FFFE0D]5 mảnh[-] đề ghép thành 1 [FFFE0D]Tử Điện Lăng Vân Cương Bậc 1[-].	300000	1	1	300000	4	1		999										
3461	Mảnh Thương Hồng Giáng Long Cương	T2_jiangsheng_piece		34	28102		EquipMeterial	99	28102	Mảnh Cương, cần [FFFE0D]10 mảnh[-] để chế tạo 1 [FFFE0D]Thương Hồng Giáng Long Cương Bậc 2[-].\n\nLà nguyên liệu để tăng [FFFE0D]Tử Điện Lăng Vân Cương Bậc 1[-] lên [FFFE0D]Thương Hồng Giáng Long Cương Bậc 2[-]	600000	2	1	600000	5	1		999										
3462	Mảnh Xích Kim Ngự Thiên Cương	T3_jiangsheng_piece		34	28103		EquipMeterial	99	28103	Mảnh Cương, cần [FFFE0D]20 mảnh[-] để chế tạo 1 [FFFE0D]Xích Kim Ngự Thiên Cương Bậc 3[-].\n\nLà nguyên liệu để tăng [FFFE0D]Thương Hồng Giáng Long Cương Bậc 2[-] lên [FFFE0D]Xích Kim Ngự Thiên Cương Bậc 3[-]	1500000	3	1	1500000	6	1		999										
3463	Mảnh Cương Bậc 4	T4_jiangsheng_piece		34	28104		EquipMeterial	99	28104	Mảnh Dây Cương, cần có [FFFE0D]20 mảnh[-] để ghép thành 1 Dây Cương [FFFE0D]Bậc 4[-].	1500000	4	1	1500000	6	1		999										
3464	Mảnh Cương Bậc 5	T5_jiangsheng_piece		34	28105		EquipMeterial	99	28105	Mảnh Dây Cương, cần có [FFFE0D]20 mảnh[-] để ghép thành 1 Dây Cương [FFFE0D]Bậc 5[-].	1500000	5	1	1500000	6	1		999										
3465	Mảnh Cương Bậc 6	T6_jiangsheng_piece		34	28106		EquipMeterial	99	28106	Mảnh Dây Cương, cần có [FFFE0D]20 mảnh[-] để ghép thành 1 Dây Cương [FFFE0D]Bậc 6[-].	1500000	6	1	1500000	6	1		999										
3466	Mảnh Cương Bậc 7	T7_jiangsheng_piece		34	28107		EquipMeterial	99	28107	Mảnh Dây Cương, cần có [FFFE0D]20 mảnh[-] để ghép thành 1 Dây Cương [FFFE0D]Bậc 7[-].	1500000	7	1	1500000	6	1		999										
3467	Mảnh Tử Điện Lăng Vân Yên	T1_maan_piece		34	28201		EquipMeterial	99	28201	Mảnh Yên Ngựa, cần có [FFFE0D]5 mảnh[-] để ghép thành 1 [FFFE0D]Tử Điện Lăng Vân Yên Bậc 1[-].	240000	1	1	240000	4	1		999										
3468	Mảnh Thương Hồng Giáng Long Yên	T2_maan_piece		34	28202		EquipMeterial	99	28202	Mảnh Yên, cần [FFFE0D]10 mảnh[-] để chế tạo 1 [FFFE0D]Thương Hồng Giáng Long Yên Bậc 2[-].\n\nLà nguyên liệu để tăng [FFFE0D]Tử Điện Lăng Vân Yên Bậc 1[-] lên [FFFE0D]Thương Hồng Giáng Long Yên Bậc 2[-]	480000	2	1	480000	5	1		999										
3469	Mảnh Xích Kim Ngự Thiên Yên	T3_maan_piece		34	28203		EquipMeterial	99	28203	Mảnh Yên, cần [FFFE0D]20 mảnh[-] để chế tạo 1 [FFFE0D]Xích Kim Ngự Thiên Yên Bậc 3[-].\n\nLà nguyên liệu để tăng [FFFE0D]Thương Hồng Giáng Long Yên Bậc 2[-] lên [FFFE0D]Xích Kim Ngự Thiên Yên Bậc 3[-]	1200000	3	1	1200000	6	1		999										
3470	Mảnh Yên Bậc 4	T4_maan_piece		34	28204		EquipMeterial	99	28204	Mảnh Yên Ngựa, cần có [FFFE0D]20 mảnh[-] để ghép thành 1 Yên Ngựa [FFFE0D]Bậc 4[-].	1200000	4	1	1200000	6	1		999										
3471	Mảnh Yên Bậc 5	T5_maan_piece		34	28205		EquipMeterial	99	28205	Mảnh Yên Ngựa, cần có [FFFE0D]20 mảnh[-] để ghép thành 1 Yên Ngựa [FFFE0D]Bậc 5[-].	1200000	5	1	1200000	6	1		999										
3472	Mảnh Yên Bậc 6	T6_maan_piece		34	28206		EquipMeterial	99	28206	Mảnh Yên Ngựa, cần có [FFFE0D]20 mảnh[-] để ghép thành 1 Yên Ngựa [FFFE0D]Bậc 6[-].	1200000	6	1	1200000	6	1		999										
3473	Mảnh Yên Bậc 7	T7_maan_piece		34	28207		EquipMeterial	99	28207	Mảnh Yên Ngựa, cần có [FFFE0D]20 mảnh[-] để ghép thành 1 Yên Ngựa [FFFE0D]Bậc 7[-].	1200000	7	1	1200000	6	1		999										
3474	Mảnh Tử Điện Lăng Vân Đăng	T1_jiaodeng_piece		34	28301		EquipMeterial	99	28301	Mảnh Bàn Đạp, cần có [FFFE0D]5 mảnh[-] để ghép thành 1 [FFFE0D]Tử Điện Lăng Vân Đăng Bậc 1[-].	180000	1	1	180000	4	1		999										
3475	Mảnh Thương Hồng Giáng Long Đăng	T2_jiaodeng_piece		34	28302		EquipMeterial	99	28302	Mảnh Bàn Đạp, cần [FFFE0D]10 mảnh[-] để chế tạo 1 [FFFE0D]Thương Hồng Giáng Long Đăng Bậc 2[-].\n\nLà nguyên liệu để tăng [FFFE0D]Tử Điện Lăng Vân Đăng Bậc 1[-] lên [FFFE0D]Thương Hồng Giáng Long Đăng Bậc 2[-]	360000	2	1	360000	5	1		999										
3476	Mảnh Xích Kim Ngự Thiên Đăng	T3_jiaodeng_piece		34	28303		EquipMeterial	99	28303	Mảnh Bàn Đạp, cần [FFFE0D]20 mảnh[-] để chế tạo 1 [FFFE0D]Xích Kim Ngự Thiên Đăng Bậc 3[-].\n\nLà nguyên liệu để tăng [FFFE0D]Thương Hồng Giáng Long Đăng Bậc 2[-] lên [FFFE0D]Xích Kim Ngự Thiên Đăng Bậc 3[-]	900000	3	1	900000	6	1		999										
3477	Mảnh Bàn Đạp Bậc 4	T4_jiaodeng_piece		34	28304		EquipMeterial	99	28304	Mảnh Bàn Đạp, cần có [FFFE0D]20 mảnh[-] để ghép thành 1 Bàn Đạp [FFFE0D]Bậc 4[-].	900000	4	1	900000	6	1		999										
3478	Mảnh Bàn Đạp Bậc 5	T5_jiaodeng_piece		34	28305		EquipMeterial	99	28305	Mảnh Bàn Đạp, cần có [FFFE0D]20 mảnh[-] để ghép thành 1 Bàn Đạp [FFFE0D]Bậc 5[-].	900000	5	1	900000	6	1		999										
3479	Mảnh Bàn Đạp Bậc 6	T6_jiaodeng_piece		34	28306		EquipMeterial	99	28306	Mảnh Bàn Đạp, cần có [FFFE0D]20 mảnh[-] để ghép thành 1 Bàn Đạp [FFFE0D]Bậc 6[-].	900000	6	1	900000	6	1		999										
3480	Mảnh Bàn Đạp Bậc 7	T7_jiaodeng_piece		34	28307		EquipMeterial	99	28307	Mảnh Bàn Đạp, cần có [FFFE0D]20 mảnh[-] để ghép thành 1 Bàn Đạp [FFFE0D]Bậc 7[-].	900000	7	1	900000	6	1		999										
