Index	NpcName	TitleID	NpcTemplateId	WalkNearLength	CanAutoPath	NpcLevel	XPos	YPos	StandDir	Quantity	NpcType	NpcCamp	NpcDroprate	NpcSeriesAuto	NpcSeriesMetal	NpcSeriesWood	NpcSeriesWater	NpcSeriesFire	NpcSeriesEarth	Removewhendeath	ChangeColorScheme
taoshu	Cây Đào		2198	50	1	70	5040	5300		0	-1	0	0	-1	0	0	0	0	0	0	0
npc1	Lâm Triều Hoa		2307	50	1	70	4817	5374	38	0	-1	0	0	-1	0	0	0	0	0	0	0
npc2	Triệu Ân Đồng		2308	50	1	70	5080	5030	41	0	-1	0	0	-1	0	0	0	0	0	0	0
