ProductId	szDesc	szServiceCode	nLastingDay	nMoney	szMoneyType	nNeedVipLevel	szAward	szFirstAward	szThirdAward	szFourthAward	szFifthAward	szGroup	nGroupIndex	szVersion	nEndTimeKey	nBuyDayKey	szSprite	szFirstDesc	szNoromalDesc	Plat
com.tencent.jxqy.money60	80 Nguyên Bảo		0	600	RMB		Gold|5	Gold|60				BuyGold	1	version_tx			Recharge_00	Tặng thêm 60 Nguyên Bảo, được mua 1 lần	60 Nguyên Bảo (tặng 5 Nguyên Bảo)	
com.tencent.jxqy.money300	200 Nguyên Bảo			3000	RMB		Gold|30	Gold|300				BuyGold	2	version_tx			Recharge_02	Tặng thêm 300 Nguyên Bảo, được mua 1 lần	300 Nguyên Bảo (tặng 30 Nguyên Bảo)	
com.tencent.jxqy.money980	400 Nguyên Bảo			9800	RMB		Gold|150	Gold|980				BuyGold	3	version_tx			Recharge_03	Tặng thêm 980 Nguyên Bảo, được mua 1 lần	980 Nguyên Bảo (tặng 150 Nguyên Bảo)	
com.tencent.jxqy.money1980	2,000 Nguyên Bảo			19800	RMB		Gold|400	Gold|1980				BuyGold	4	version_tx			Recharge_04	Tặng thêm 1980 Nguyên Bảo, được mua 1 lần	1980 Nguyên Bảo (tặng 400 Nguyên Bảo)	
com.tencent.jxqy.money3280	4,000 Nguyên Bảo			32800	RMB		Gold|850	Gold|3280				BuyGold	5	version_tx			Recharge_05	Tặng thêm 3280 Nguyên Bảo, được mua 1 lần	3280 Nguyên Bảo (tặng 850 Nguyên Bảo)	
com.tencent.jxqy.money6480	6,000 Nguyên Bảo			64800	RMB		Gold|2000	Gold|6480				BuyGold	6	version_tx			Recharge_06	Tặng thêm 6480 Nguyên Bảo, được mua 1 lần	6480 Nguyên Bảo (tặng 2000 Nguyên Bảo)	
com.tencent.jxqy.gift18	Quà 7 Ngày	weekcard	7	1800	RMB		Gold|180					DaysCard	1	version_tx	7		Recharge_09		Quà 7 Ngày	
com.tencent.jxqy.gift30	Quà 30 Ngày	monthcard	30	3000	RMB		Gold|300					DaysCard	2	version_tx	2		Recharge_10		Quà 30 Ngày	
com.tencent.jxqy.giftlevel	Đầu Tư	invest	999999	8800	RMB							GrowInvest	1	version_tx					Quỹ trưởng thành 200.000 VNĐ	
com.tencent.jxqy.giftlevel2	Đầu Tư-2	invest2	999999	9800	RMB							GrowInvest	2	version_tx					Quỹ trưởng thành 200.000 VNĐ	
com.tencent.jxqy.giftlevel3	Đầu Tư 3	invest3	999999	10800	RMB							GrowInvest	3	version_tx					200,000 VNĐ Quỹ Trưởng Thành	
com.tencent.jxqy.giftlevel108	Đầu Tư-Kim Thu	investGQ	30	10800	RMB							GrowInvest	4	version_tx					Quỹ Kim Thu 200,000 VNĐ	
com.tencent.jxqy.giftlevel4	Đầu Tư 4	invest4	999999	10800	RMB							GrowInvest	5	version_tx					200,000 VNĐ Quỹ Trưởng Thành	
com.tencent.jxqy.giftlevel5	Đầu Tư 5	invest5	999999	10800	RMB							GrowInvest	6	version_tx					200,000 VNĐ Quỹ Trưởng Thành	
com.tencent.jxqy.return108	Đầu Tư-Quay Về	investRT	999999	10800	RMB	5						GrowInvest	7	version_tx					200,000 VNĐ Quỹ Trưởng Thành	
com.tencent.jxqy.giftlevel6	Đầu Tư-6	invest6	999999	10800	RMB							GrowInvest	8	version_tx					200,000 VNĐ Quỹ Trưởng Thành	
com.tencent.jxqy.giftlevel7	Đầu Tư-7	invest7	999999	10800	RMB							GrowInvest	9	version_tx					200,000 VNĐ Quỹ Trưởng Thành	
com.tencent.jxqy.gift1	Quà 20,000 VNĐ	daycard	1	100	RMB	1	item|1242|1;Gold|10					DayGift	1	version_tx	11	13			Mua 20,000 VNĐ	
com.tencent.jxqy.gift3	Quà 50,000 VNĐ	daycard3	1	300	RMB	3	item|2518|1;Gold|30					DayGift	2	version_tx	16	14			Mua 50,000 VNĐ	
com.tencent.jxqy.gift6	Quà 100,000 VNĐ	daycard6	1	600	RMB	5	item|2519|1;Gold|60					DayGift	3	version_tx	17	15			Mua 100,000 VNĐ	
com.tencent.jxqy.gift10	Quà 170,000 VNĐ	daycard10	1	1000	RMB	5						DayGiftSet	1	version_tx	55	56			Mua 170,000 VNĐ	ANDROID
com.tencent.jxqy.gift60	Combo Quà Mỗi Ngày (7 Ngày) 	daycard60	7	6000	RMB	5						DayGiftPlus	1	version_tx	61				Quà 7 Ngày	
com.tencent.jxqy.deluxegift30	Quà Hòa Thuận 100,000 VNĐ	deluxe30	1	3000	RMB		item|6529|1	item|6530|1	item|6531|1			YearGift	1	version_tx	40	41			Quà Trị Giá 600,000 VNĐ	
com.tencent.jxqy.deluxegift98	Quà Duyên Lành 300,000 VNĐ	deluxe98	15	9800	RMB		item|6526|1	item|6527|1	item|6528|1			YearGift	2	version_tx	42	43			Quà Trị Giá 1,200,000 VNĐ	
com.tencent.jxqy.deluxegift298	Quà Keo Sơn 1,000,000 VNĐ	deluxe298	15	29800	RMB		item|6523|1	item|6524|1	item|6525|1			YearGift	3	version_tx	44	45			Quà Trị Giá 2,500,000 VNĐ	
com.tencent.jxqy.deluxegift648	Quà Chung Thủy 2,000,000 VNĐ	deluxe648	15	64800	RMB		item|6521|1	item|6522|1	item|6522|1			YearGift	4	version_tx	46	47			Quà Trị Giá 5,000,000 VNĐ	
com.tencent.jxqy.enhancegift30	Top 20	enhance30	2	3000	RMB		item|3922|1					DirectEnhance	1	version_tx	52			Mua 100,000 VNĐ	Quà 1,000,000 VNĐ	
com.tencent.jxqy.enhancegift98	Top 30	enhance98	2	9800	RMB		item|3923|1					DirectEnhance	2	version_tx	53			Mua 300,000 VNĐ mua	Quà 2,500,000 VNĐ	
com.tencent.jxqy.enhancegift198	Top 40	enhance198	2	19800	RMB		item|3924|1					DirectEnhance	3	version_tx	54			Mua 500,000 VNĐ	Quà 5,000,000 VNĐ	
com.tencent.jxqy.enhancegift388	Top 50	enhance388	2	38800	RMB		item|3925|1					DirectEnhance	4	version_tx	73			Mua 1,940,000 VNĐ	Quà 10,000,000 VNĐ	
com.tencent.jxqy.return480	Quà Trở Về 20,000 VNĐ	return480	1	600	RMB		Gold|480					BackGift	1	version_tx	67				Quà Trị Giá 160,000 VNĐ	
com.tencent.jxqy.return4800	Quà Trở Về 100,000 VNĐ	return4800	1	3000	RMB		Gold|4800					BackGift	2	version_tx	68				Quà Trị Giá 1,600,000 VNĐ	
com.tencent.jxqy.return1	Quà Trở Về-Cực 20,000 VNĐ	return1	1	600	RMB		item|1242|6;Gold|60					BackGift	3	version_tx	69				Quà Trị Giá 200,000 VNĐ	
com.tencent.jxqy.return6	Quà Phúc Lợi 20,000 VNĐ	return6	1	600	RMB		item|2518|2;Gold|60					BackGift	4	version_tx	70				Quà Trị Giá 10,000 VNĐ	
com.tencent.jxqy.return30	Quà Hào Hoa 100,000 VNĐ	return30	1	3000	RMB		item|2519|5;Gold|300					BackGift	5	version_tx	71				Quà Trị Giá 500,000 VNĐ	
com.vng.jxm.item1	4000 Nguyên Bảo			200	VND		Gold|4000	Gold|8000				BuyGold	1	version_vn			Recharge_00	Tặng thêm 4000 Nguyên Bảo, chỉ 1 lần duy nhất	4000 Nguyên Bảo	
com.vng.jxm.item2	10000 Nguyên Bảo			500	VND		Gold|10000	Gold|20000				BuyGold	2	version_vn			Recharge_02	Tặng thêm 10000 Nguyên Bảo, chỉ 1 lần duy nhất	10000 Nguyên Bảo	
com.vng.jxm.item3	20000 Nguyên Bảo			1000	VND		Gold|20000	Gold|40000				BuyGold	3	version_vn			Recharge_03	Tặng thêm 20000 Nguyên Bảo, chỉ 1 lần duy nhất	20000 Nguyên Bảo	
com.vng.jxm.item4	100000 Nguyên Bảo			5000	VND		Gold|100000	Gold|200000				BuyGold	4	version_vn			Recharge_04	Tặng thêm 100000 Nguyên Bảo, chỉ 1 lần duy nhất	100000 Nguyên Bảo	
com.vng.jxm.item5	200000 Nguyên Bảo			10000	VND		Gold|200000	Gold|400000				BuyGold	5	version_vn			Recharge_05	Tặng thêm 200000 Nguyên Bảo, chỉ 1 lần duy nhất	200000 Nguyên Bảo	
com.vng.jxm.item6	300000 Nguyên Bảo			15000	VND		Gold|300000	Gold|600000				BuyGold	6	version_vn			Recharge_06	Tặng thêm 300000 Nguyên Bảo, chỉ 1 lần duy nhất	300000 Nguyên Bảo	
com.vng.jxm.item14	1000000 Nguyên Bảo			50000	VND		Gold|1000000	Gold|2000000				BuyGoldServer	1	version_vn						
com.vng.jxm.item15	2000000 Nguyên Bảo			100000	VND		Gold|2000000	Gold|4000000				BuyGoldServer	2	version_vn						
com.vng.jxm.item7	Quà 7 Ngày		7	500	VND		Gold|5000					DaysCard	1	version_vn	7		Recharge_09		Quà 7 Ngày	
com.vng.jxm.item8	Quà 30 Ngày		30	1000	VND		Gold|2000					DaysCard	2	version_vn	2		Recharge_10		Quà 30 Ngày	
com.vng.jxm.item9	Đầu Tư		999999	2000	VND							GrowInvest	1	version_vn					Quỹ trưởng thành 200.000 VNĐ	
com.vng.jxm.item16	Đầu Tư 2		999999	2000	VND							GrowInvest	2	version_vn					Quỹ trưởng thành 200.000 VNĐ	
com.vng.jxm.item17	Đầu Tư 3		999999	2000	VND							GrowInvest	3	version_vn					Quỹ trưởng thành 200.000 VNĐ	
com.vng.jxm.item75	Đầu Tư		999999	2000	VND							GrowInvest	4	version_vn					Quỹ trưởng thành 200.000 VNĐ	
com.vng.jxm.item18	Đầu Tư 4		999999	2000	VND							GrowInvest	5	version_vn					Quỹ trưởng thành 200.000 VNĐ	
com.vng.jxm.item19	Đầu Tư 5		999999	2000	VND							GrowInvest	6	version_vn					Quỹ trưởng thành 200.000 VNĐ	
com.vng.jxm.item86	Đầu Tư-Quay Về		999999	2000	VND	5						GrowInvest	7	version_vn					200,000 VNĐ Quỹ Trưởng Thành	
com.vng.jxm.item21	Quà 20,000 VNĐ		1	200	VND	1	item|1242|1;Gold|4000					DayGift	1	version_vn	16	14			Mua 20,000 VNĐ	
com.vng.jxm.item22	Quà 50,000 VNĐ		1	500	VND	3	item|2518|1;Gold|10000					DayGift	2	version_vn	17	15			Mua 50,000 VNĐ	
com.vng.jxm.item10	Quà 100,000 VNĐ		1	1000	VND	5	item|2519|1;Gold|20000					DayGift	3	version_vn	11	13			Mua 100,000 VNĐ	
com.vng.jxm.item23	Quà 170,000 VNĐ		1	1700	VND	5						DayGiftSet	1	version_vn	55	56			Mua 170,000 VNĐ	ANDROID
com.vng.jxm.item24	Combo Quà Mỗi Ngày (7 Ngày) 		7	2000	VND	5						DayGiftPlus	1	version_vn	61				Quà 7 Ngày	
com.vng.jxm.item61	2000 Ngân Sức			5000	VND		SilverBoard|2000					DressMoney	1	version_vn						
com.vng.jxm.item71	Quà 100,000 VNĐ		1	1000	VND		item|7669|1	item|7669|1	item|7669|1	item|7669|1		YearGift	1	version_vn	40	41			Quà Trị Giá 600,000 VNĐ	
com.vng.jxm.item72	Quà 300,000 VNĐ		30	3000	VND		item|7666|1	item|7666|1	item|7666|1	item|7666|1		YearGift	2	version_vn	42	43			Quà Trị Giá 1,200,000 VNĐ	
com.vng.jxm.item73	Quà 1,000,000 VNĐ		30	10000	VND		item|7663|1	item|7663|1	item|7663|1	item|7663|1		YearGift	3	version_vn	44	45			Quà Trị Giá 2,500,000 VNĐ	
com.vng.jxm.item74	Quà 2,000,000 VNĐ		30	20000	VND		item|7660|1	item|7660|1	item|7660|1	item|7660|1		YearGift	4	version_vn	46	47			Quà Trị Giá 5,000,000 VNĐ	
com.vng.jxm.item101	Quà Hậu Duệ Chiến Thần 100,000 VNĐ		1	1000	VND		item|7669|1	item|7669|1	item|7669|1	item|7669|1		YearGift	1	version_vn	40	41			Quà trị giá 600,000 VNĐ	
com.vng.jxm.item102	Quà Tiên Tử Giáng Trần 300,000 VNĐ		30	3000	VND		item|7666|1	item|7666|1	item|7666|1	item|7666|1		YearGift	2	version_vn	42	43			Quà trị giá 1,200,000 VNĐ	
com.vng.jxm.item103	Quà Bá Đao Xuất Thế 1,000,000 VNĐ		30	10000	VND		item|7663|1	item|7663|1	item|7663|1	item|7663|1		YearGift	3	version_vn	44	45			Quà trị giá 2,500,000 VNĐ	
com.vng.jxm.item104	Quà Mỹ Nhân Tranh Tài 2,000,000 VNĐ		30	20000	VND		item|7660|1	item|7660|1	item|7660|1	item|7660|1		YearGift	4	version_vn	46	47			Quà trị giá 5,000,000 VNĐ	
com.vng.jxm.item30	Top 20		2	1000	VND		item|3922|1					DirectEnhance	1	version_vn	52			Mua 100,000 VNĐ	Quà 1,000,000 VNĐ	
com.vng.jxm.item31	Top 30		2	3000	VND		item|3923|1					DirectEnhance	2	version_vn	53			Mua 300,000 VNĐ	Quà 2,500,000 VNĐ	
com.vng.jxm.item32	Top 40		2	5000	VND		item|3924|1					DirectEnhance	3	version_vn	54			Mua 500,000 VNĐ	Quà 5,000,000 VNĐ	
com.vng.jxm.item33	Top 50		2	10000	VND		item|3925|1					DirectEnhance	4	version_vn	73			Mua 1,000,000 VNĐ	Quà 10,000,000 VNĐ	
com.vng.jxm.item81	Quà Trở Về 20,000 VNĐ		1	200	VND		Gold|480					BackGift	1	version_vn	67				Quà Trị Giá 160,000 VNĐ	
com.vng.jxm.item82	Quà Trở Về 100,000 VNĐ		1	1000	VND		Gold|4800					BackGift	2	version_vn	68				Quà Trị Giá 1,600,000 VNĐ	
com.vng.jxm.item83	Quà Trở Về-Cực 20,000 VNĐ		1	200	VND		item|1242|6;Gold|60					BackGift	3	version_vn	69				Quà Trị Giá 200,000 VNĐ	
com.vng.jxm.item84	Quà Phúc Lợi 20,000 VNĐ		1	200	VND		item|2518|2;Gold|60					BackGift	4	version_vn	70				Quà Trị Giá 10,000 VNĐ	
com.vng.jxm.item85	Quà Hào Hoa 100,000 VNĐ		1	1000	VND		item|2519|5;Gold|300					BackGift	5	version_vn	71				Quà Trị Giá 500,000 VNĐ	
hk.jxqy.2usd	135 Nguyên Bảo		0	199	USD		Gold|135	Gold|270				BuyGold	1	version_hk			Recharge_00	Tặng thêm 135 Nguyên Bảo, chỉ 1 lần duy nhất	135 Nguyên Bảo	
hk.jxqy.5usd	340 Nguyên Bảo			499	USD		Gold|340	Gold|680				BuyGold	2	version_hk			Recharge_02	Tặng thêm 340 Nguyên Bảo, chỉ 1 lần duy nhất	340 Nguyên Bảo	
hk.jxqy.20usd	1360 Nguyên Bảo			1999	USD		Gold|1360	Gold|2720				BuyGold	3	version_hk			Recharge_03	Tặng thêm 1360 Nguyên Bảo, chỉ 1 lần duy nhất	1360 Nguyên Bảo	
hk.jxqy.30usd	2040 Nguyên Bảo			2999	USD		Gold|2040	Gold|4080				BuyGold	4	version_hk			Recharge_04	Tặng thêm 2040 Nguyên Bảo, chỉ 1 lần duy nhất	2040 Nguyên Bảo	
hk.jxqy.50usd	3400 Nguyên Bảo			4999	USD		Gold|3400	Gold|6800				BuyGold	5	version_hk			Recharge_05	Tặng thêm 3400 Nguyên Bảo, chỉ 1 lần duy nhất	3400 Nguyên Bảo	
hk.jxqy.100usd	6800 Nguyên Bảo			9999	USD		Gold|6800	Gold|13600				BuyGold	6	version_hk			Recharge_06	Tặng thêm 6800 Nguyên Bảo, chỉ 1 lần duy nhất	6800 Nguyên Bảo	
hk.jxqy.3usd.wc	Thẻ Tuần		7	299	USD		Gold|200					DaysCard	1	version_hk	7		Recharge_09		Quà 7 Ngày	
hk.jxqy.5usd.mc	Thẻ Tháng		30	499	USD		Gold|300					DaysCard	2	version_hk	2		Recharge_10		Quà 30 Ngày	
hk.jxqy.13usd.ybwl	Đầu Tư Lv25		999999	1299	USD							GrowInvest	1	version_hk					Quỹ trưởng thành 12.99$	
hk.jxqy.15usd.ybwl2	Đầu Tư Lv65		999999	1499	USD							GrowInvest	2	version_hk					Quỹ trưởng thành 200.000 VNĐ	
hk.jxqy.16usd.ybwl3	Đầu Tư Lv90		999999	1599	USD							GrowInvest	3	version_hk					Quỹ trưởng thành 200.000 VNĐ	
hk.jxqy.15usd.ybwl4	Đầu Tư Năm Mới		999999	1499	USD							GrowInvest	4	version_hk					Quỹ Năm Mới 14.99 USD	
hk.jxqy.16usd.ybwl4.fix	Đầu Tư Lv100		999999	1599	USD							GrowInvest	5	version_hk					Quỹ trưởng thành 200.000 VNĐ	
web.jxqy.1usd.bylb	Quà 1 VNĐ Client		1	99	USD		item|1242|1;Gold|68					DayGift	1	version_hk	11	13			Mua 5,000 VNĐ	
hk.jxqy.1usd.bylb	Quà 20,000 VNĐ		1	99	USD		item|1242|1;Gold|68					DayGift	1	version_hk	11	13			Mua 20,000 VNĐ	
hk.jxqy.2usd.hjlb	Quà 50,000 VNĐ		1	199	USD		item|2518|1;Gold|136					DayGift	2	version_hk	16	14			Mua 50,000 VNĐ	
hk.jxqy.3usd.zslb	Quà 100,000 VNĐ		1	299	USD		item|2519|1;Gold|204					DayGift	3	version_hk	17	15			Mua 100,000 VNĐ	
hk.jxqy.5usd.palb	Quà Phổ Thiên Đồng Khánh		1	499	USD		item|7149|1	item|7150|1	item|7151|1			YearGift	1	version_hk	40	41			Quà trị giá 30$	
hk.jxqy.15usd.zflb	Quà Tân Mai Khoái Lạc		30	1499	USD		item|7146|1	item|7147|1	item|7148|1			YearGift	2	version_hk	42	43			Quà trị giá 80$	
hk.jxqy.45usd.sdlb	Quà Cung Hỷ Phát Tài		30	4499	USD		item|7143|1	item|7144|1	item|7145|1			YearGift	3	version_hk	44	45			Quà trị giá 100$	
hk.jxqy.100usd.khlb	Quà Đại Cát		30	9999	USD		item|7141|1	item|7142|1	item|7142|1			YearGift	4	version_hk	46	47			Quà trị giá 240$	
hk.jxqy.5usd.jylb	Quà Năm Mới 100,000 VNĐ		1	499	USD		item|4711|1	item|4715|1	item|4715|1	item|4715|1		YearGift	1	version_hk	40	41			Quà Trị Giá 30 USD	
hk.jxqy.15usd.xzlb	Quà Năm Mới 300,000 VNĐ		30	1499	USD		item|4712|1	item|4716|1	item|4716|1	item|4716|1		YearGift	2	version_hk	42	43			Quà Trị Giá 60 USD	
hk.jxqy.45usd.qylb	Quà Năm Mới 1,000,000 VNĐ		30	4499	USD		item|4713|1	item|4717|1	item|4723|1	item|4726|1		YearGift	3	version_hk	44	45			Quà Trị Giá 110 USD	
hk.jxqy.100usd.yqlb	Quà Năm Mới 648 VNĐ		30	9999	USD		item|4714|1	item|4718|1	item|4724|1	item|4727|1		YearGift	4	version_hk	46	47			Quà Trị Giá 250 USD	
hk.jxqy.14usd.xblsb	1000 Ngân Sức			1399	USD		SilverBoard|1000					DressMoney	1	version_hk						
hk.jxqy.1usd.hgth	Túi 0.99$ hoàn trả Nguyên Bảo		1	99	USD		Gold|480					BackGift	1	version_hk	67				Quà trị giá 48$	
hk.jxqy.4usd.hgcz	Túi 3.99$ hoàn trả Nguyên Bảo		1	399	USD		Gold|4800					BackGift	2	version_hk	68				Quà trị giá 480$	
hk.jxqy.1usd.hgby	Túi 0.99$ hoàn trả		1	99	USD		item|1242|6					BackGift	3	version_hk	69				Quà trị giá 60$	
hk.jxqy.1usd.hghj	Túi 0.99$ hoàn trả		1	99	USD		item|2518|2					BackGift	4	version_hk	70				Quà trị giá 36$	
hk.jxqy.4usd.hgzs	Túi 3.99$ hoàn trả		1	399	USD		item|2519|5					BackGift	5	version_hk	71				Quà trị giá 150$	
tw.jxqy.2usd	135 Nguyên Bảo		0	199	USD		Gold|135	Gold|270				BuyGold	1	version_tw			Recharge_00	Tặng thêm 135 Nguyên Bảo, chỉ 1 lần duy nhất	135 Nguyên Bảo	
tw.jxqy.5usd	340 Nguyên Bảo			499	USD		Gold|340	Gold|680				BuyGold	2	version_tw			Recharge_02	Tặng thêm 340 Nguyên Bảo, chỉ 1 lần duy nhất	340 Nguyên Bảo	
tw.jxqy.20usd	1360 Nguyên Bảo			1999	USD		Gold|1360	Gold|2720				BuyGold	3	version_tw			Recharge_03	Tặng thêm 1360 Nguyên Bảo, chỉ 1 lần duy nhất	1360 Nguyên Bảo	
tw.jxqy.30usd	2040 Nguyên Bảo			2999	USD		Gold|2040	Gold|4080				BuyGold	4	version_tw			Recharge_04	Tặng thêm 2040 Nguyên Bảo, chỉ 1 lần duy nhất	2040 Nguyên Bảo	
tw.jxqy.50usd	3400 Nguyên Bảo			4999	USD		Gold|3400	Gold|6800				BuyGold	5	version_tw			Recharge_05	Tặng thêm 3400 Nguyên Bảo, chỉ 1 lần duy nhất	3400 Nguyên Bảo	
tw.jxqy.100usd	6800 Nguyên Bảo			9999	USD		Gold|6800	Gold|13600				BuyGold	6	version_tw			Recharge_06	Tặng thêm 6800 Nguyên Bảo, chỉ 1 lần duy nhất	6800 Nguyên Bảo	
tw.jxqy.3usd.wc	Thẻ Tuần		7	299	USD		Gold|200					DaysCard	1	version_tw	7		Recharge_09		Quà 7 Ngày	
tw.jxqy.5usd.mc	Thẻ Tháng		30	499	USD		Gold|300					DaysCard	2	version_tw	2		Recharge_10		Quà 30 Ngày	
tw.jxqy.13usd.fund	Client Đầu Tư		999999	1299	USD							GrowInvest	1	version_tw					Quỹ trưởng thành 12.99$	
tw.jxqy.13usd.ybwl	Đầu Tư Lv25		999999	1299	USD							GrowInvest	1	version_tw					Quỹ trưởng thành 12.99$	
tw.jxqy.15usd.ybwl2	Đầu Tư Lv65		999999	1499	USD							GrowInvest	2	version_tw					Quỹ trưởng thành 200.000 VNĐ	
tw.jxqy.16usd.ybwl3	Đầu Tư Lv90		999999	1599	USD							GrowInvest	3	version_tw					Quỹ trưởng thành 200.000 VNĐ	
tw.jxqy.15usd.ybwl4	Đầu Tư Năm Mới		999999	1499	USD							GrowInvest	4	version_tw					Quỹ Năm Mới 14.99 USD	
tw.jxqy.16usd.ybwl4.fix	Đầu Tư Lv100		999999	1599	USD							GrowInvest	5	version_tw					Quỹ trưởng thành 200.000 VNĐ	
web.jxqy.1usd.bylb	Quà 1 VNĐ Client		1	99	USD		item|1242|1;Gold|68					DayGift	1	version_tw	11	13			Mua 5,000 VNĐ	
tw.jxqy.1usd.bylb	Quà 20,000 VNĐ		1	99	USD		item|1242|1;Gold|68					DayGift	1	version_tw	11	13			Mua 20,000 VNĐ	
tw.jxqy.2usd.hjlb	Quà 50,000 VNĐ		1	199	USD		item|2518|1;Gold|136					DayGift	2	version_tw	16	14			Mua 50,000 VNĐ	
tw.jxqy.3usd.zslb	Quà 100,000 VNĐ		1	299	USD		item|2519|1;Gold|204					DayGift	3	version_tw	17	15			Mua 100,000 VNĐ	
tw.jxqy.5usd.aplb	Quà Phổ Thiên Đồng Khánh		1	499	USD		item|7149|1	item|7150|1	item|7151|1			YearGift	1	version_tw	40	41			Quà trị giá 30$	
tw.jxqy.15usd.zflb	Quà Tân Mai Khoái Lạc		30	1499	USD		item|7146|1	item|7147|1	item|7148|1			YearGift	2	version_tw	42	43			Quà trị giá 80$	
tw.jxqy.45usd.sdlb	Quà Cung Hỷ Phát Tài		30	4499	USD		item|7143|1	item|7144|1	item|7145|1			YearGift	3	version_tw	44	45			Quà trị giá 100$	
tw.jxqy.100usd.khlb	Quà Đại Cát		30	9999	USD		item|7141|1	item|7142|1	item|7142|1			YearGift	4	version_tw	46	47			Quà trị giá 240$	
tw.jxqy.5usd.jylb	Quà Năm Mới 100,000 VNĐ		1	499	USD		item|4711|1	item|4715|1	item|4715|1	item|4715|1		YearGift	1	version_tw	40	41			Quà Trị Giá 30 USD	
tw.jxqy.15usd.xzlb	Quà Năm Mới 300,000 VNĐ		30	1499	USD		item|4712|1	item|4716|1	item|4716|1	item|4716|1		YearGift	2	version_tw	42	43			Quà Trị Giá 60 USD	
tw.jxqy.45usd.qylb	Quà Năm Mới 1,000,000 VNĐ		30	4499	USD		item|4713|1	item|4717|1	item|4723|1	item|4726|1		YearGift	3	version_tw	44	45			Quà Trị Giá 110 USD	
tw.jxqy.100usd.yqlb	Quà Năm Mới 648 VNĐ		30	9999	USD		item|4714|1	item|4718|1	item|4724|1	item|4727|1		YearGift	4	version_tw	46	47			Quà Trị Giá 250 USD	
tw.jxqy.14usd.xblsb	1000 Ngân Sức			1399	USD		SilverBoard|1000					DressMoney	1	version_tw						
tw.jxqy.1usd.hgth	Gói 0.99$ hoàn trả Nguyên Bảo		1	99	USD		Gold|480					BackGift	1	version_tw	67				Quà trị giá 48$	
tw.jxqy.4usd.hgcz	Gói 3.99$ hoàn trả Nguyên Bảo		1	399	USD		Gold|4800					BackGift	2	version_tw	68				Quà trị giá 480$	
tw.jxqy.1usd.hgby	Gói 0.99$ hoàn trả		1	99	USD		item|1242|6					BackGift	3	version_tw	69				Quà trị giá 60$	
tw.jxqy.1usd.hghj	Gói 0.99$ hoàn trả		1	99	USD		item|2518|2					BackGift	4	version_tw	70				Quà trị giá 36$	
tw.jxqy.4usd.hgzs	Gói 3.99$ hoàn trả		1	399	USD		item|2519|5					BackGift	5	version_tw	71				Quà trị giá 150$	
se.jq.1usd	70 Nguyên Bảo			99	USD		Gold|70	Gold|140				BuyGold	1	version_xm			Recharge_00	Tặng thêm 70 Nguyên Bảo, mua giới hạn 1 lần	70 Nguyên Bảo	
se.jq.5usd	350 Nguyên Bảo			499	USD		Gold|350	Gold|700				BuyGold	2	version_xm			Recharge_02	Tặng thêm 350 Nguyên Bảo, mua giới hạn 1 lần	350 Nguyên Bảo	
se.jq.10usd	700 Nguyên Bảo			999	USD		Gold|700	Gold|1400				BuyGold	3	version_xm			Recharge_03	Tặng thêm 700 Nguyên Bảo, mua giới hạn 1 lần	700 Nguyên Bảo	
se.jq.20usd	1610 Nguyên Bảo			1999	USD		Gold|1610	Gold|3220				BuyGold	4	version_xm			Recharge_04	Tặng thêm 1610 Nguyên Bảo, mua giới hạn 1 lần	1610 Nguyên Bảo	
se.jq.50usd	4130 Nguyên Bảo			4999	USD		Gold|4130	Gold|8260				BuyGold	5	version_xm			Recharge_05	Tặng thêm 4130 Nguyên Bảo, mua giới hạn 1 lần	4130 Nguyên Bảo	
se.jq.100usd	8400 Nguyên Bảo			9999	USD		Gold|8400	Gold|16800				BuyGold	6	version_xm			Recharge_06	Tặng thêm 8400 Nguyên Bảo, mua giới hạn 1 lần	8400 Nguyên Bảo	
se.jq.3usd.wc	Quà 7 Ngày		7	299	USD		Gold|210					DaysCard	1	version_xm	7		Recharge_09		Quà 7 Ngày	
se.jq.5usd.mc	Quà 30 Ngày		30	499	USD		Gold|350					DaysCard	2	version_xm	2		Recharge_10		Quà 30 Ngày	
se.jq.13usd.czjj	Đầu Tư		999999	1299	USD							GrowInvest	1	version_xm					Quỹ trưởng thành $12.99	
se.jq.14usd.czjj	Đầu Tư 2		999999	1399	USD							GrowInvest	2	version_xm					Quỹ trưởng thành 200.000 VNĐ	
se.jq.15usd.czjj	Đầu Tư 3		999999	1499	USD							GrowInvest	3	version_xm					Quỹ trưởng thành 200.000 VNĐ	
se.jq.14usd.ybwl.znq	Đầu Tư-Mừng Lễ		999999	1399	USD							GrowInvest	4	version_xm					Quỹ Đầu Tư Mừng Lễ $13.99	
se.jq.15usd.hgybwl	Đầu Tư-Quay Về		999999	1499	USD	5						GrowInvest	7	version_xm					Quỹ Trưởng Thành Trở Về $14.99	
se.jq.1usd.lb	Quà 0.99 USD		1	99	USD	1	item|2897|1					DayGift	1	version_xm	11	13			Mua 0.99 USD	
se.jq.2usd.lb	Quà 1.99 USD		1	199	USD	3	item|2898|1					DayGift	2	version_xm	16	14			Mua 1.99 USD	
se.jq.3usd.lb	Quà 2.99 USD		1	299	USD	5	item|2899|1					DayGift	3	version_xm	17	15			Mua 2.99 USD	
se.jq.5usd.gejlb	Quà Trị Giá 4.99 USD		1	499	USD		item|7118|1	item|7119|1	item|7120|1			YearGift	1	version_xm	40	41			Quà Trị Giá 25 USD	
se.jq.14usd.gejlb	Quà 13.99 USD		30	1399	USD		item|7115|1	item|7116|1	item|7117|1			YearGift	2	version_xm	42	43			Quà Trị Giá 50 USD	
se.jq.50usd.gejlb	Quà 49.99 USD		30	4999	USD		item|7112|1	item|7113|1	item|7114|1			YearGift	3	version_xm	44	45			Quà Trị Giá 100 USD	
se.jq.100usd.gejlb	Quà 99.99 USD		30	9999	USD		item|7110|1	item|7111|1	item|7111|1			YearGift	4	version_xm	46	47			Quà Trị Giá 200 USD	
se.jq.5usd.tcly	Quà Trị Giá 4.99 USD		1	499	USD		item|6224|1					YearGift	1	version_xm	40	41			Quà Trị Giá 25 USD	
se.jq.14usd.tcly	Quà 13.99 USD		30	1399	USD		item|6225|1					YearGift	2	version_xm	42	43			Quà Trị Giá 50 USD	
se.jq.50usd.tcly	Quà 49.99 USD		30	4999	USD		item|6226|1					YearGift	3	version_xm	44	45			Quà Trị Giá 100 USD	
se.jq.100usd.tcly	Quà 99.99 USD		30	9999	USD		item|6227|1					YearGift	4	version_xm	46	47			Quà Trị Giá 200 USD	
se.jq.14usd.ls	1000 Ngân Sức			1399	USD		SilverBoard|1000					DressMoney	1	version_xm						
se.jq.1usd.lwjhg	Quà Trở Về 20,000 VNĐ		1	99	USD		Gold|480					BackGift	1	version_xm	67				Quà Trị Giá 160,000 VNĐ	
se.jq.5usd.lwjhg	Quà Trở Về 100,000 VNĐ		1	499	USD		Gold|4800					BackGift	2	version_xm	68				Quà Trị Giá 1,600,000 VNĐ	
se.jq.6usd.lwjhg	Quà Trở Về-Cực 20,000 VNĐ		1	599	USD		item|2897|6					BackGift	3	version_xm	69				Quà Trị Giá 200,000 VNĐ	
se.jq.4usd.lwjhg	Quà Phúc Lợi 20,000 VNĐ		1	399	USD		item|2898|2					BackGift	4	version_xm	70				Quà Trị Giá 10,000 VNĐ	
se.jq.15usd.lwjhg	Quà Hào Hoa 100,000 VNĐ		1	1499	USD		item|2899|5					BackGift	5	version_xm	71				Quà Trị Giá 500,000 VNĐ	
jx.th.code1_69.THB	150 Nguyên Bảo			6900	THB		Gold|150	Gold|300				BuyGold	1	version_th			Recharge_00	Tặng thêm 150 Nguyên Bảo, chỉ được mua 1 lần	150 Nguyên Bảo	
jx.th.code2_179.THB	375 Nguyên Bảo			17900	THB		Gold|375	Gold|750				BuyGold	2	version_th			Recharge_02	Tặng thêm 375 Nguyên Bảo, chỉ được mua 1 lần	375 Nguyên Bảo	
jx.th.code3_349.THB	750 Nguyên Bảo			34900	THB		Gold|750	Gold|1500				BuyGold	3	version_th			Recharge_03	Tặng thêm 750 Nguyên Bảo, chỉ được mua 1 lần	750 Nguyên Bảo	
jx.th.code4_529.THB	1125 Nguyên Bảo			52900	THB		Gold|1125	Gold|2250				BuyGold	4	version_th			Recharge_04	Tặng thêm 1125 Nguyên Bảo, chỉ được mua 1 lần	1125 Nguyên Bảo	
jx.th.code5_879.THB	1875 Nguyên Bảo			87900	THB		Gold|1875	Gold|3750				BuyGold	5	version_th			Recharge_05	Tặng thêm 1875 Nguyên Bảo, chỉ được mua 1 lần	1875 Nguyên Bảo	
jx.th.code6_1750.THB	3750 Nguyên Bảo			175000	THB		Gold|3750	Gold|7500				BuyGold	6	version_th			Recharge_06	Tặng thêm 3750 Nguyên Bảo, chỉ được mua 1 lần	3750 Nguyên Bảo	
jx.th.code7_3500.THB	7500 Nguyên Bảo			350000	THB		Gold|7500	Gold|15000				BuyGold	7	version_th			Recharge_06	Tặng thêm 7500 Nguyên Bảo, chỉ được mua 1 lần	7500 Nguyên Bảo	
jxwp.th.code12_99.THB	Thẻ Tuần		7	9900	THB		Gold|225					DaysCard	1	version_th	7		Recharge_09		Quà 7 Ngày	
jxmp.th.code13_209.THB	Thẻ Tháng		30	20900	THB		Gold|450					DaysCard	2	version_th	2		Recharge_10		Quà 30 Ngày	
jxgf.th.code11_459.THB	Quỹ		999999	45900	THB							GrowInvest	1	version_th					459 Baht Thái-Quỹ Trưởng Thành	
jxgf2.th.code15_529.THB	Quỹ 2		999999	52900	THB							GrowInvest	2	version_th					Quỹ Trưởng Thành 529 Baht Thái	
jxgf3.th.code16_559.THB	Quỹ 3		999999	55900	THB							GrowInvest	3	version_th					Quỹ Trưởng Thành 599 Baht Thái	
xxx	Quỹ Năm Mới		999999	55900	THB							GrowInvest	4	version_th					Quỹ Trưởng Thành 599 Baht Thái	
jxgf4.th.code17_559.THB	Quỹ 4		999999	55900	THB							GrowInvest	5	version_th					Quỹ Trưởng Thành 599 Baht Thái	
jxwp.th.code25_559.THB	Quỹ-Trở Về		999999	55900	THB	5						GrowInvest	7	version_th					Quỹ Trưởng Thành 599 Baht Thái	
jxpv1.th.code8_19.THB	Quà 20,000 VNĐ		1	1900	THB	1	item|1242|1;Gold|37					DayGift	1	version_th	11	13			19 Baht Thái mua	
jxpv3.th.code9_35.THB	Quà 50,000 VNĐ		1	3500	THB	3	item|2518|1;Gold|75					DayGift	2	version_th	16	14			35 Baht Thái mua	
jxpv5.th.code10_69.THB	Quà 100,000 VNĐ		1	6900	THB	5	item|2519|1;Gold|150					DayGift	3	version_th	17	15			69 Baht Thái mua	
jxfp.th.code14_459.THB	1000 Ngân Sức			45900	THB		SilverBoard|1000					DressMoney	1	version_th						
jxpl2.th.code19_139.THB	Quà Hòa Thuận 100,000 VNĐ		1	13900	THB		item|5412|1	item|5428|1	item|5429|1			YearGift	1	version_th	40	41			Quà Trị Giá 600,000 VNĐ	
jxpl1.th.code18_559.THB	Quà Duyên Lành 300,000 VNĐ		30	55900	THB		item|5411|1	item|5426|1	item|5427|1			YearGift	2	version_th	42	43			Quà Trị Giá 1,200,000 VNĐ	
jxwb1.th.code20_69.THB	Quà Trở Về 20,000 VNĐ		1	6900	THB		Gold|480					BackGift	1	version_th	67				Quà Trị Giá 160,000 VNĐ	
jxwb2.th.code21_349.THB	Quà Trở Về 100,000 VNĐ		1	34900	THB		Gold|4800					BackGift	2	version_th	68				Quà Trị Giá 1,600,000 VNĐ	
jxwv1.th.code22_69.THB	Quà Trở Về-Cực 20,000 VNĐ		1	6900	THB		item|1242|6					BackGift	3	version_th	69				Quà Trị Giá 200,000 VNĐ	
jxwv3.th.code23_69.THB	Quà Phúc Lợi 20,000 VNĐ		1	6900	THB		item|2518|2					BackGift	4	version_th	70				Quà Trị Giá 10,000 VNĐ	
jxwv5.th.code24_349.THB	Quà Hào Hoa 100,000 VNĐ		1	34900	THB		item|2519|5					BackGift	5	version_th	71				Quà Trị Giá 500,000 VNĐ	
com.kingsoftgame.jxqykr.120	120 Nguyên Bảo			219	USD		Gold|130	Gold|240				BuyGold	1	version_kor			Recharge_00	Tặng 120 Nguyên Bảo, được mua 1 lần	120 Nguyên Bảo (Tặng 10 Nguyên Bảo)	
com.kingsoftgame.jxqykr.300	200 Nguyên Bảo			549	USD		Gold|330	Gold|600				BuyGold	2	version_kor			Recharge_02	Tặng thêm 300 Nguyên Bảo, được mua 1 lần	300 Nguyên Bảo (tặng 30 Nguyên Bảo)	
com.kingsoftgame.jxqykr.1200	1200 Nguyên Bảo			2199	USD		Gold|1350	Gold|2400				BuyGold	3	version_kor			Recharge_03	Tặng thêm 1200 Nguyên Bảo, chỉ 1 lần duy nhất	1200 Nguyên Bảo (Tặng 150 Nguyên Bảo)	
com.kingsoftgame.jxqykr.1800	1800 Nguyên Bảo			3299	USD		Gold|2200	Gold|3600				BuyGold	4	version_kor			Recharge_04	Tặng 1800 Nguyên Bảo, được mua 1 lần	1800 Nguyên Bảo (Tặng 400 Nguyên Bảo)	
com.kingsoftgame.jxqykr.3000	3000 Nguyên Bảo			5499	USD		Gold|3800	Gold|6000				BuyGold	5	version_kor			Recharge_05	Tặng thêm 3000 Nguyên Bảo, chỉ 1 lần duy nhất	3000 Nguyên Bảo (Tặng 800 Nguyên Bảo)	
com.kingsoftgame.jxqykr.6000	6000 Nguyên Bảo			10999	USD		Gold|7800	Gold|12000				BuyGold	6	version_kor			Recharge_06	Tặng thêm 6000 Nguyên Bảo, chỉ 1 lần duy nhất	6000 Nguyên Bảo (Tặng 1800 Nguyên Bảo)	
com.kingsoftgame.jxqykr.week180	Thẻ Tuần		7	329	USD		Gold|180					DaysCard	1	version_kor	7		Recharge_09		Quà 7 Ngày	
com.kingsoftgame.jxqykr.month300	Thẻ Tháng		30	549	USD		Gold|300					DaysCard	2	version_kor	2		Recharge_10		Quà 30 Ngày	
com.kingsoftgame.jxqykr.day60	Quà Bạch Ngân		1	109	USD	1	item|1242|1;Gold|60					DayGift	1	version_kor	11	13			Mua 1.09 USD	
com.kingsoftgame.jxqykr.day120	Quà Hoàng Kim		1	219	USD	3	item|2518|1;Gold|120					DayGift	2	version_kor	16	14			Mua 2.19 USD	
com.kingsoftgame.jxqykr.day180	Quà Kim Cương		1	329	USD	5	item|2519|1;Gold|180					DayGift	3	version_kor	17	15			Mua 3.29 USD	
com.kingsoftgame.jxqykr.gift5	Combo Quà Mỗi Ngày (7 Ngày) 		7	3959	USD	5						DayGiftPlus	1	version_kor	61				Quà 7 Ngày	
com.kingsoftgame.jxqykr.ls1000	1000 Ngân Sức			1649	USD		SilverBoard|1000					DressMoney	1	version_kor						
com.kingsoftgame.jxqykr.invest1340	Đầu Tư		999999	1429	USD							GrowInvest	1	version_kor					Quỹ Trưởng Thành 14.29 USD	
com.kingsoftgame.jxqykr.invest1700	Đầu Tư 2		999999	1649	USD							GrowInvest	2	version_kor					Quỹ Trưởng Thành 16.49 USD	
com.kingsoftgame.jxqykr.invest2180	Đầu Tư 3		999999	1759	USD							GrowInvest	3	version_kor					Quỹ Trưởng Thành 17.59 USD	
xxx	Đầu Tư-Hoạt động		30	1759	USD							GrowInvest	4	version_kor					Quỹ Trưởng Thành 17.59 USD	
com.kingsoftgame.jxqykr.invest100	Đầu Tư 4		999999	1759	USD							GrowInvest	5	version_kor					Quỹ Trưởng Thành 17.59 USD	
com.kingsoftgame.jxqykr.invest110	Đầu Tư 5		999999	1759	USD							GrowInvest	6	version_kor					Quỹ Trưởng Thành 17.59 USD	
com.kingsoftgame.jxqykr.return1	Đầu Tư-Quay Về		999999	1759	USD	5						GrowInvest	7	version_kor					200,000 VNĐ Quỹ Trưởng Thành	
com.kingsoftgame.jxqykr.gift1	Quà Hòa Thuận 100,000 VNĐ		1	549	USD		item|6381|1					YearGift	1	version_kor	40	41			Quà Trị Giá 600,000 VNĐ	
com.kingsoftgame.jxqykr.gift2	Quà Duyên Lành 300,000 VNĐ		30	1649	USD		item|6382|1					YearGift	2	version_kor	42	43			Quà Trị Giá 1,200,000 VNĐ	
com.kingsoftgame.jxqykr.gift3	Quà Keo Sơn 1,000,000 VNĐ		30	5169	USD		item|6383|1					YearGift	3	version_kor	44	45			Quà Trị Giá 2,500,000 VNĐ	
com.kingsoftgame.jxqykr.gift4	Quà Chung Thủy 2,000,000 VNĐ		30	10999	USD		item|6384|1					YearGift	4	version_kor	46	47			Quà Trị Giá 5,000,000 VNĐ	
com.kingsoftgame.jxqykr.return2	Quà Trở Về 20,000 VNĐ		1	109	USD		Gold|480					BackGift	1	version_kor	67				Quà Trị Giá 160,000 VNĐ	
com.kingsoftgame.jxqykr.return3	Quà Trở Về 100,000 VNĐ		1	549	USD		Gold|4800					BackGift	2	version_kor	68				Quà Trị Giá 1,600,000 VNĐ	
com.kingsoftgame.jxqykr.return4	Quà Trở Về-Cực 20,000 VNĐ		1	659	USD		item|1242|6;Gold|60					BackGift	3	version_kor	69				Quà Trị Giá 200,000 VNĐ	
com.kingsoftgame.jxqykr.return5	Quà Phúc Lợi 20,000 VNĐ		1	439	USD		item|2518|2;Gold|60					BackGift	4	version_kor	70				Quà Trị Giá 10,000 VNĐ	
com.kingsoftgame.jxqykr.return6	Quà Hào Hoa 100,000 VNĐ		1	1649	USD		item|2519|5;Gold|300					BackGift	5	version_kor	71				Quà Trị Giá 500,000 VNĐ	
com.seasungames.jxqykr.120	120 Nguyên Bảo			264000	KRW		Gold|130	Gold|240				BuyGold	1	version_kor			Recharge_00	Tặng 120 Nguyên Bảo, được mua 1 lần	120 Nguyên Bảo (Tặng 10 Nguyên Bảo)	ANDROID
com.seasungames.jxqykr.300	200 Nguyên Bảo			660000	KRW		Gold|330	Gold|600				BuyGold	2	version_kor			Recharge_02	Tặng thêm 300 Nguyên Bảo, được mua 1 lần	300 Nguyên Bảo (tặng 30 Nguyên Bảo)	ANDROID
com.seasungames.jxqykr.1200	1200 Nguyên Bảo			2640000	KRW		Gold|1350	Gold|2400				BuyGold	3	version_kor			Recharge_03	Tặng thêm 1200 Nguyên Bảo, chỉ 1 lần duy nhất	1200 Nguyên Bảo (Tặng 150 Nguyên Bảo)	ANDROID
com.seasungames.jxqykr.1800	1800 Nguyên Bảo			3960000	KRW		Gold|2200	Gold|3600				BuyGold	4	version_kor			Recharge_04	Tặng 1800 Nguyên Bảo, được mua 1 lần	1800 Nguyên Bảo (Tặng 400 Nguyên Bảo)	ANDROID
com.seasungames.jxqykr.3000	3000 Nguyên Bảo			6600000	KRW		Gold|3800	Gold|6000				BuyGold	5	version_kor			Recharge_05	Tặng thêm 3000 Nguyên Bảo, chỉ 1 lần duy nhất	3000 Nguyên Bảo (Tặng 800 Nguyên Bảo)	ANDROID
com.seasungames.jxqykr.6000	6000 Nguyên Bảo			13200000	KRW		Gold|7800	Gold|12000				BuyGold	6	version_kor			Recharge_06	Tặng thêm 6000 Nguyên Bảo, chỉ 1 lần duy nhất	6000 Nguyên Bảo (Tặng 1800 Nguyên Bảo)	ANDROID
com.seasungames.jxqykr.week180	Thẻ Tuần		7	396000	KRW		Gold|180					DaysCard	1	version_kor	7		Recharge_09		Quà 7 Ngày	ANDROID
com.seasungames.jxqykr.month300	Thẻ Tháng		30	660000	KRW		Gold|300					DaysCard	2	version_kor	2		Recharge_10		Quà 30 Ngày	ANDROID
com.seasungames.jxqykr.day60	Quà Bạch Ngân		1	132000	KRW	1	item|1242|1;Gold|60					DayGift	1	version_kor	11	13			Mua 1320 Won	ANDROID
com.seasungames.jxqykr.day120	Quà Hoàng Kim		1	264000	KRW	3	item|2518|1;Gold|120					DayGift	2	version_kor	16	14			Mua 2640 Won	ANDROID
com.seasungames.jxqykr.day180	Quà Kim Cương		1	396000	KRW	5	item|2519|1;Gold|180					DayGift	3	version_kor	17	15			Mua 3960 Won	ANDROID
com.seasungames.jxqykr.gift5	Combo Quà Mỗi Ngày (7 Ngày) 		7	4752000	KRW	5						DayGiftPlus	1	version_kor	61				Quà 7 Ngày	ANDROID
com.seasungames.jxqykr.ls1000	1000 Ngân Sức			1980000	KRW		SilverBoard|1000					DressMoney	1	version_kor						ANDROID
com.seasungames.jxqykr.invest1340	Đầu Tư		999999	1716000	KRW							GrowInvest	1	version_kor					Quỹ Trưởng Thành 17160 Won	ANDROID
com.seasungames.jxqykr.invest1700	Đầu Tư 2		999999	1980000	KRW							GrowInvest	2	version_kor					Quỹ Trưởng Thành 19800 Won	ANDROID
com.seasungames.jxqykr.invest2180	Đầu Tư 3		999999	2112000	KRW							GrowInvest	3	version_kor					Quỹ Trưởng Thành 21120 Won	ANDROID
xxx	Đầu Tư-Hoạt động		30	2112000	KRW							GrowInvest	4	version_kor					Quỹ Trưởng Thành 21120 Won	ANDROID
com.seasungames.jxqykr.invest100	Đầu Tư 4		999999	2112000	KRW							GrowInvest	5	version_kor					Quỹ Trưởng Thành 21120 Won	ANDROID
com.seasungames.jxqykr.invest110	Đầu Tư 5		999999	2112000	KRW							GrowInvest	6	version_kor					Quỹ Trưởng Thành 21120 Won	ANDROID
com.seasungames.jxqykr.return1	Đầu Tư-Quay Về		999999	2112000	KRW	5						GrowInvest	7	version_kor					200,000 VNĐ Quỹ Trưởng Thành	ANDROID
com.seasungames.jxqykr.gift1	Quà Hòa Thuận 100,000 VNĐ	gift30	1	660000	KRW		item|6381|1					YearGift	1	version_kor	40	41			Quà Trị Giá 600,000 VNĐ	ANDROID
com.seasungames.jxqykr.gift2	Quà Duyên Lành 300,000 VNĐ	gift98	30	1980000	KRW		item|6382|1					YearGift	2	version_kor	42	43			Quà Trị Giá 1,200,000 VNĐ	ANDROID
com.seasungames.jxqykr.gift3	Quà Keo Sơn 1,000,000 VNĐ	gift298	30	6204000	KRW		item|6383|1					YearGift	3	version_kor	44	45			Quà Trị Giá 2,500,000 VNĐ	ANDROID
com.seasungames.jxqykr.gift4	Quà Chung Thủy 2,000,000 VNĐ	gift648	30	13200000	KRW		item|6384|1					YearGift	4	version_kor	46	47			Quà Trị Giá 5,000,000 VNĐ	ANDROID
com.seasungames.jxqykr.return2	Quà Trở Về 20,000 VNĐ		1	132000	KRW		Gold|480					BackGift	1	version_kor	67				Quà Trị Giá 160,000 VNĐ	ANDROID
com.seasungames.jxqykr.return3	Quà Trở Về 100,000 VNĐ		1	660000	KRW		Gold|4800					BackGift	2	version_kor	68				Quà Trị Giá 1,600,000 VNĐ	ANDROID
com.seasungames.jxqykr.return4	Quà Trở Về-Cực 20,000 VNĐ		1	792000	KRW		item|1242|6;Gold|60					BackGift	3	version_kor	69				Quà Trị Giá 200,000 VNĐ	ANDROID
com.seasungames.jxqykr.return5	Quà Phúc Lợi 20,000 VNĐ		1	528000	KRW		item|2518|2;Gold|60					BackGift	4	version_kor	70				Quà Trị Giá 10,000 VNĐ	ANDROID
com.seasungames.jxqykr.return6	Quà Hào Hoa 100,000 VNĐ		1	1980000	KRW		item|2519|5;Gold|300					BackGift	5	version_kor	71				Quà Trị Giá 500,000 VNĐ	ANDROID
