AwardType	AwardValue1	AwardValue2	AwardValue3	RandRate	WorldNotify	Name
item	0	1		0		Đoan Mộc Duệ
item	212	1		225000		Thủy Tinh Trắng
item	2533	1		7500		Đá Hồn Đoan Mộc Duệ-Sơ
item	1234	1		50000		Hoa Hồng
item	1235	1		50000		Cỏ May Mắn
item	1236	1				Lăng Tuyệt Phong Lệnh Bài Lv1
item	923	1		150000		Lăng Tuyệt Phong Lệnh Bài Lv2
item	924	1		0		Lăng Tuyệt Phong Lệnh Bài Lv3
item	925	1		0		Lăng Tuyệt Phong Lệnh Bài Lv4
item	926	1		0		Lăng Tuyệt Phong Lệnh Bài Lv5
