AwardType	AwardValue1	AwardValue2	AwardValue3	RandRate	WorldNotify	Name
item	2191	1		11100		Trương Trọng Thiên
item	212	1		56000		Thủy Tinh Trắng
item	1702	1		60000		Đá Hồn Trương Trọng Thiên-Sơ
item	1234	1		60000		Hoa Hồng
item	1235	1		60000		Cỏ May Mắn
item	923	1		150000		Lăng Tuyệt Phong Lệnh Bài Lv2
