Index	NpcName	TitleID	NpcTemplateId	WalkNearLength	CanAutoPath	NpcLevel	XPos	YPos	StandDir	Quantity	NpcType	NpcCamp	NpcDroprate	NpcSeriesAuto	NpcSeriesMetal	NpcSeriesWood	NpcSeriesWater	NpcSeriesFire	NpcSeriesEarth	Removewhendeath	ChangeColorScheme
NpcTrapToBLX	Đến Ba Lăng Huyện		73	50	1	1	12057	10464	0	-1	0	0		0	0	0	0	0	0	0	0
ZY_Longzhu_sun	Long Trụ Nhật Diệu		1732	50	1	1	7994	8191	0	-1	0	0		0	0	0	0	0	0	0	0
ZY_YD_defense	Đại Doanh Phe Thủ		1732	50	1	1	10136	10259	32	-1	0	0		0	0	0	0	0	0	0	0
ZY_YD_attack1	Doanh Địa-Thiên		1732	50	1	1	4895	11641	32	-1	0	0		0	0	0	0	0	0	0	0
ZY_YD_attack2	Doanh Địa-Địa		1732	50	1	1	4336	4030	8	-1	0	0		0	0	0	0	0	0	0	0
ZY_YD_attack3	Doanh Địa-Nhân		1732	50	1	1	12075	4145	56	-1	0	0		0	0	0	0	0	0	0	0
WallGuard	Hậu Doanh Chướng Ngại		104	50		1	10024	10257	48	-1	0	0		0	0	0	0	0	0	0	0
WallGuard	Hậu Doanh Chướng Ngại		104	50		1	10262	10263	48	-1	0	0		0	0	0	0	0	0	0	0
