nSettingId	Info	Strength	Energy	Dexterity	Vitality
1	Cận Chiến, Phòng Thủ	2	2	3	3
2	Tầm Xa, Sinh Lực	2	2	3	3
3	Cận Chiến, Khống Chế	3	3	2	2
4	Tầm Xa, Sát Thương	3	3	2	2
5	Tầm Xa, Cân Bằng	3	2	3	2
6	Cận Chiến, Bạo Kích	3	3	2	2
7	Cận Chiến, Phòng Thủ	2	3	2	3
8	Tầm Xa, Hỗ Trợ	2	3	2	3
9	Tầm Xa, Né Tránh	2	2	3	3
10	Tầm Xa, Sát Thương Mạnh	3	2	3	2
11	Tầm Xa, Sinh Tồn	2	2	3	3
12	Tầm Xa, Cuồng Bạo	3	3	2	2
