AwardType	AwardValue1	AwardValue2	AwardValue3	RandRate	WorldNotify	Name
item	2264	1		1200		Mạnh Tri Thu
item	212	1		182000		Thủy Tinh Trắng
item	2534	1		5400		Đá Hồn Mạnh Tri Thu-Sơ
item	1234	1		50000		Hoa Hồng
item	1235	1		50000		Cỏ May Mắn
item	1236	1		150000		Lăng Tuyệt Phong Lệnh Bài Lv1
item	923	1		0		Lăng Tuyệt Phong Lệnh Bài Lv2
item	924	1		0		Lăng Tuyệt Phong Lệnh Bài Lv3
item	925	1		0		Lăng Tuyệt Phong Lệnh Bài Lv4
item	926	1		0		Lăng Tuyệt Phong Lệnh Bài Lv5
