Index	NpcName	TitleID	NpcTemplateId	WalkNearLength	CanAutoPath	NpcLevel	XPos	YPos	StandDir	Quantity	NpcType	NpcCamp	NpcDroprate	NpcSeriesAuto	NpcSeriesMetal	NpcSeriesWood	NpcSeriesWater	NpcSeriesFire	NpcSeriesEarth	Removewhendeath	ChangeColorScheme
NpcTrapToYLZ	Đến Vĩnh Lạc Trấn		73	50	1	1	6483	11594	0	-1	0	0		0	0	0	0	0	0	0	0
ZY_Longzhu_sun	Long Trụ Nhật Diệu		1732	50	1	1	8391	8515	0	-1	0	0		0	0	0	0	0	0	0	0
ZY_YD_defense	Đại Doanh Phe Thủ		1732	50	1	1	8512	12083	32	-1	0	0		0	0	0	0	0	0	0	0
ZY_YD_attack1	Doanh Địa-Thiên		1732	50	1	1	3498	8621	16	-1	0	0		0	0	0	0	0	0	0	0
ZY_YD_attack2	Doanh Địa-Địa		1732	50	1	1	5511	4236	8	-1	0	0		0	0	0	0	0	0	0	0
ZY_YD_attack3	Doanh Địa-Nhân		1732	50	1	1	12964	6696	64	-1	0	0		0	0	0	0	0	0	0	0
WallGuard	Hậu Doanh Chướng Ngại		104	50		1	8349	12085	48	-1	0	0		0	0	0	0	0	0	0	0
WallGuard	Hậu Doanh Chướng Ngại		104	50		1	8605	12083	48	-1	0	0		0	0	0	0	0	0	0	0
