nId	nIndex	nItemId	szName	nPrice	nMaxCount	nRate	szTimeFrame
1	17	212	Thủy Tinh Trắng	50	100	100	
2	16	222	Thủy Tinh Lục	200	30	100	
3	15	223	Thủy Tinh Lam	800	10	100	
4	14	224	Thủy Tinh Tím	3200	3	100	OpenLevel69
5	10	2590	Bánh Ít Ngũ Hương	600	3	100	
6	9	2591	Bánh Ít Bát Bảo	5000	1	10	
7	8	1430	Bí Kíp Võ Lâm (Thượng) 	5000	1	20	
8	7	2700	Ngoại Trang T0	5000	1	20	
9	5	2301	Tu Luyện Đơn	1800	1	50	
10	4	2759	Truyền Công Đơn	1800	1	50	
11	1	2160	Sách Đồng Hành Lv4 Ngẫu Nhiên	15000	1	10	
12	3	2847	Đá Hồn Huyền Từ-Sơ	4500	1	30	
13	2	2848	Đá Hồn Huyền Nhân-Sơ	13500	1	10	OpenLevel79
14	13	2878	Thương Hải Nguyệt Minh	300	3	100	
15	12	2877	Thái Vân Truy Nguyệt	2000	1	30	
16	11	2876	Nguyệt Mãn Tây Lâu	5000	1	10	
17	6	6203	Vũ Khí T0	8000	1	20	
