nFurnitureItemId	IS_NEW	Desc	nWorldMsg	nKinMsg	nScale	nPX	nPY	nPZ	nRX	nRY	nRZ	szCost1	szCost2	szCost3	szCost4	szCost5
4058		Giường Gỗ Tùng			0.3	0.5	98	8	-13	-41	12	Contrib|1200	Item|4296|6	Item|4301|6		
4059		Giường Bạch Dương			0.3	0.5	126	8	-13	-41	12	Contrib|3000	Item|4297|6	Item|4302|6		
4060		Giang Phong Ngư Hỏa		702	0.3	0.5	126	8	-13	-41	12	Contrib|6000	Item|4298|6	Item|4303|6		
4061		Hồng Loan Thê Chi		702	0.3	0.5	98	8	-13	-41	12	Contrib|16000	Item|4299|8	Item|4304|8		
4062		Kim Long Hí Châu		702	0.3	0.5	98	8	-13	-41	12	Contrib|32000	Item|4300|8	Item|4305|8		
4063		Tủ Gỗ Tùng			0.35	0	45	0.4	-8	-61	15	Contrib|600	Item|4296|3	Item|4311|3		
4064		Tủ Bạch Dương			0.35	0	45	0.4	-8	-61	15	Contrib|1500	Item|4297|3	Item|4312|3		
4065		Tủ Mặc Hương			0.35	0	45	0.4	-8	-61	15	Contrib|3000	Item|4298|3	Item|4313|3		
4066		Tủ Sắc Màu		702	0.35	0	45	0.4	-8	-61	15	Contrib|6000	Item|4299|3	Item|4314|3		
4068		Tủ Tử Đàn		702	0.35	0	45	0.4	-8	-61	15	Contrib|12000	Item|4300|3	Item|4315|3		
4067		Kệ Sách Gỗ Tùng			0.35	0	45	0.4	-8	-61	15	Contrib|600	Item|4296|3	Item|4311|3		
4069		Kệ Sách Bạch Dương			0.35	0	45	0.4	-8	-61	15	Contrib|1500	Item|4297|3	Item|4312|3		
4070		Kệ Sách Mặc Hương			0.35	0	45	0.4	-8	-61	15	Contrib|3000	Item|4298|3	Item|4313|3		
4071		Kệ Sách Sắc Màu		702	0.35	0	45	0.4	-8	-61	15	Contrib|6000	Item|4299|3	Item|4314|3		
4072		Kệ Sách Tử Đàn		702	0.35	0	45	0.4	-8	-61	15	Contrib|12000	Item|4300|3	Item|4315|3		
4073		Kệ Gỗ Tùng			0.35	0	45	0.4	-8	-61	15	Contrib|600	Item|4296|3	Item|4311|3		
4074		Kệ Bạch Dương			0.35	0	45	0.4	-8	-61	15	Contrib|1500	Item|4297|3	Item|4312|3		
4075		Kệ Mặc Hương			0.35	0	45	0.4	-8	-61	15	Contrib|3000	Item|4298|3	Item|4313|3		
4076		Kệ Sắc Màu		702	0.35	0	45	0.4	-8	-61	15	Contrib|6000	Item|4299|3	Item|4314|3		
4077		Kệ Tử Đàn		702	0.35	0	45	0.4	-8	-61	15	Contrib|12000	Item|4300|3	Item|4315|3		
4078		Kệ Đồ Gỗ Tùng			0.35	0	45	1.8	13	-157	7	Contrib|600	Item|4296|3	Item|4311|3		
4079		Kệ Đồ Bạch Dương			0.35	0	45	1.8	13	-157	7	Contrib|1500	Item|4297|3	Item|4312|3		
4080		Kệ Đồ Mặc Hương			0.35	0	45	1.8	13	-157	7	Contrib|3000	Item|4298|3	Item|4313|3		
4081		Kệ Đồ Sắc Màu		702	0.35	0	45	1.8	13	-157	7	Contrib|6000	Item|4299|3	Item|4314|3		
4082		Kệ Đồ Tử Đàn		702	0.35	0	45	1.8	13	-157	7	Contrib|12000	Item|4300|3	Item|4315|3		
4083		Kệ Ngăn Gỗ Tùng			0.35	0	45	1.8	13	-157	7	Contrib|600	Item|4296|3	Item|4311|3		
4084		Kệ Ngăn Bạch Dương			0.35	0	45	1.8	13	-157	7	Contrib|1500	Item|4297|3	Item|4312|3		
4085		Kệ Ngăn Mặc Hương			0.35	0	45	1.8	13	-157	7	Contrib|3000	Item|4298|3	Item|4313|3		
4086		Kệ Ngăn Sắc Màu		702	0.35	0	45	1.8	13	-157	7	Contrib|6000	Item|4299|3	Item|4314|3		
4087		Kệ Ngăn Tử Đàn		702	0.35	0	45	1.8	13	-157	7	Contrib|12000	Item|4300|3	Item|4315|3		
4088		Tủ Vuông Gỗ Tùng			0.35	-7	85	6	-9	-56	11	Contrib|600	Item|4296|3	Item|4311|3		
4089		Tủ Vuông Bạch Dương			0.35	-7	85	6	-9	-56	11	Contrib|1500	Item|4297|3	Item|4312|3		
4090		Tủ Vuông Mặc Hương			0.35	-7	85	6	-9	-56	11	Contrib|3000	Item|4298|3	Item|4313|3		
4091		Tủ Vuông Sắc Màu		702	0.35	-7	85	6	-9	-56	11	Contrib|6000	Item|4299|3	Item|4314|3		
4092		Tủ Vuông Tử Đàn		702	0.35	-7	85	6	-9	-56	11	Contrib|12000	Item|4300|3	Item|4315|3		
4093		Bàn Vuông Gỗ Tùng			0.35	0	85	17	-11	-57	14	Contrib|600	Item|4296|3	Item|4306|3		
4094		Bàn Vuông Bạch Dương			0.35	0	85	17	-11	-57	14	Contrib|1500	Item|4297|3	Item|4307|3		
4095		Bàn Tròn Mặc Hương			0.35	0	85	17	-11	-57	14	Contrib|3000	Item|4298|3	Item|4308|3		
4096		Bàn Tròn Sắc Màu		702	0.35	0	85	17	-11	-57	14	Contrib|6000	Item|4299|3	Item|4309|3		
4097		Bàn Tròn Tử Đàn		702	0.35	0	85	17	-11	-57	14	Contrib|12000	Item|4300|3	Item|4310|3		
4098		Bàn Gỗ Tùng			0.35	0	85	17	-11	-57	14	Contrib|600	Item|4296|3	Item|4316|3		
4099		Bàn Bạch Dương			0.35	0	85	17	-11	-57	14	Contrib|1500	Item|4297|3	Item|4317|3		
4100		Bàn Mặc Hương			0.35	0	85	17	-11	-57	14	Contrib|3000	Item|4298|3	Item|4318|3		
4101		Bàn Sắc Màu		702	0.35	0	85	17	-11	-57	14	Contrib|6000	Item|4299|3	Item|4319|3		
4102		Bàn Tử Đàn		702	0.35	0	85	17	-11	-57	14	Contrib|12000	Item|4300|3	Item|4320|3		
4103		Bàn Dài Gỗ Tùng			0.35	0	85	17	-11	-57	14	Contrib|600	Item|4296|3	Item|4316|3		
4104		Bàn Dài Bạch Dương			0.35	0	85	17	-11	-57	14	Contrib|1500	Item|4297|3	Item|4317|3		
4105		Bàn Dài Mặc Hương			0.35	0	85	17	-11	-57	14	Contrib|3000	Item|4298|3	Item|4318|3		
4106		Bàn Dài Sắc Màu		702	0.35	0	85	17	-11	-57	14	Contrib|6000	Item|4299|3	Item|4319|3		
4107		Bàn Dài Tử Đàn		702	0.35	0	85	17	-11	-57	14	Contrib|12000	Item|4300|3	Item|4320|3		
4108		Bàn Gỗ Tùng			0.35	0	85	17	-11	-57	14	Contrib|600	Item|4296|3	Item|4316|3		
4109		Bàn Gỗ Bạch Dương			0.35	0	85	17	-11	-57	14	Contrib|1500	Item|4297|3	Item|4317|3		
4110		Bàn Gỗ Mặc Hương			0.35	0	85	17	-11	-57	14	Contrib|3000	Item|4298|3	Item|4318|3		
4111		Bàn Gỗ Sắc Màu		702	0.35	0	85	17	-11	-57	14	Contrib|6000	Item|4299|3	Item|4319|3		
4112		Bàn Gỗ Tử Đàn		702	0.35	0	85	17	-11	-57	14	Contrib|12000	Item|4300|3	Item|4320|3		
4113		Kệ Bồn Gỗ Tùng			0.35	0	85	17	-11	-57	14	Contrib|600	Item|4296|3	Item|4306|3		
4114		Kệ Bồn Bạch Dương			0.35	0	85	17	-11	-57	14	Contrib|1500	Item|4297|3	Item|4307|3		
4115		Kệ Bồn Mặc Hương			0.35	0	85	17	-11	-57	14	Contrib|3000	Item|4298|3	Item|4308|3		
4116		Kệ Bồn Sắc Màu		702	0.35	0	85	17	-11	-57	14	Contrib|6000	Item|4299|3	Item|4309|3		
4117		Kệ Bồn Tử Đàn		702	0.35	0	85	17	-11	-57	14	Contrib|12000	Item|4300|3	Item|4310|3		
4118		Bàn Cờ Gỗ Tùng			0.35	0	85	17	-11	-57	14	Contrib|600	Item|4296|3	Item|4306|3		
4119		Bàn Cờ Bạch Dương			0.35	0	85	17	-11	-57	14	Contrib|1500	Item|4297|3	Item|4307|3		
4120		Bàn Cờ Mặc Hương			0.35	0	85	17	-11	-57	14	Contrib|3000	Item|4298|3	Item|4308|3		
4121		Bàn Cờ Sắc Màu		702	0.35	0	85	17	-11	-57	14	Contrib|6000	Item|4299|3	Item|4309|3		
4122		Bàn Cờ Tử Đàn		702	0.35	0	85	17	-11	-57	14	Contrib|12000	Item|4300|3	Item|4310|3		
4123		Đệm Cỏ			0.5	0	85	3	-19	7	-4	Contrib|200	Item|4301|2			
4124		Đệm Trúc			0.5	0	85	3	-19	7	-4	Contrib|500	Item|4302|2			
4125		Tử La Lan			0.5	0	85	3	-19	7	-4	Contrib|1000	Item|4303|2			
4126		Lãnh Ngọc Lang Hoàn			0.5	0	85	3	-19	7	-4	Contrib|2000	Item|4304|2			
4127		Tử Ngọc Thành Yên			0.5	0	85	3	-19	7	-4	Contrib|4000	Item|4305|2			
4128		Đệm Gai Thô			0.5	0	85	3	-19	7	-4	Contrib|200	Item|4301|2			
4129		Đệm Bông			0.5	0	85	3	-19	7	-4	Contrib|500	Item|4302|2			
4130		Thanh Khiết			0.5	0	85	3	-19	7	-4	Contrib|1000	Item|4303|2			
4131		Hồng Trần Khách Mộng			0.5	0	85	3	-19	7	-4	Contrib|2000	Item|4304|2			
4132		Kim Lan			0.5	0	85	3	-19	7	-4	Contrib|4000	Item|4305|2			
4133		Ghế Dài Gỗ Tùng			0.5	6	87	19	-8	-59	17	Contrib|200	Item|4296|1	Item|4306|1		
4134		Ghế Dài Bạch Dương			0.5	6	87	19	-8	-59	17	Contrib|500	Item|4297|1	Item|4307|1		
4135		Ghế Tròn Mặc Hương			0.5	3	86	16	-10	-47	10	Contrib|1000	Item|4298|1	Item|4308|1		
4136		Ghế Tròn Sắc Màu			0.5	3	86	16	-10	-47	10	Contrib|2000	Item|4299|1	Item|4309|1		
4137		Ghế Tròn Tử Đàn			0.5	3	86	16	-10	-47	10	Contrib|4000	Item|4300|1	Item|4310|1		
4138		Ghế Gỗ Tùng			0.5	2	87	20	-10	-59	16	Contrib|200	Item|4296|1	Item|4306|1		
4139		Ghế Hạch Đào			0.5	2	87	20	-10	-59	16	Contrib|1000	Item|4298|1	Item|4308|1		
4140		Ghế Mạ Vàng			0.5	2	87	20	-10	-59	16	Contrib|4000	Item|4300|1	Item|4310|1		
4141		Bồn Gỗ Tùng			1	4	-350	3000	-12	-56	19	Contrib|1200	Item|4296|6	Item|4306|6		
4142		Bồn Bạch Dương			1	4	-350	3000	-12	-56	19	Contrib|3000	Item|4297|6	Item|4307|6		
4143		Bồn Mặc Hương		702	1	4	-350	3000	-12	-56	19	Contrib|6000	Item|4298|6	Item|4308|6		
4144		Kính Hoa Thủy Nguyệt		702	1	4	-350	3000	-12	-56	19	Contrib|16000	Item|4299|8	Item|4309|8		
4145		Quỳnh Dao Bích Lạc		702	1	4	-350	3000	-12	-56	19	Contrib|32000	Item|4300|8	Item|4310|8		
4146		Hổ Tiếu Sơn Lâm		702	0.3	40	154	-2	-12	-57	23	Contrib|6000	Item|4319|6			
4147		Phi Hùng Nhập Mộng		702	0.3	40	180	-2	-12	-57	23	Contrib|12000	Item|4320|6			
4148		Tinh Huyền Trường Không (Trung)			0.28	9	144	-2	-24	40	-10	Contrib|1500	Item|4317|6			
4149		Sông Cạn Đá Mòn (Trung)			0.28	9	144	-2	-24	40	-10	Contrib|3000	Item|4318|6			
4150		Hỏa Phụng Kim Loan (Trung)		702	0.28	9	156	-2	-24	40	-10	Contrib|6000	Item|4319|6			
4151		Kim Bảng Đề Danh (Trung)		702	0.25	18	156	-2	-24	40	-10	Contrib|12000	Item|4320|6			
4152		Tinh Huyền Trường Không (Lớn)			0.2	15	180	5	-11	-67	28	Contrib|1500	Item|4317|6			
4153		Sông Cạn Đá Mòn (Lớn)			0.2	15	180	5	-11	-67	28	Contrib|3000	Item|4318|6			
4154		Hỏa Phụng Kim Loan (Lớn)		702	0.2	15	180	5	-11	-67	28	Contrib|6000	Item|4319|6			
4155		Kim Bảng Đề Danh (Lớn)		702	0.2	15	180	5	-11	-67	28	Contrib|12000	Item|4320|6			
4156	1	Thảm Sắc Màu (Trung)		702	0.28	9	156	-2	-24	40	-10	Contrib|6000	Item|4319|6			
4157	1	Thảm Sắc Màu (Lớn)		702	0.2	15	180	5	-11	-67	28	Contrib|6000	Item|4319|6			
4221		Hộp Gấm Gỗ Tùng			0.45	0	88	26	-6	-64	16	Contrib|400	Item|4296|2	Item|4316|2		
4222		Bách Bảo Rương			0.45	0	88	26	-6	-64	16	Contrib|2000	Item|4298|2	Item|4318|2		
4223		Song Long Hàm Châu		702	0.45	0	88	26	-6	-64	16	Contrib|8000	Item|4300|2	Item|4320|2		
4224		Lá Ngọc Cành Vàng (Hợp) 			0.35	-7	0	16	-7	-61	12	Contrib|1000	Item|4297|2	Item|4302|2		
4225		Hàn Mai Ngạo Tuyết			0.4	5	48	29	-5	-72	16	Contrib|4000	Item|4299|2	Item|4324|2		
4226		Thanh Tùng Nghênh Khách		702	0.4	5	48	29	-5	-72	16	Contrib|8000	Item|4300|2	Item|4325|2		
4227		Bình Phong Gai Thô			0.35	-7	28	16	-7	-61	12	Contrib|400	Item|4296|2	Item|4301|2		
4228		Lá Ngọc Cành Vàng (Trương) 			0.35	-7	9	16	-7	-61	12	Contrib|1000	Item|4297|2	Item|4302|2		
4229		Thái Nhạc Nhập Vân			0.32	-7	15	16	-7	-61	12	Contrib|2000	Item|4298|2	Item|4303|2		
4230		Duyên Nợ Ba Sinh			0.35	-7	17	16	-7	-61	12	Contrib|4000	Item|4299|2	Item|4304|2		
4231		Tinh Huyền Trường Không (Nhỏ)			0.35	1	109	26	-9	-61	27	Contrib|1000	Item|4317|4			
4232		Sông Cạn Đá Mòn (Nhỏ)			0.35	1	109	26	-9	-61	27	Contrib|2000	Item|4318|4			
4233		Hỏa Phụng Kim Loan (Nhỏ)			0.35	1	109	26	-9	-61	27	Contrib|4000	Item|4319|4			
4234		Kim Bảng Đề Danh (Nhỏ)		702	0.35	1	109	26	-9	-61	27	Contrib|8000	Item|4320|4			
4235		Đồng Tước Hương Lư			0.45	0	40	28	-16	-12	3	Contrib|400	Item|4306|2	Item|4311|2		
4236		Ngọc Liên Hương Lư			0.45	-8	41	31	-11	44	-11	Contrib|1000	Item|4307|2	Item|4312|2		
4237		Thục Đồng Hương Lư			0.45	-2	40	28	-8	-61	14	Contrib|2000	Item|4308|2	Item|4313|2		
4238		Thất Tú Vân Hương			0.45	-3	40	27	-5	-72	15	Contrib|4000	Item|4309|2	Item|4314|2		
4239		Tử Kim Hồ Lô		702	0.45	6	41	32	-4	-77	15	Contrib|8000	Item|4310|2	Item|4315|2		
5225	1	Thảm Sắc Màu (Nhỏ)			0.35	1	109	26	-9	-61	27	Contrib|4000	Item|4319|4			
4162		Đèn Gỗ Tùng			0.4	0	12	44	-17	15	-5	Contrib|200	Item|4296|1	Item|4306|1		
4163		Đèn Bạch Dương			0.4	0	12	44	-17	15	-5	Contrib|500	Item|4297|1	Item|4307|1		
4164		Đèn Mặc Hương			0.4	0	12	44	-17	15	-5	Contrib|1000	Item|4298|1	Item|4308|1		
4165		Đèn Sắc Màu			0.4	0	12	44	-17	15	-5	Contrib|2000	Item|4299|1	Item|4309|1		
4166		Đèn Tử Đàn			0.4	0	12	44	-17	15	-5	Contrib|4000	Item|4300|1	Item|4310|1		
4167		Giáng Đào Xuân			0.4	0	24	30	-8	-63	21	Contrib|200	Item|4311|2			
4168		Uất Kim Hương			0.4	0	15	54	-7	-67	16	Contrib|500	Item|4312|2			
4169		Bình Thanh Ngọc			0.4	0	-2	46	-6	-69	17	Contrib|1000	Item|4313|2			
4170		Nhất Tiễn Mai			0.37	0	-14	56	5	-106	20	Contrib|2000	Item|4314|2			
4171		Thất Lăng Băng Huyền Hoa			0.4	0	30	61	16	-161	5	Contrib|4000	Item|4315|2			
4172		Hộp Gỗ Đàn Hương			0.4	0	71	50	7	112	-16	Contrib|200	Item|4296|2			
4173		Ống Tranh			0.4	0	59	48	12	-137	12	Contrib|500	Item|4297|1	Item|4302|1		
4240		Bình Kim Sư			0.4	0	50	44	9	118	-15	Contrib|1000	Item|4313|2			
4241		Thụy Hạc Tiên			0.4	0	40	59	17	178	0	Contrib|2000	Item|4314|2			
4242		Bình Khổng Tước			0.4	0	57	34	-2	-73	9	Contrib|4000	Item|4315|2			
4174		Khinh Trúc Liêm			0.4	0	-106	-5	0	-87	1	Contrib|400	Item|4296|2	Item|4301|2		
4175		Tô Mạc Già			0.35	0	-18	-5	0	-87	1	Contrib|1000	Item|4307|2	Item|4302|2		
4176		Nhất Liêm U Mộng			0.35	0	0	-5	0	-87	1	Contrib|2000	Item|4308|2	Item|4303|2		
4177		Nhĩ Kim Tử			0.35	0	0	-5	0	-87	1	Contrib|4000	Item|4309|2	Item|4304|2		
4178		Kim Ngọc Mãn Đường		702	0.4	0	-106	-5	0	-87	1	Contrib|8000	Item|4310|2	Item|4305|2		
4179		Thấu Sa Liêm			0.4	0	-106	-5	0	-87	1	Contrib|1000	Item|4297|2	Item|4302|2		
4180		Lạc Ánh Sơn Hà Đồ			0.4	0	-95	71	-5	-64	10	Contrib|4000	Item|4299|2	Item|4304|2		
4181		Thúy Địch			0.4	0	-106	-5	0	-87	1	Contrib|400	Item|4296|2	Item|4306|2		
4182		Mãn Nguyệt Nguyễn			0.4	0	-106	-5	0	-87	1	Contrib|1000	Item|4297|2	Item|4307|2		
4183		Cán Hoa Tì Bà			0.4	0	-106	-5	0	-87	1	Contrib|2000	Item|4313|2	Item|4308|2		
4184		Độc U			0.4	0	-106	-47	0	-87	-7	Contrib|4000	Item|4314|2	Item|4309|2		
4185		Đại Thánh Di Âm		702	0.4	0	-106	-5	0	-87	1	Contrib|8000	Item|4315|2	Item|4310|2		
4186		Hồng Loan Tinh Động			0.4	0	-106	-5	0	-87	1	Contrib|400	Item|4301|4			
4187		Tường Vân Diên			0.4	0	-106	-5	0	-87	1	Contrib|1000	Item|4297|2	Item|4302|2		
4188		Tử Châu Hiệu Giác			0.4	0	-106	-5	0	-87	1	Contrib|2000	Item|4298|2	Item|4313|2		
4189		Tranh Sơn Thủy			0.4	0	-106	-5	0	-87	1	Contrib|4000	Item|4299|2	Item|4304|2		
4190		Ngân Linh Cung		702	0.4	0	-106	-5	0	-87	1	Contrib|8000	Item|4300|2	Item|4310|2		
4191		Xích Đu			0.33	0	46	32	-5	-53	7	Contrib|600	Item|4296|3	Item|4306|3		
4192		Kệ Binh Khí			0.33	0	46	32	-5	-53	7	Contrib|1500	Item|4297|3	Item|4307|3		
4193		Bách Hoa Liễu Loạn			0.33	0	61	43	-9	-58	16	Contrib|3000	Item|4323|6			
4194		Vạn Tử Thiên Hồng		702	0.33	0	68	65	0	88	-16	Contrib|6000	Item|4324|6			
4195		Nguyệt Minh Hoa Ảnh		702	0.3	0	46	32	-5	-53	7	Contrib|12000	Item|4300|3	Item|4310|3		
4196		Bàn Đá Tròn			0.33	0	48	41	-13	-55	14	Contrib|600	Item|4321|6			
4197		Tam Nhân Hành			0.33	40	73	41	-13	-55	14	Contrib|1500	Item|4322|6			
4198		Hải Giác Kỳ Thạch			0.3	0	34	32	-5	-53	7	Contrib|3000	Item|4323|6			
4199		Quần Phong Tủng Thúy		702	0.3	0	34	32	-5	-53	7	Contrib|6000	Item|4324|6			
4200		Tam Sinh Tam Thế		702	0.33	0	61	74	-8	-68	24	Contrib|12000	Item|4325|6			
4201		Giếng Đá Cổ			0.33	0	54	49	-13	-55	15	Contrib|600	Item|4321|3	Item|4296|3		
4202		Hoa Mộc Cổ Giá			0.33	0	45	31	-3	-68	7	Contrib|1500	Item|4297|3	Item|4307|3		
4203		Yến Ngữ			0.33	0	45	31	-3	-68	7	Contrib|3000	Item|4298|3	Item|4308|3		
4204		Biên Chung		702	0.33	0	45	31	-3	-68	7	Contrib|6000	Item|4299|3	Item|4309|3		
4205		Át Vân		702	0.33	0	45	31	-3	-68	7	Contrib|12000	Item|4300|3	Item|4310|3		
5226	1	Chậu Triều Nhan Hoa			0.33	-5	85	45	-6	-71	19	Contrib|3000	Item|4298|3	Item|4308|3		
5227	1	Tiểu Lục Âm		702	0.25	37	10	47	-19	-26	12	Contrib|6000	Item|4299|6			
5228	1	Thập Lý Đào Hoa		702	0.25	37	10	47	-19	-26	12	Contrib|12000	Item|4300|6			
5229	1	Giàn Triều Nhan Hoa			0.25	-5	85	45	-6	-71	19	Contrib|3000	Item|4298|3	Item|4308|3		
5230	1	Ngân Thạch Song Nhân		702	0.33	15	82	26	-6	-70	19	Contrib|6000	Item|4324|3	Item|4309|3		
5231	1	Lưu Kim Song Nhân		702	0.33	15	82	26	-6	-70	19	Contrib|12000	Item|4325|3	Item|4310|3		
5232	1	Phù Điêu Chiếu Bích		702	0.23	2	71	48	-4	-66	12	Contrib|6000	Item|4324|3	Item|4309|3		
5233	1	Hà Hoa Tiểu Trì		702	0.27	8	96	44	-12	-46	10	Contrib|12000	Item|4325|3	Item|4300|3		
4206		Ghế Đá Tròn			0.4	0	44	25	-16	0	0	Contrib|200	Item|4321|2			
4207		Rượu Lâu Năm			0.4	0	44	25	-16	0	0	Contrib|500	Item|4322|2			
4208		Bình Xích Đồng			0.4	0	43	23	-11	41	-8	Contrib|1000	Item|4308|2			
4209		Bình Kim Tượng			0.4	0	44	25	-7	-64	14	Contrib|2000	Item|4314|2			
4220		Nạp Bách Xuyên			0.4	0	44	25	-8	-60	13	Contrib|4000	Item|4315|2			
4210		Hàng Rào Đá			0.4	0	44	28	-7	-61	14	Contrib|200	Item|4321|2			
4211		Người Rơm			0.4	0	48	39	-6	-64	14	Contrib|500	Item|4297|1	Item|4302|1		
4212		Bách Hoa Trản			0.4	0	44	25	-16	0	0	Contrib|1000	Item|4323|2			
4213		Xá Tử Yên Hồng			0.4	0	44	25	8	121	-13	Contrib|2000	Item|4324|2			
4214		Trăng Trên Cành Liễu			0.3	0	22	18	-13	35	-9	Contrib|4000	Item|4300|1	Item|4310|1		
4215		Thạch Sư Tử			0.4	0	45	29	-5	-71	15	Contrib|200	Item|4321|2			
4216		Hoa Cương Đăng			0.4	0	44	25	-14	-27	7	Contrib|500	Item|4322|2			
4217		Vân Kim Đăng			0.4	0	44	25	-14	-27	7	Contrib|1000	Item|4323|2			
4218		Kim Bích Tì Hưu			0.4	0	44	26	-9	-56	13	Contrib|2000	Item|4324|1	Item|4309|1		
4219		Thúy Ngọc Điêu Long			0.4	0	44	26	-9	-56	13	Contrib|4000	Item|4325|1	Item|4310|1		
5234	1	Lam Triều Nhan			0.36	-3	52	45	-11	-73	27	Contrib|200	Item|4296|2			
5235	1	Hoa Mười Giờ			0.4	3	60	30	-5	-86	19	Contrib|500	Item|4297|2			
5236	1	Tử Hồ Điệp			0.36	2	62	64	-19	-46	23	Contrib|200	Item|4296|2			
5237	1	Đế Nữ Hoa			0.4	9	48	35	-8	-53	25	Contrib|500	Item|4297|2			
