SuitIndex	ItemId	
1	2764	Vũ Khí Hoàng Kim T6
1	2779	Nón Hoàng Kim T6
1	2782	Áo Hoàng Kim T6
1	2788	Đai Hoàng Kim T6
1	2767	Dây Chuyền Hoàng Kim T6
1	2773	Ngọc Bội Hoàng Kim T6
1	2765	Vũ Khí Hoàng Kim T7
1	2780	Nón Hoàng Kim T7
1	2783	Áo Hoàng Kim T7
1	2789	Đai Hoàng Kim T7
1	2768	Dây Chuyền Hoàng Kim T7
1	2774	Ngọc Bội Hoàng Kim T7
1	2766	Vũ Khí Hoàng Kim T8
1	2781	Nón Hoàng Kim T8
1	2784	Áo Hoàng Kim T8
1	2790	Đai Hoàng Kim T8
1	2769	Dây Chuyền Hoàng Kim T8
1	2775	Ngọc Bội Hoàng Kim T8
1	3619	Vũ Khí Hoàng Kim T9
1	3629	Nón Hoàng Kim T9
1	3631	Áo Hoàng Kim T9
1	3635	Đai Hoàng Kim T9
1	3621	Dây Chuyền Hoàng Kim T9
1	3625	Ngọc Bội Hoàng Kim T9
1	3620	Vũ Khí Hoàng Kim T10
1	3630	Nón Hoàng Kim T10
1	3632	Áo Hoàng Kim T10
1	3636	Đai Hoàng Kim T10
1	3622	Dây Chuyền Hoàng Kim T10
1	3626	Ngọc Bội Hoàng Kim T10
1	5360	Vũ Khí Hoàng Kim T11
1	5390	Nón Hoàng Kim T11
1	5385	Áo Hoàng Kim T11
1	5400	Đai Hoàng Kim T11
1	5365	Dây Chuyền Hoàng Kim T11
1	5375	Ngọc Bội Hoàng Kim T11
1	5361	Vũ Khí Hoàng Kim T12
1	5391	Nón Hoàng Kim T12
1	5386	Áo Hoàng Kim T12
1	5401	Đai Hoàng Kim T12
1	5366	Dây Chuyền Hoàng Kim T12
1	5376	Ngọc Bội Hoàng Kim T12
1	5362	T13_Weapon_Q4
1	5363	T14_Weapon_Q4
1	5364	T15_Weapon_Q4
1	5387	T13_Helm_Q4
1	5388	T14_Helm_Q4
1	5389	T15_Helm_Q4
1	5392	T13_Armor_Q4
1	5393	T14_Armor_Q4
1	5394	T15_Armor_Q4
1	5402	T13_Belt_Q4
1	5403	T14_Belt_Q4
1	5404	T15_Belt_Q4
1	5367	T13_Necklace_Q4
1	5368	T14_Necklace_Q4
1	5369	T15_Necklace_Q4
1	5377	T13_Pendant_Q4
1	5378	T14_Pendant_Q4
1	5379	T15_Pendant_Q4
2	2770	T6_Ring_Q4
2	2771	T7_Ring_Q4
2	2772	T8_Ring_Q4
2	3623	T9_Ring_Q4
2	3624	T10_Ring_Q4
2	5370	T11_Ring_Q4
2	5371	T12_Ring_Q4
2	5372	T13_Ring_Q4
2	5373	T14_Ring_Q4
2	5374	T15_Ring_Q4
2	2785	T6_Cuff_Q4
2	2786	T7_Cuff_Q4
2	2787	T8_Cuff_Q4
2	3633	T9_Cuff_Q4
2	3634	T10_Cuff_Q4
2	5395	T11_Cuff_Q4
2	5396	T12_Cuff_Q4
2	5397	T13_Cuff_Q4
2	5398	T14_Cuff_Q4
2	5399	T15_Cuff_Q4
2	2791	T6_Boots_Q4
2	2792	T7_Boots_Q4
2	2793	T8_Boots_Q4
2	3637	T9_Boots_Q4
2	3638	T10_Boots_Q4
2	5405	T11_Boots_Q4
2	5406	T12_Boots_Q4
2	5407	T13_Boots_Q4
2	5408	T14_Boots_Q4
2	5409	T15_Boots_Q4
2	2776	T6_Amulet_Q4
2	2777	T7_Amulet_Q4
2	2778	T8_Amulet_Q4
2	3627	T9_Amulet_Q4
2	3628	T10_Amulet_Q4
2	5380	T11_Amulet_Q4
2	5381	T12_Amulet_Q4
2	5382	T13_Amulet_Q4
2	5383	T14_Amulet_Q4
2	5384	T15_Amulet_Q4
