nId	szDesc	nNeed	nStudentExp	nTeacherRenown
1	Mở 10 Rương Hoàng Kim	10	250000	50
2	Mở 50 Rương Hoàng Kim	50	500000	100
3	Vào Bang Hội thành công	1	500000	100
4	Đã nhận 5 Hộp Quà Bang Hội	5	250000	50
5	Đã nhận 50 Hộp Quà Bang Hội	50	500000	100
6	Góp Kim Khố Bang Hội 5 lần	5	250000	50
7	Góp Kim Khố Bang Hội 50 lần	50	500000	100
8	Nhận 2 lần Lợi Tức Đấu Giá	2	250000	50
9	Nhận 20 lần Lợi Tức Đấu Giá	20	500000	100
10	Hoàn thành 10 lần Đào Kho Báu	10	250000	50
11	Hoàn thành 50 lần Đào Kho Báu	50	500000	100
12	Mua vật phẩm bày bán thành công	1	250000	50
13	Bán vật phẩm bày bán thành công	1	500000	100
14	Tẩy 1 trang bị trên người đầy 6 dòng thuộc tính	1	500000	100
15	Tẩy 10 trang bị trên người đầy 6 dòng thuộc tính	1	2500000	500
16	Toàn thân mặc trang bị kế thừa	1	1000000	200
17	Toàn thân mặc trang bị hiếm	1	5000000	1000
18	Độ hoàn thành mục tiêu ngày đạt 100	1	500000	100
19	Đủ 7 ngày hoàn thành mục tiêu đạt 100	7	1000000	200
20	Mở 2 lần trạng thái Tu luyện	2	250000	50
21	Mở 10 lần trạng thái Tu luyện	10	500000	100
22	Hoàn thành 5 lần Nhiệm Vụ Trừng Ác	5	250000	50
23	Hoàn thành 50 lần Nhiệm Vụ Trừng Ác	50	500000	100
24	Bí cảnh tổ đội đạt đánh giá Ưu Tú trở lên	1	250000	50
25	Bí cảnh tổ đội đạt đánh giá Trác Việt	1	2500000	500
26	Hạng Võ Thần Điện vào Top 1500	1	500000	100
27	Hạng Võ Thần Điện vào Top 500	1	2500000	500
28	Vượt thành công 6 lượt Khiêu Chiến Anh Hùng	1	250000	50
29	Vượt thành công 10 lượt Khiêu Chiến Anh Hùng	1	1000000	200
30	Hạng cá nhân Minh Chủ Võ Lâm vào Top 1500	1	500000	100
31	Hạng cá nhân Minh Chủ Võ Lâm vào Top 500	1	2500000	500
32	Tham gia 1 lần Thủ Lĩnh Dã Ngoại	1	500000	100
33	Tham gia 1 lần Danh Tướng	1	500000	100
34	Hoàn thành 1 lần nhiệm vụ Thương Hội	1	250000	50
35	Hoàn thành 10 lần nhiệm vụ Thương Hội	10	500000	100
36	Tham gia 1 lần Chiến Trường Tống Kim	1	250000	50
37	Tham gia 10 lần Chiến Trường Tống Kim	10	500000	100
38	Tham gia 1 lần Thí Luyện Bang Hội	1	250000	50
39	Tham gia 3 lần Thí Luyện Bang Hội	3	500000	100
40	Cường hóa toàn thân +20	1	500000	100
41	Cường hóa toàn thân +30	1	1000000	200
42	Cường hóa toàn thân +40	1	2500000	500
43	Khảm 20 Đá Hồn trên Lv1	1	500000	100
44	Khảm 20 Đá Hồn trên Lv2	1	1000000	200
45	Khảm 20 Đá Hồn trên Lv3	1	2500000	500
46	Khảm 20 Đá Hồn trên Lv4	1	5000000	1000
47	Tham gia 1 lần Thi Đấu Môn Phái	1	250000	50
48	Tham gia 3 lần Thi Đấu Môn Phái	3	500000	100
49	Đạt danh hiệu Kinh Hồng	1	250000	50
50	Đạt danh hiệu Lăng Vân	1	500000	100
51	Đạt danh hiệu Ngự Không	1	1000000	200
52	Đạt danh hiệu Tiềm Long	1	5000000	1000
53	Thân mật với sư phụ đạt Lv10	1	250000	50
54	Thân mật với sư phụ đạt Lv15	1	500000	100
55	Thân mật với sư phụ đạt Lv20	1	1000000	200
56	Trân Bảo Các mua 10 Thủy Tinh Trắng giảm giá	10	250000	50
57	Trân Bảo Các mua 100 Thủy Tinh Trắng giảm giá	100	500000	100
58	Trân Bảo Các mua 50 Thủy Tinh Lục giảm giá	50	1000000	200
59	Mua Quà 7 Ngày	1	500000	100
60	Mua Quà 30 Ngày	1	500000	100
61	Mua 1 lần Quà Mỗi Ngày	1	250000	50
62	Mua 10 lần Quà Mỗi Ngày	10	500000	100
63	Mua Đầu Tư	1	1000000	200
64	Đạt Kiếm Hiệp 6	1	5000000	1000
