szAward	nCostGold	nResId	szContent	Npc
Gold|100;item|222|5;item|1234|10;item|4786|1|86300	188	1178	Nó vốn là một hạt cát, được người ta yêu thích nên mới trở nên quý giá, cuối cùng trở thành trân châu. Mọi người hãy cố lên, giấc mơ nhất định thành hiện thực.	Triệu Ân Đồng
item|786|15;item|1927|100;item|2154|2;item|4786|1|86300	188	103	Hừ, không biết Minh Chủ Võ Lâm có gì vui, thì chúc các đại hiệp vui vẻ tự do, muốn đi đâu thì đi đó, muốn làm gì thì làm đó vậy!	Tường Vi
item|224|1;item|222|5;item|1235|10;item|4786|1|86300	188	131	Nhân chi sơ, tính bổn thiện. Trong quá trình tiến về phía trước, mong chư vị có thể giữ vững ý chí ban đầu cũng như bình an vô sự	Tử Hiên
item|4462|3;item|1927|100;item|787|10;item|4786|1|86300	188	1129	Không biết đại hiệp đã tìm thấy tri âm của mình chưa, nếu chưa cũng đừng nản lòng, duyên phận chắc đang chờ đợi ở tương lai không xa	Yên Nhược Tuyết
Contrib|3000;item|222|5;item|1234|10;item|4786|1|86300	188	193	Mong các vị đại hiệp có thể hiểu rõ những gì bản thân mình mong muốn, một lòng theo đuổi, không chùn bước	Trương Như Mộng
item|2168|1;item|1927|100;item|785|5;item|4786|1|86300	188	5027	Ha ha ha, như vậy mới đúng, càng đông càng vui. Mong rằng trong tương lai sẽ có thêm nhiều nhân sĩ có chí gia nhập vào võ lâm của chúng ta	Nam Cung Phi
item|4787|2;item|222|5;item|1235|10;item|4786|1|86300	188	1100	Mới đó đã một năm rồi, chúng ta đã trải qua biết bao nhiêu sóng gió, hi vọng mọi người thật nhiều sức khỏe.	Trương Lâm Tâm
item|224|1;item|1927|100;item|787|10;item|4786|1|86300	188	1101	Cám ơn chư vị đại hiệp đã ủng hộ trong thời gian qua, hi vọng trong tương lai vẫn có thể cùng các vị bôn ba giang hồ	Dương Ảnh Phong
item|2569|1;item|222|5;item|1234|10;item|4786|1|86300	188	177	Trong thời gian qua cùng chư vị đại hiệp hành tẩu giang hồ khiến ta cảm thấy rất vui, hi vọng trong tương lai vẫn có thể tiếp tục song hành	Nạp Lan Chân
item|4462|4;item|1927|100;item|786|5;item|4786|1|86300	188	32	Chư vị đại hiệp, nay võ lâm ngày càng hưng thịnh, rất đa tạ công lao của các vị, hi vọng trong tương lai vẫn có thể tỷ thí với các vị mỗi ngày	Độc Cô Kiếm
SilverBoard|500;item|222|5;item|1235|10;item|4786|1|86300	188	146	Ha ha, năm nay tiền tài sung túc đấy, hi vọng năm sau vẫn được các vị đại hiệp chăm lo, cùng nhau kiếm thật nhiều tiền	Vạn Kim Tài
item|1930|2;item|1927|100;item|2167|1;item|4786|1|86300	188	141	Có thể gặp gỡ âu cũng là việc vinh hạnh của đời người, mong chư vị trân trọng, năm tới chúng ta lại cùng nhau gầy dựng tương lai sáng lạng	Dương Anh
item|2759|2;item|222|5;item|1234|10;item|4786|1|86300	188	126	Vinh hoa phú quý thật khiến người ta động lòng, nhưng quyền vị có cao hơn nữa cuối cùng cũng là gió thoảng mây bay, chỉ mong chư vị có thể đạt được mơ ước của mình	Nam Cung Thái Hồng
item|4816|5;item|1927|100;Contrib|1000;item|4786|1|86300	188	1102	Đời người có nhiều việc không như mình muốn, mong chư vị đại hiệp có thể hiểu rõ, phấn đấu tiến lên	Nguyệt My Nhi
item|224|6;item|222|5;item|1235|10;item|4786|1|86300	188	1179	Các vị đại hiệp ở đây, cho dù là tỉ võ chiêu thân hay anh hùng cứu mỹ nhân, đều mong các vị có thể tìm thấy được tình duyên cho mình!	Lâm Triều Hoa
