AwardType	AwardValue1	AwardValue2	AwardValue3	RandRate	WorldNotify	Name	IntoAuction
item	2215	1		1600		Thiên Tinh Đạo Trưởng	1
item	212	1		63000		Thủy Tinh Trắng	
item	1762	1		7300		Đá Hồn Thiên Tinh Đạo Trưởng-Sơ	
item	1234	1		40000		Hoa Hồng	
item	1235	1		40000		Cỏ May Mắn	
item	925	1		60000		Lăng Tuyệt Phong Lệnh Bài Lv4	
