AwardType	AwardValue1	AwardValue2	AwardValue3	RandRate	WorldNotify	Name
item	2202	1		4400		Triệu Tiết
item	212	1		60000		Thủy Tinh Trắng
item	1723	1		60000		Đá Hồn Triệu Tiết-Sơ
item	1234	1		40000		Hoa Hồng
item	1235	1		40000		Cỏ May Mắn
item	925	1		50000		Lăng Tuyệt Phong Lệnh Bài Lv4
