AwardType	AwardValue1	AwardValue2	AwardValue3	RandRate	WorldNotify	Name
item	786	5		75000		Bảo Rương
item	785	5		37500		Chìa Khóa
item	212	5		150000		Thủy Tinh-Nhỏ
item	926	1		30000		Lăng Tuyệt Phong Lệnh Bài Lv5
item	1234	5		30000		Hoa Hồng
item	1235	5		30000		Cỏ May Mắn
Coin	3000			541700		3000 Bạc
