AwardType	AwardValue1	AwardValue2	AwardValue3	RandRate	WorldNotify	KinNotify	TeamNotify	Name
item	212	1		601000				Thủy Tinh Trắng
item	222	1		100000				Thủy Tinh Lục
item	1740	1		33300		101	103	Đá Hồn Lôi Phong-Sơ
item	1391	1		20000	102	101	103	Phụ Ma Thạch-Sơ
