AwardType	AwardValue1	AwardValue2	AwardValue3	RandRate	WorldNotify	KinNotify	TeamNotify	Name	IntoAuction
item	212	1		200000				Thủy Tinh Trắng	
item	222	1		510000				Thủy Tinh Lục	
item	223	1		100000				Thủy Tinh Lam	
item	224	1		15000		101	103	Thủy Tinh Tím	
item	1743	1		20000			103	Đá Hồn Lôi Chấn Thiên-Sơ	
item	1392	1		12000	102	101	103	Phụ Ma Thạch-Trung	1
item	1526	1		5000	102	101	103	Cao-Phụ Ma Thạch	1
