AwardType	AwardValue1	AwardValue2	AwardValue3	RandRate	WorldNotify	Name
item	212	1		250000		Thủy Tinh Trắng
Coin	10			36500		10 Bạc
Coin	20			36500		20 Bạc
Coin	30			36500		30 Bạc
Coin	40			36500		40 Bạc
Coin	50			36500		50 Bạc
Coin	60			36500		60 Bạc
Coin	70			36500		70 Bạc
Coin	80			36500		80 Bạc
Coin	90			36500		90 Bạc
Coin	100			36500		100 Bạc
