AwardType	AwardValue1	AwardValue2	AwardValue3	RandRate	WorldNotify	KinNotify	TeamNotify	Name	IntoAuction
item	212	1		399000				Thủy Tinh Trắng	
item	222	1		500000				Thủy Tinh Lục	
item	223	1		15000				Thủy Tinh Lam	
item	1742	1		64200		101	103	Đá Hồn Đường Quyên Quyên-Sơ	
item	1391	1		10980	102	101	103	Phụ Ma Thạch-Sơ	
item	1392	1		6880	102	101	103	Phụ Ma Thạch-Trung	1
