AwardType	AwardValue1	AwardValue2	AwardValue3	RandRate	WorldNotify	KinNotify	TeamNotify	Name
item	212	1		500000				Thủy Tinh Trắng
item	222	1		275000				Thủy Tinh Lục
item	1741	1		50000		101	103	Đá Hồn Lôi Đồng-Sơ
item	1391	1		30000	102	101	103	Phụ Ma Thạch-Sơ
